<?xml version="1.0" standalone="no"?>
<!DOCTYPE svg PUBLIC "-//W3C//DTD SVG 20010904//EN"
 "http://www.w3.org/TR/2001/REC-SVG-20010904/DTD/svg10.dtd">
<svg version="1.0" xmlns="http://www.w3.org/2000/svg"
 width="1199.000000pt" height="1126.000000pt" viewBox="0 0 1199.000000 1126.000000"
 preserveAspectRatio="xMidYMid meet">
<metadata>
Created by potrace 1.16, written by Peter Selinger 2001-2019
</metadata>
<g transform="translate(0.000000,1126.000000) scale(0.100000,-0.100000)"
fill="#000000" stroke="none">
<path d="M390 10750 l0 -190 5545 0 5545 0 0 190 0 190 -5545 0 -5545 0 0
-190z m11070 0 l0 -170 -5525 0 -5525 0 0 170 0 170 5525 0 5525 0 0 -170z"/>
<path d="M702 10897 c-37 -44 -16 -109 38 -117 33 -5 35 -7 38 -47 3 -35 0
-42 -18 -48 -12 -4 -30 0 -44 9 -29 19 -42 9 -19 -16 19 -22 76 -24 92 -4 17
20 10 107 -9 117 -8 4 -27 10 -42 14 -24 5 -28 10 -28 40 0 44 34 59 61 26 21
-26 29 -27 29 -1 0 34 -75 56 -98 27z"/>
<path d="M1140 10785 c0 -77 4 -125 10 -125 6 0 10 27 10 60 l0 60 30 0 c37 0
70 31 70 65 0 38 -33 65 -80 65 l-40 0 0 -125z m84 83 c13 -19 14 -25 2 -43
-7 -11 -24 -20 -37 -20 -19 0 -25 6 -27 28 -2 16 -1 35 2 43 8 21 43 17 60 -8z"/>
<path d="M2580 10785 l0 -125 51 0 c85 0 88 5 87 121 -1 120 -6 129 -84 129
l-54 0 0 -125z m108 93 c16 -16 15 -53 -2 -67 -8 -7 -30 -11 -48 -9 -28 3 -33
7 -36 31 -2 16 -1 35 2 43 7 17 67 19 84 2z m10 -136 c5 -45 -13 -64 -57 -60
-35 3 -36 4 -39 51 l-3 48 48 -3 c46 -3 48 -4 51 -36z"/>
<path d="M456 10852 c-3 -5 6 -20 19 -32 l25 -24 -26 -27 c-14 -15 -21 -29
-16 -33 5 -3 17 3 27 14 10 11 23 20 30 20 7 0 20 -9 30 -20 10 -11 22 -17 27
-14 5 3 0 16 -11 28 -26 28 -26 38 -1 61 11 10 17 22 14 27 -3 5 -16 0 -28
-11 -12 -12 -26 -21 -31 -21 -5 0 -19 9 -31 21 -12 11 -24 16 -28 11z"/>
<path d="M859 10831 c-26 -26 -29 -36 -29 -90 0 -49 3 -62 19 -71 33 -17 59
-11 93 19 42 37 30 53 -12 17 -53 -44 -80 -29 -80 45 0 39 5 51 26 68 15 12
40 21 55 21 16 0 29 5 29 10 0 6 -16 10 -36 10 -26 0 -43 -8 -65 -29z"/>
<path d="M1294 10848 c-4 -6 -2 -14 4 -16 8 -2 12 -32 12 -88 0 -49 4 -84 10
-84 6 0 10 28 10 65 0 57 3 69 25 90 13 14 36 25 50 25 14 0 25 5 25 10 0 16
-53 12 -78 -6 -20 -14 -22 -14 -22 0 0 19 -26 21 -36 4z"/>
<path d="M1459 10831 c-23 -23 -29 -38 -29 -71 0 -33 6 -48 29 -71 16 -16 35
-29 41 -29 6 0 25 13 41 29 23 23 29 38 29 71 0 33 -6 48 -29 71 -16 16 -35
29 -41 29 -6 0 -25 -13 -41 -29z m75 -23 c29 -42 9 -118 -31 -118 -29 0 -53
31 -53 68 0 64 53 95 84 50z"/>
<path d="M1627 10832 c-24 -25 -27 -36 -27 -94 0 -50 4 -67 16 -72 18 -7 61
19 75 45 16 30 29 22 29 -16 0 -43 -37 -85 -75 -85 -14 0 -25 -4 -25 -10 0
-23 62 -10 91 19 28 29 29 32 29 135 l0 106 -43 0 c-34 0 -49 -6 -70 -28z m91
-23 c2 -18 -9 -38 -38 -72 -23 -26 -46 -47 -51 -47 -5 0 -9 23 -9 52 0 40 5
57 22 75 30 32 72 28 76 -8z"/>
<path d="M1774 10848 c-4 -6 -2 -14 4 -16 8 -2 12 -32 12 -88 0 -49 4 -84 10
-84 6 0 10 28 10 65 0 57 3 69 25 90 13 14 36 25 50 25 14 0 25 5 25 10 0 16
-53 12 -78 -6 -20 -14 -22 -14 -22 0 0 19 -26 21 -36 4z"/>
<path d="M1939 10831 c-25 -26 -29 -37 -29 -88 0 -54 11 -83 32 -83 4 0 26 16
48 36 l40 36 0 -30 c0 -17 5 -34 11 -38 14 -8 56 14 64 34 9 23 -3 27 -23 9
-10 -10 -22 -17 -25 -17 -4 0 -7 38 -7 85 l0 85 -41 0 c-31 0 -47 -6 -70 -29z
m89 -22 c2 -19 -8 -40 -35 -72 -51 -61 -63 -60 -63 7 0 47 4 57 27 76 36 28
67 23 71 -11z"/>
<path d="M2110 10849 c-11 -8 -12 -12 -2 -16 8 -3 12 -31 12 -89 0 -68 3 -84
15 -84 12 0 15 13 15 59 0 55 2 61 36 90 19 17 39 29 45 26 5 -4 9 -44 9 -91
0 -68 3 -84 15 -84 12 0 15 13 15 59 0 55 2 61 36 90 19 17 39 29 45 26 5 -4
9 -37 9 -75 0 -37 3 -75 6 -84 9 -23 37 -19 64 9 31 32 17 46 -15 15 l-25 -23
0 75 c0 61 -3 78 -19 92 -22 20 -50 15 -76 -14 -17 -19 -18 -19 -37 5 -25 32
-39 31 -77 -1 l-31 -26 0 26 c0 27 -15 33 -40 15z"/>
<path d="M2754 10848 c-4 -6 -2 -14 4 -16 8 -2 12 -32 12 -88 0 -49 4 -84 10
-84 6 0 10 28 10 64 0 53 4 67 25 90 14 15 35 26 50 26 14 0 25 5 25 10 0 14
-46 13 -73 -1 -16 -9 -22 -9 -25 0 -5 15 -29 14 -38 -1z"/>
<path d="M2927 10836 c-30 -28 -42 -65 -33 -102 7 -28 51 -74 71 -74 7 0 24
12 39 27 47 47 47 99 0 146 -33 33 -44 34 -77 3z m83 -75 c0 -22 -8 -43 -22
-58 l-22 -23 -23 22 c-30 28 -31 83 -1 115 l22 23 23 -22 c16 -14 23 -33 23
-57z"/>
<path d="M3070 10849 c-11 -8 -12 -12 -2 -16 8 -3 12 -31 12 -90 0 -75 2 -84
18 -81 9 2 36 36 58 76 l42 73 27 -76 c15 -41 33 -75 40 -75 17 0 55 91 55
132 0 33 -23 78 -34 67 -3 -3 0 -19 6 -36 9 -25 9 -40 -2 -73 -7 -22 -17 -43
-20 -45 -4 -2 -20 30 -36 72 -16 42 -34 78 -40 80 -6 2 -16 -13 -22 -34 -7
-21 -23 -56 -37 -78 l-24 -40 -1 78 c0 79 -7 90 -40 66z"/>
<path d="M3376 10835 c-50 -46 -34 -70 53 -77 44 -4 49 -21 17 -53 -17 -17
-36 -25 -61 -25 -19 0 -35 -4 -35 -10 0 -5 18 -10 41 -10 31 0 47 6 70 29 50
51 34 91 -37 91 -24 0 -45 4 -49 9 -9 16 46 51 81 51 19 0 34 5 34 10 0 6 -20
10 -44 10 -32 0 -50 -6 -70 -25z"/>
<path d="M3547 10832 c-23 -24 -27 -36 -27 -88 0 -33 5 -65 12 -72 21 -21 62
-13 98 17 28 24 33 32 23 42 -9 9 -13 9 -13 2 0 -21 -58 -55 -81 -48 -19 6
-16 13 42 71 53 54 62 67 53 82 -6 9 -26 18 -45 20 -27 2 -40 -3 -62 -26z m83
-6 c0 -8 -19 -31 -42 -51 l-43 -36 -3 26 c-2 18 4 36 19 51 25 26 69 33 69 10z"/>
<path d="M3693 10853 c-18 -7 -16 -23 2 -23 12 0 15 -16 15 -85 0 -50 4 -85
10 -85 6 0 10 29 10 68 0 59 3 72 23 90 13 12 35 22 50 22 15 0 27 5 27 10 0
16 -62 11 -82 -7 -17 -15 -18 -15 -18 0 0 17 -13 20 -37 10z"/>
<path d="M11190 10845 c0 -12 18 -15 105 -15 87 0 105 3 105 15 0 12 -18 15
-105 15 -87 0 -105 -3 -105 -15z"/>
<path d="M11190 10755 c0 -12 18 -15 105 -15 87 0 105 3 105 15 0 12 -18 15
-105 15 -87 0 -105 -3 -105 -15z"/>
<path d="M11190 10665 c0 -12 18 -15 105 -15 87 0 105 3 105 15 0 12 -18 15
-105 15 -87 0 -105 -3 -105 -15z"/>
<path d="M390 5465 l0 -5075 5545 0 5545 0 0 5075 0 5075 -5545 0 -5545 0 0
-5075z m11071 25 c1 -2766 1 -5042 2 -5057 1 -23 -3 -27 -26 -26 -15 1 -2502
1 -5527 2 l-5500 1 0 5055 0 5055 5525 0 5525 0 1 -5030z"/>
<path d="M450 8945 l0 -1525 1805 0 1805 0 0 1525 0 1525 -1805 0 -1805 0 0
-1525z m3590 0 l0 -1505 -1785 0 -1785 0 0 1505 0 1505 1785 0 1785 0 0 -1505z"/>
<path d="M1360 10255 c0 -83 4 -135 10 -135 6 0 10 25 10 56 0 51 3 59 35 91
50 50 65 35 65 -68 0 -70 2 -79 18 -79 21 0 69 46 59 57 -4 3 -15 -1 -25 -10
-10 -10 -22 -17 -25 -17 -4 0 -7 31 -7 69 0 101 -29 125 -89 75 l-31 -26 0 61
c0 34 -4 61 -10 61 -6 0 -10 -52 -10 -135z"/>
<path d="M629 10331 c-34 -34 -39 -44 -39 -86 0 -42 5 -52 39 -86 48 -49 93
-53 140 -13 26 22 31 33 31 70 0 44 0 44 -35 44 -19 0 -35 -4 -35 -10 0 -5 11
-10 25 -10 21 0 25 -5 25 -29 0 -34 -39 -71 -75 -71 -34 0 -95 67 -95 105 0
44 61 105 104 105 18 0 41 -7 52 -15 23 -18 34 -19 34 -4 0 22 -35 38 -84 39
-43 0 -53 -4 -87 -39z"/>
<path d="M834 10308 c-4 -6 -2 -14 4 -16 8 -2 12 -32 12 -88 0 -68 3 -84 15
-84 12 0 15 14 15 70 0 58 3 72 22 90 12 11 32 20 45 20 13 0 23 5 23 10 0 13
-46 13 -71 0 -13 -7 -19 -7 -19 0 0 14 -37 13 -46 -2z"/>
<path d="M999 10290 c-28 -27 -30 -34 -27 -91 4 -86 23 -97 77 -45 l40 39 3
-34 c4 -42 24 -48 62 -18 20 16 25 24 16 33 -8 8 -15 6 -24 -6 -27 -37 -36
-20 -36 67 l0 85 -41 0 c-32 0 -47 -6 -70 -30z m91 -21 c0 -20 -12 -45 -37
-75 -49 -59 -63 -57 -63 6 0 41 5 56 25 75 13 14 36 25 50 25 21 0 25 -4 25
-31z"/>
<path d="M1177 10302 c-21 -23 -21 -32 -2 -32 12 0 15 -19 15 -110 0 -67 4
-110 10 -110 6 0 10 16 10 35 0 28 4 35 20 35 11 0 38 19 60 41 35 37 40 47
40 90 0 38 -4 51 -19 59 -28 15 -36 13 -70 -16 l-31 -26 0 26 c0 31 -11 33
-33 8z m133 -53 c0 -19 -12 -43 -36 -69 -49 -54 -64 -52 -64 6 0 39 5 51 35
81 29 29 38 33 50 23 8 -7 15 -25 15 -41z"/>
<path d="M1360 9895 c0 -83 4 -135 10 -135 6 0 10 26 10 58 0 53 3 61 34 91
53 51 66 39 66 -59 0 -94 14 -110 58 -67 33 33 21 49 -13 17 l-25 -23 0 75 c0
60 -4 78 -18 91 -25 23 -35 21 -71 -9 l-31 -26 0 61 c0 34 -4 61 -10 61 -6 0
-10 -52 -10 -135z"/>
<path d="M2122 9898 c3 -116 5 -133 20 -136 22 -4 94 61 84 76 -4 8 -18 -1
-37 -23 -17 -19 -35 -32 -40 -29 -5 3 -9 59 -9 125 0 75 -4 119 -10 119 -7 0
-10 -46 -8 -132z"/>
<path d="M2242 9898 c3 -150 10 -160 67 -113 17 15 31 22 31 17 0 -19 31 -42
56 -42 26 0 93 54 81 66 -4 4 -20 -5 -36 -20 -24 -23 -35 -27 -57 -22 l-27 7
64 65 c53 54 62 67 53 82 -6 9 -25 18 -43 20 -39 4 -91 -43 -91 -82 0 -28 -56
-99 -71 -90 -5 3 -9 59 -9 125 0 75 -4 119 -10 119 -7 0 -10 -46 -8 -132z
m212 35 c7 -7 -72 -93 -86 -93 -17 0 -7 55 14 77 21 22 57 30 72 16z"/>
<path d="M2855 10010 c-14 -15 -15 -20 -4 -20 8 0 20 9 27 20 7 11 8 20 4 20
-5 0 -17 -9 -27 -20z"/>
<path d="M630 9970 c-35 -35 -40 -46 -40 -85 0 -39 5 -50 40 -85 48 -48 87
-53 137 -14 29 22 33 31 33 70 0 44 0 44 -35 44 -19 0 -35 -4 -35 -10 0 -5 11
-10 25 -10 21 0 25 -5 25 -28 0 -36 -37 -72 -74 -72 -43 0 -96 58 -96 105 0
53 53 105 106 105 21 0 46 -7 56 -17 10 -9 21 -13 26 -9 15 16 -40 46 -84 46
-38 0 -49 -5 -84 -40z"/>
<path d="M1734 9966 c-36 -36 -44 -50 -44 -81 0 -31 8 -45 44 -81 24 -25 53
-44 65 -44 25 0 114 78 105 92 -4 5 -25 -9 -48 -31 -23 -23 -49 -41 -58 -41
-24 0 -88 76 -88 105 0 15 15 42 36 65 30 33 43 40 73 40 20 0 46 -7 58 -15
13 -9 24 -11 28 -6 10 17 -39 41 -84 41 -38 0 -49 -5 -87 -44z"/>
<path d="M2700 9961 c0 -10 -8 -22 -17 -26 -17 -6 -17 -7 -1 -19 13 -9 18 -31
20 -82 2 -54 6 -69 19 -72 20 -4 82 56 72 71 -4 6 -14 0 -27 -16 -36 -44 -46
-35 -46 43 l0 69 35 7 c19 3 35 11 35 16 0 6 -14 8 -35 5 -26 -4 -35 -2 -35 9
0 8 -4 14 -10 14 -5 0 -10 -9 -10 -19z"/>
<path d="M840 9949 c-11 -8 -12 -12 -2 -16 8 -3 12 -31 12 -89 0 -49 4 -84 10
-84 6 0 10 28 10 65 0 57 3 69 25 90 13 14 36 25 50 25 14 0 25 5 25 10 0 16
-48 12 -75 -6 -23 -15 -25 -15 -25 0 0 19 -9 20 -30 5z"/>
<path d="M999 9929 c-25 -27 -29 -39 -29 -88 0 -52 11 -81 32 -81 4 0 26 16
48 36 l40 36 0 -31 c0 -19 6 -34 15 -37 19 -8 65 22 65 41 0 21 -13 19 -28 -5
-22 -36 -32 -12 -32 76 l0 84 -41 0 c-33 0 -47 -6 -70 -31z m91 -20 c0 -22
-12 -46 -41 -80 -22 -27 -45 -46 -50 -43 -5 3 -9 28 -9 55 0 40 5 55 25 74 13
14 36 25 50 25 21 0 25 -4 25 -31z"/>
<path d="M1175 9940 c-16 -18 -16 -20 -1 -26 13 -5 16 -23 16 -115 0 -66 4
-109 10 -109 6 0 10 15 10 34 0 27 5 35 24 40 13 3 40 24 60 46 28 32 36 48
36 79 0 40 -20 71 -45 71 -7 0 -27 -12 -44 -26 l-31 -26 0 26 c0 31 -11 33
-35 6z m133 -45 c3 -32 -2 -43 -34 -76 -51 -52 -64 -50 -64 7 0 39 5 51 35 81
19 19 40 33 47 31 7 -3 14 -22 16 -43z"/>
<path d="M1959 9929 c-21 -23 -29 -41 -29 -69 0 -28 8 -46 29 -69 36 -38 45
-39 82 -2 23 23 29 38 29 71 0 33 -6 48 -29 71 -37 37 -46 36 -82 -2z m91 -69
c0 -26 -7 -43 -24 -59 l-25 -23 -25 25 c-17 17 -26 37 -26 57 0 20 9 40 26 57
l25 25 25 -23 c17 -16 24 -33 24 -59z"/>
<path d="M2539 9931 c-25 -25 -29 -37 -29 -85 0 -61 16 -86 56 -86 26 0 93 54
81 66 -4 4 -20 -5 -36 -20 -23 -22 -36 -27 -55 -22 -24 6 -26 11 -26 59 0 64
27 97 78 97 18 0 32 5 32 10 0 6 -16 10 -36 10 -26 0 -43 -8 -65 -29z"/>
<path d="M2831 9939 c-8 -15 -9 -24 -2 -28 5 -4 11 -38 13 -76 4 -82 18 -92
68 -48 l32 29 28 -28 c36 -35 45 -35 81 1 23 23 29 38 29 71 0 33 -6 48 -29
71 -16 16 -35 29 -41 29 -21 0 -70 -58 -70 -82 0 -27 -57 -101 -71 -93 -5 4
-9 44 -9 91 0 46 -3 84 -8 84 -4 0 -13 -10 -21 -21z m206 -21 c32 -30 31 -87
-2 -118 l-25 -23 -25 23 c-32 30 -34 84 -3 117 26 28 26 28 55 1z"/>
<path d="M3120 9949 c-11 -8 -12 -12 -2 -16 8 -3 12 -31 12 -89 0 -49 4 -84
10 -84 6 0 10 22 10 50 0 43 5 55 36 90 21 23 42 39 48 37 6 -2 13 -40 16 -88
4 -65 8 -84 21 -87 20 -4 71 36 63 50 -4 5 -15 1 -28 -11 -12 -12 -26 -18 -29
-14 -4 3 -7 39 -7 79 0 63 -3 75 -20 84 -22 12 -47 3 -70 -24 -18 -23 -30 -20
-30 9 0 27 -7 30 -30 14z"/>
<path d="M590 9650 c0 -5 16 -10 35 -10 l35 0 0 -115 c0 -70 4 -115 10 -115 6
0 10 45 10 115 l0 115 35 0 c19 0 35 5 35 10 0 6 -33 10 -80 10 -47 0 -80 -4
-80 -10z"/>
<path d="M1190 9611 c0 -10 -8 -22 -17 -26 -17 -6 -17 -7 0 -19 13 -10 17 -28
17 -80 0 -82 16 -94 63 -48 39 40 27 55 -13 17 l-30 -29 0 77 0 76 35 7 c19 3
35 11 35 16 0 6 -14 8 -35 5 -26 -4 -35 -2 -35 9 0 8 -4 14 -10 14 -5 0 -10
-9 -10 -19z"/>
<path d="M810 9581 c-26 -26 -30 -37 -30 -85 0 -61 16 -86 56 -86 26 0 93 54
81 66 -4 4 -20 -5 -36 -20 -24 -23 -35 -27 -57 -22 l-27 7 64 65 c53 54 62 67
53 82 -6 9 -25 18 -43 20 -24 3 -38 -4 -61 -27z m84 2 c7 -7 -72 -93 -86 -93
-17 0 -7 55 14 77 21 22 57 30 72 16z"/>
<path d="M950 9604 c0 -3 14 -17 30 -31 55 -45 55 -55 4 -112 -52 -58 -39 -70
17 -15 l38 37 34 -37 c19 -20 42 -36 51 -36 24 0 19 13 -12 31 -15 8 -33 28
-41 42 -14 26 -13 29 27 70 23 24 42 46 42 50 0 18 -26 3 -58 -34 l-34 -40
-24 34 c-21 32 -42 47 -65 47 -5 0 -9 -3 -9 -6z"/>
<path d="M1321 9588 c-10 -16 -10 -23 -2 -26 6 -2 11 -26 11 -58 0 -59 13 -94
33 -94 7 0 29 16 48 36 l34 35 5 -33 c3 -19 12 -34 21 -36 20 -4 71 36 63 50
-4 5 -15 1 -28 -11 -12 -12 -26 -18 -29 -14 -4 3 -7 44 -7 90 0 49 -4 83 -10
83 -5 0 -10 -19 -10 -42 0 -36 -7 -51 -41 -91 -22 -26 -45 -45 -50 -41 -5 3
-9 43 -9 90 0 46 -3 84 -8 84 -4 0 -13 -10 -21 -22z"/>
<path d="M1533 9603 c-18 -7 -16 -23 2 -23 12 0 15 -16 15 -85 0 -50 4 -85 10
-85 6 0 10 29 10 68 0 59 3 72 23 90 13 12 33 22 45 22 12 0 22 5 22 10 0 15
-43 12 -68 -6 -20 -14 -22 -14 -22 0 0 16 -13 19 -37 9z"/>
<path d="M1700 9581 c-26 -26 -30 -37 -30 -85 0 -61 16 -86 56 -86 26 0 93 54
81 66 -4 4 -20 -5 -36 -20 -24 -23 -35 -27 -57 -22 l-27 7 64 65 c53 54 62 67
53 82 -6 9 -25 18 -43 20 -24 3 -38 -4 -61 -27z m84 2 c7 -7 -72 -93 -86 -93
-17 0 -7 55 14 77 21 22 57 30 72 16z"/>
<path d="M2412 9188 c3 -116 5 -133 20 -136 22 -4 94 61 84 76 -4 8 -18 -1
-37 -23 -17 -19 -35 -32 -40 -29 -5 3 -9 59 -9 125 0 75 -4 119 -10 119 -7 0
-10 -46 -8 -132z"/>
<path d="M2532 9188 c3 -150 10 -160 67 -113 17 15 31 22 31 17 0 -19 31 -42
56 -42 26 0 93 54 81 66 -4 4 -20 -5 -36 -20 -24 -23 -35 -27 -57 -22 l-27 7
64 65 c53 54 62 67 53 82 -6 9 -25 18 -43 20 -39 4 -91 -43 -91 -82 0 -28 -56
-99 -71 -90 -5 3 -9 59 -9 125 0 75 -4 119 -10 119 -7 0 -10 -46 -8 -132z
m212 35 c7 -7 -72 -93 -86 -93 -17 0 -7 55 14 77 21 22 57 30 72 16z"/>
<path d="M3145 9300 c-14 -15 -15 -20 -4 -20 8 0 20 9 27 20 7 11 8 20 4 20
-5 0 -17 -9 -27 -20z"/>
<path d="M590 9290 c0 -5 16 -10 35 -10 l35 0 0 -115 c0 -70 4 -115 10 -115 6
0 10 45 10 115 l0 115 35 0 c19 0 35 5 35 10 0 6 -33 10 -80 10 -47 0 -80 -4
-80 -10z"/>
<path d="M2021 9255 c-56 -61 -56 -99 0 -160 25 -27 50 -45 63 -45 27 0 106
65 106 87 0 10 -15 1 -45 -26 -24 -22 -50 -41 -58 -41 -7 0 -30 17 -50 38 -50
51 -50 85 1 135 42 41 90 49 130 21 18 -12 22 -13 22 -1 0 19 -43 37 -89 37
-33 0 -45 -7 -80 -45z"/>
<path d="M1190 9251 c0 -10 -8 -22 -17 -26 -17 -6 -17 -7 0 -19 13 -10 17 -28
17 -80 0 -82 16 -94 63 -48 39 40 27 55 -13 17 l-30 -29 0 77 0 76 35 7 c19 3
35 11 35 16 0 6 -14 8 -35 5 -26 -4 -35 -2 -35 9 0 8 -4 14 -10 14 -5 0 -10
-9 -10 -19z"/>
<path d="M2990 9251 c0 -10 -8 -22 -17 -26 -17 -6 -17 -7 0 -19 13 -10 17 -28
17 -80 0 -82 16 -94 63 -48 39 40 27 55 -13 17 l-30 -29 0 77 0 76 35 7 c19 3
35 11 35 16 0 6 -14 8 -35 5 -26 -4 -35 -2 -35 9 0 8 -4 14 -10 14 -5 0 -10
-9 -10 -19z"/>
<path d="M810 9221 c-26 -26 -30 -37 -30 -85 0 -61 16 -86 56 -86 26 0 93 54
81 66 -4 4 -20 -5 -36 -20 -24 -23 -35 -27 -57 -22 l-27 7 64 65 c53 54 62 67
53 82 -6 9 -25 18 -43 20 -24 3 -38 -4 -61 -27z m84 2 c7 -7 -72 -93 -86 -93
-17 0 -7 55 14 77 21 22 57 30 72 16z"/>
<path d="M950 9244 c0 -3 14 -17 30 -31 55 -45 55 -55 4 -112 -52 -58 -39 -70
17 -15 l38 37 34 -37 c19 -20 42 -36 51 -36 24 0 19 13 -12 31 -15 8 -33 28
-41 42 -14 26 -13 29 27 70 23 24 42 46 42 50 0 18 -26 3 -58 -34 l-34 -40
-24 34 c-21 32 -42 47 -65 47 -5 0 -9 -3 -9 -6z"/>
<path d="M1321 9228 c-10 -16 -10 -23 -2 -26 6 -2 11 -26 11 -58 0 -59 13 -94
33 -94 7 0 29 16 48 36 l34 35 5 -33 c3 -19 12 -34 21 -36 20 -4 71 36 63 50
-4 5 -15 1 -28 -11 -12 -12 -26 -18 -29 -14 -4 3 -7 44 -7 90 0 49 -4 83 -10
83 -5 0 -10 -19 -10 -42 0 -36 -7 -51 -41 -91 -22 -26 -45 -45 -50 -41 -5 3
-9 43 -9 90 0 46 -3 84 -8 84 -4 0 -13 -10 -21 -22z"/>
<path d="M1533 9243 c-18 -7 -16 -23 2 -23 12 0 15 -16 15 -85 0 -50 4 -85 10
-85 6 0 10 29 10 68 0 59 3 72 23 90 13 12 33 22 45 22 12 0 22 5 22 10 0 15
-43 12 -68 -6 -20 -14 -22 -14 -22 0 0 16 -13 19 -37 9z"/>
<path d="M1700 9221 c-26 -26 -30 -37 -30 -85 0 -61 16 -86 56 -86 26 0 93 54
81 66 -4 4 -20 -5 -36 -20 -24 -23 -35 -27 -57 -22 l-27 7 64 65 c53 54 62 67
53 82 -6 9 -25 18 -43 20 -24 3 -38 -4 -61 -27z m84 2 c7 -7 -72 -93 -86 -93
-17 0 -7 55 14 77 21 22 57 30 72 16z"/>
<path d="M2249 9221 c-23 -23 -29 -38 -29 -71 0 -33 6 -48 29 -71 16 -16 35
-29 41 -29 6 0 25 13 41 29 23 23 29 38 29 71 0 33 -6 48 -29 71 -16 16 -35
29 -41 29 -6 0 -25 -13 -41 -29z m68 -13 c32 -30 31 -87 -2 -118 l-25 -23 -25
23 c-32 30 -34 84 -3 117 26 28 26 28 55 1z"/>
<path d="M2831 9224 c-29 -24 -31 -31 -31 -90 0 -52 3 -65 19 -74 33 -17 57
-11 91 20 41 39 32 52 -11 16 -18 -15 -41 -26 -53 -24 -18 3 -21 11 -24 57 -4
66 22 101 75 101 18 0 33 5 33 10 0 21 -68 10 -99 -16z"/>
<path d="M3121 9229 c-8 -15 -9 -24 -2 -28 5 -4 11 -38 13 -76 4 -82 18 -92
68 -48 l32 29 28 -28 c36 -35 45 -35 81 1 23 23 29 38 29 71 0 33 -6 48 -29
71 -16 16 -35 29 -41 29 -21 0 -70 -58 -70 -82 0 -27 -57 -101 -71 -93 -5 4
-9 44 -9 91 0 46 -3 84 -8 84 -4 0 -13 -10 -21 -21z m206 -21 c32 -30 31 -87
-2 -118 l-25 -23 -25 23 c-32 30 -34 84 -3 117 26 28 26 28 55 1z"/>
<path d="M3404 9238 c-4 -6 -2 -14 4 -16 8 -2 12 -32 12 -88 0 -49 4 -84 10
-84 6 0 10 24 10 54 0 48 4 59 35 91 19 20 40 35 47 33 9 -3 15 -33 18 -89 4
-65 9 -84 20 -87 17 -3 60 32 60 48 0 16 -17 12 -24 -5 -3 -8 -12 -15 -21 -15
-12 0 -15 14 -15 75 0 70 -2 76 -24 86 -19 9 -29 7 -50 -6 -14 -10 -26 -21
-26 -26 0 -5 -4 -9 -10 -9 -5 0 -10 11 -10 25 0 26 -23 35 -36 13z"/>
<path d="M4130 8945 l0 -1525 1805 0 1805 0 0 1525 0 1525 -1805 0 -1805 0 0
-1525z m210 1415 c0 -77 -3 -93 -20 -110 -11 -11 -27 -20 -35 -20 -8 0 -15 -4
-15 -10 0 -19 38 -10 64 16 24 25 26 33 26 120 0 77 3 94 15 94 12 0 15 -18
15 -100 0 -60 4 -100 10 -100 6 0 10 25 10 56 0 51 3 59 35 91 19 19 40 33 47
31 9 -3 15 -34 18 -89 6 -94 18 -108 60 -64 30 32 18 46 -15 15 l-25 -23 0 76
c0 55 -4 80 -16 91 -14 15 131 16 1595 16 l1611 0 0 -1505 0 -1505 -1529 0
-1530 0 20 46 c21 46 20 84 -3 111 -19 23 -27 3 -11 -27 16 -34 7 -78 -24
-112 -34 -37 -43 -23 -43 67 0 67 -3 85 -14 85 -19 0 -33 -23 -18 -28 8 -2 12
-29 12 -73 0 -67 -1 -69 -25 -69 l-25 0 0 110 c0 81 -3 110 -12 110 -13 0 -70
-83 -102 -148 l-17 -33 -25 47 c-35 65 -83 134 -94 134 -6 0 -10 -47 -10 -110
l0 -110 -60 0 -60 0 0 1505 0 1505 95 0 95 0 0 -90z m129 88 c-2 -2 -16 -14
-31 -27 l-28 -24 0 26 c0 24 4 27 32 27 17 0 29 -1 27 -2z m-118 -2930 c16
-32 29 -62 29 -68 0 -5 -20 -10 -45 -10 l-45 0 0 88 c1 80 2 86 16 67 9 -11
29 -46 45 -77z m155 -75 c-2 -2 -25 -3 -50 -1 l-46 3 25 53 c14 30 35 68 47
85 l23 32 3 -84 c2 -46 1 -85 -2 -88z"/>
<path d="M7625 10370 c-18 -20 -17 -20 20 -20 37 0 38 0 20 20 -10 11 -19 20
-20 20 -1 0 -10 -9 -20 -20z"/>
<path d="M4412 10028 c3 -116 5 -133 20 -136 22 -4 94 61 84 76 -4 8 -18 -1
-37 -23 -17 -19 -35 -32 -40 -29 -5 3 -9 59 -9 125 0 75 -4 119 -10 119 -7 0
-10 -46 -8 -132z"/>
<path d="M4340 10025 c0 -102 -2 -117 -20 -135 -11 -11 -27 -20 -35 -20 -8 0
-15 -4 -15 -10 0 -19 38 -10 64 16 25 26 26 31 26 145 0 73 -4 119 -10 119 -6
0 -10 -45 -10 -115z"/>
<path d="M4340 9677 c0 -106 -2 -115 -23 -135 -13 -12 -29 -22 -35 -22 -7 0
-12 -4 -12 -10 0 -19 41 -10 65 15 24 23 25 30 25 145 0 73 -4 120 -10 120 -6
0 -10 -44 -10 -113z"/>
<path d="M4394 9728 c-4 -6 -2 -14 4 -16 8 -2 12 -32 12 -88 0 -68 3 -84 15
-84 12 0 15 13 15 57 0 48 4 61 27 85 15 15 35 28 45 28 16 0 18 -10 18 -85 0
-69 3 -85 15 -85 12 0 15 13 15 58 0 51 4 62 28 85 50 48 61 38 64 -55 3 -71
6 -83 21 -86 10 -2 27 4 36 12 16 15 19 15 31 1 20 -24 62 -18 98 15 18 16 30
35 26 41 -4 7 -18 -1 -39 -21 -24 -24 -38 -30 -54 -25 -18 5 -21 14 -21 59 0
61 27 96 73 96 15 0 27 5 27 10 0 13 -56 13 -81 0 -24 -13 -49 -61 -49 -95 0
-30 -16 -65 -30 -65 -6 0 -10 28 -10 63 0 100 -37 133 -90 82 l-27 -26 -17 26
c-21 32 -43 32 -78 -2 l-28 -27 0 27 c0 20 -5 27 -19 27 -11 0 -23 -5 -27 -12z"/>
<path d="M4919 9711 c-25 -25 -29 -37 -29 -85 0 -62 16 -86 59 -86 18 0 38 12
59 33 42 43 30 56 -15 17 -54 -48 -83 -35 -83 37 0 54 33 93 80 93 16 0 30 5
30 10 0 6 -16 10 -36 10 -26 0 -43 -8 -65 -29z"/>
<path d="M4530 9415 c0 -31 -3 -35 -25 -35 -14 0 -37 -7 -50 -16 -23 -15 -25
-15 -25 0 0 19 -9 20 -30 5 -11 -8 -12 -12 -2 -16 8 -3 12 -31 12 -89 0 -49 4
-84 10 -84 6 0 10 28 10 65 0 57 3 69 25 90 13 14 36 25 50 25 25 0 25 0 25
-90 0 -53 4 -90 10 -90 6 0 10 24 10 53 0 47 4 58 35 91 49 54 59 45 63 -53 3
-88 12 -102 51 -81 14 7 21 7 21 0 0 -5 14 -10 31 -10 23 0 42 10 70 39 35 35
39 44 39 89 0 41 -4 53 -20 62 -22 12 -47 3 -70 -24 -23 -28 -30 -17 -30 44 0
33 -4 60 -10 60 -6 0 -10 -41 -10 -103 0 -77 -4 -108 -16 -125 -24 -35 -34
-17 -34 64 0 70 -2 75 -25 86 -22 10 -29 8 -53 -15 -16 -15 -31 -27 -35 -27
-4 0 -7 27 -7 60 0 33 -4 60 -10 60 -5 0 -10 -16 -10 -35z m308 -106 c3 -39
-1 -48 -32 -78 -43 -41 -66 -37 -66 14 0 26 9 45 36 75 21 23 42 39 48 37 6
-2 12 -24 14 -48z"/>
<path d="M4340 9315 c0 -102 -2 -117 -20 -135 -11 -11 -27 -20 -35 -20 -8 0
-15 -4 -15 -10 0 -19 38 -10 64 16 25 26 26 31 26 145 0 73 -4 119 -10 119 -6
0 -10 -45 -10 -115z"/>
<path d="M4470 9085 c-7 -9 -10 -18 -7 -22 8 -7 37 15 37 28 0 14 -16 11 -30
-6z"/>
<path d="M4270 8955 l0 -125 55 0 c30 0 55 5 55 10 0 6 -20 10 -45 10 l-45 0
0 115 c0 70 -4 115 -10 115 -6 0 -10 -48 -10 -125z"/>
<path d="M4445 9010 c-16 -18 -16 -20 -1 -26 13 -5 16 -21 16 -82 0 -69 -3
-79 -27 -104 -14 -15 -23 -31 -19 -35 4 -5 21 7 37 25 28 31 29 35 29 137 0
58 -4 105 -8 105 -5 0 -17 -9 -27 -20z"/>
<path d="M4521 9008 c-10 -16 -10 -23 -2 -26 7 -2 11 -40 11 -113 0 -66 4
-109 10 -109 6 0 10 16 10 35 0 29 4 35 21 35 12 0 39 17 60 39 35 35 39 44
39 89 0 41 -4 53 -20 62 -22 12 -47 3 -70 -24 -18 -23 -30 -20 -30 9 0 31 -11
32 -29 3z m127 -49 c3 -39 -1 -48 -32 -78 -43 -41 -66 -37 -66 14 0 26 9 45
36 75 21 23 42 39 48 37 6 -2 12 -24 14 -48z"/>
<path d="M4440 8605 c0 -83 4 -135 10 -135 6 0 10 23 10 52 l0 52 53 -52 c58
-58 102 -74 47 -17 l-33 34 23 19 c29 24 32 79 5 98 -25 19 -29 18 -64 -12
l-31 -26 0 61 c0 34 -4 61 -10 61 -6 0 -10 -52 -10 -135z m110 25 c20 -38 -12
-70 -54 -54 -22 8 -20 23 6 51 26 28 34 29 48 3z"/>
<path d="M4270 8595 l0 -125 55 0 c30 0 55 5 55 10 0 6 -20 10 -45 10 l-45 0
0 115 c0 70 -4 115 -10 115 -6 0 -10 -48 -10 -125z"/>
<path d="M4615 8650 c-16 -18 -16 -20 -1 -26 13 -5 16 -23 16 -115 0 -66 4
-109 10 -109 6 0 10 15 10 34 0 27 5 35 24 40 13 3 40 24 60 46 28 32 36 48
36 79 0 40 -20 71 -45 71 -7 0 -27 -12 -44 -26 l-31 -26 0 26 c0 31 -11 33
-35 6z m133 -45 c3 -32 -2 -43 -34 -76 -51 -52 -64 -50 -64 7 0 39 5 51 35 81
19 19 40 33 47 31 7 -3 14 -22 16 -43z"/>
<path d="M4270 8245 l0 -125 55 0 c30 0 55 5 55 10 0 6 -20 10 -45 10 l-45 0
0 115 c0 70 -4 115 -10 115 -6 0 -10 -48 -10 -125z"/>
<path d="M4423 8313 c-18 -7 -16 -23 2 -23 12 0 15 -16 15 -85 0 -50 4 -85 10
-85 6 0 10 26 10 58 0 53 3 61 35 92 50 48 65 32 65 -71 0 -62 3 -79 14 -79
20 0 73 47 63 56 -4 4 -18 -3 -32 -16 l-25 -23 0 69 c0 71 -17 114 -45 114 -7
0 -27 -12 -44 -26 l-31 -26 0 26 c0 25 -10 30 -37 19z"/>
<path d="M4641 8298 c-10 -16 -10 -23 -2 -26 6 -2 11 -26 11 -58 0 -59 13 -94
33 -94 7 0 29 16 48 36 l34 35 5 -33 c3 -19 12 -34 21 -36 20 -4 71 36 63 50
-4 5 -15 1 -28 -11 -12 -12 -26 -18 -29 -14 -4 3 -7 44 -7 90 0 49 -4 83 -10
83 -5 0 -10 -19 -10 -42 0 -36 -7 -51 -41 -91 -22 -26 -45 -45 -50 -41 -5 3
-9 43 -9 90 0 46 -3 84 -8 84 -4 0 -13 -10 -21 -22z"/>
<path d="M4270 7895 c0 -152 18 -170 22 -22 l3 102 33 -55 c18 -30 40 -76 50
-102 17 -49 32 -62 32 -29 0 23 65 155 85 171 13 11 15 0 15 -89 0 -61 4 -101
10 -101 6 0 10 48 10 125 0 93 -3 125 -12 125 -13 0 -70 -83 -102 -148 l-17
-33 -25 47 c-35 65 -83 134 -94 134 -6 0 -10 -53 -10 -125z"/>
<path d="M4564 7958 c-4 -6 -2 -14 4 -16 8 -2 12 -32 12 -88 0 -49 4 -84 10
-84 6 0 10 24 10 54 0 48 4 59 35 91 50 53 59 44 63 -58 3 -94 22 -122 22 -33
0 48 4 59 35 91 19 20 40 35 47 33 9 -3 15 -33 18 -89 4 -65 9 -84 20 -87 17
-3 60 32 60 48 0 16 -17 12 -24 -5 -3 -8 -12 -15 -21 -15 -12 0 -15 14 -15 75
0 70 -2 76 -24 86 -19 9 -29 7 -50 -6 -14 -10 -26 -21 -26 -26 0 -5 -4 -9 -10
-9 -5 0 -10 7 -10 15 0 9 -11 20 -24 26 -19 9 -29 7 -50 -6 -14 -10 -26 -21
-26 -26 0 -5 -4 -9 -10 -9 -5 0 -10 11 -10 25 0 26 -23 35 -36 13z"/>
<path d="M7625 7520 c17 -19 19 -19 37 -4 24 23 24 24 -19 24 -36 0 -36 0 -18
-20z"/>
<path d="M7810 8945 l0 -1525 1805 0 1805 0 0 1525 0 1525 -1805 0 -1805 0 0
-1525z m3590 0 l0 -1505 -1785 0 -1785 0 0 1504 0 1503 1785 2 1785 2 0 -1506z"/>
<path d="M11305 10370 c-18 -20 -17 -20 20 -20 37 0 38 0 20 20 -10 11 -19 20
-20 20 -1 0 -10 -9 -20 -20z"/>
<path d="M9030 10230 c0 -148 8 -164 60 -115 27 26 28 26 34 7 12 -37 37 -35
78 5 37 36 38 36 38 13 0 -54 36 -63 75 -20 26 28 10 38 -18 12 -13 -12 -27
-19 -30 -15 -4 3 -7 44 -7 90 l0 83 -37 0 c-53 -1 -103 -47 -103 -95 0 -12
-16 -36 -35 -55 l-35 -34 0 127 c0 78 -4 127 -10 127 -6 0 -10 -50 -10 -130z
m210 6 c0 -25 -10 -45 -41 -80 -47 -53 -59 -49 -59 20 0 50 35 94 75 94 22 0
25 -4 25 -34z"/>
<path d="M7950 10330 c0 -5 16 -10 35 -10 l35 0 0 -115 c0 -70 4 -115 10 -115
6 0 10 45 10 115 l0 115 35 0 c19 0 35 5 35 10 0 6 -33 10 -80 10 -47 0 -80
-4 -80 -10z"/>
<path d="M9340 10291 c0 -10 -8 -22 -17 -26 -17 -6 -17 -7 -1 -19 13 -9 18
-31 20 -82 2 -54 6 -69 19 -72 20 -4 82 56 72 71 -4 6 -14 0 -27 -16 -36 -44
-46 -35 -46 43 l0 69 35 7 c19 3 35 11 35 16 0 6 -14 8 -35 5 -26 -4 -35 -2
-35 9 0 8 -4 14 -10 14 -5 0 -10 -9 -10 -19z"/>
<path d="M8150 10279 c-11 -8 -12 -12 -2 -16 8 -3 12 -31 12 -89 0 -49 4 -84
10 -84 6 0 10 28 10 65 0 57 3 69 25 90 13 14 36 25 50 25 14 0 25 5 25 10 0
16 -48 12 -75 -6 -23 -15 -25 -15 -25 0 0 19 -9 20 -30 5z"/>
<path d="M8330 10277 c-69 -54 -65 -187 5 -187 28 0 98 57 89 72 -4 5 -21 -4
-38 -21 -32 -31 -60 -39 -71 -21 -4 6 19 33 49 61 74 68 75 110 3 109 -12 0
-29 -6 -37 -13z m70 -21 c0 -14 -79 -86 -94 -86 -16 0 -4 50 19 74 26 28 75
36 75 12z"/>
<path d="M8463 10283 c-18 -7 -16 -23 2 -23 12 0 15 -16 15 -85 0 -50 4 -85
10 -85 6 0 10 26 10 58 0 53 3 61 35 92 50 48 65 32 65 -71 0 -46 4 -79 10
-79 6 0 10 26 10 58 0 53 3 61 35 92 50 48 65 32 65 -71 0 -62 3 -79 14 -79
20 0 73 47 63 56 -4 4 -18 -3 -32 -16 l-25 -23 0 69 c0 71 -17 114 -45 114 -7
0 -27 -11 -43 -25 l-30 -25 -16 25 c-21 32 -37 31 -75 -1 l-31 -26 0 26 c0 25
-10 30 -37 19z"/>
<path d="M8795 10270 c-16 -18 -16 -20 -1 -26 12 -5 16 -20 16 -68 0 -57 11
-86 32 -86 4 0 26 16 48 36 l40 36 0 -31 c0 -18 6 -34 14 -37 18 -7 66 24 66
42 0 19 -16 18 -24 -1 -3 -8 -12 -15 -21 -15 -12 0 -15 15 -15 85 0 50 -4 85
-10 85 -5 0 -10 -19 -10 -41 0 -34 -8 -50 -41 -90 -22 -27 -45 -46 -50 -43 -5
3 -9 43 -9 90 0 46 -4 84 -8 84 -5 0 -17 -9 -27 -20z"/>
<path d="M9490 10261 c-26 -26 -30 -37 -30 -85 0 -61 16 -86 56 -86 26 0 93
54 81 66 -4 4 -20 -5 -36 -20 -24 -23 -35 -27 -57 -22 l-27 7 64 65 c53 54 62
67 53 82 -6 9 -25 18 -43 20 -24 3 -38 -4 -61 -27z m84 2 c7 -7 -72 -93 -86
-93 -17 0 -7 55 14 77 21 22 57 30 72 16z"/>
<path d="M8320 9985 c-7 -9 -10 -18 -7 -22 8 -7 37 15 37 28 0 14 -16 11 -30
-6z"/>
<path d="M8640 9865 c0 -83 4 -135 10 -135 6 0 10 23 10 50 0 28 4 50 9 50 4
0 29 -22 55 -50 26 -27 54 -50 63 -50 12 0 7 11 -20 38 -36 37 -36 38 -14 47
38 17 35 98 -3 110 -14 5 -32 -2 -55 -20 l-35 -26 0 60 c0 34 -4 61 -10 61 -6
0 -10 -52 -10 -135z m118 1 c-2 -25 -8 -32 -29 -34 -14 -2 -31 3 -37 11 -10
11 -7 20 12 40 32 35 58 27 54 -17z"/>
<path d="M7950 9970 c0 -5 16 -10 35 -10 l35 0 0 -115 c0 -70 4 -115 10 -115
6 0 10 45 10 115 l0 115 35 0 c19 0 35 5 35 10 0 6 -33 10 -80 10 -47 0 -80
-4 -80 -10z"/>
<path d="M9000 9930 c0 -11 -4 -20 -10 -20 -5 0 -10 -7 -10 -15 0 -8 4 -15 10
-15 5 0 10 -33 12 -72 2 -59 6 -73 20 -76 22 -4 83 51 74 66 -5 8 -16 2 -33
-18 -13 -17 -29 -28 -34 -24 -5 3 -9 36 -9 74 l0 70 40 6 c50 8 53 27 3 22
-22 -2 -38 2 -41 10 -6 19 -22 14 -22 -8z"/>
<path d="M8150 9919 c-11 -8 -12 -12 -2 -16 8 -3 12 -31 12 -89 0 -49 4 -84
10 -84 6 0 10 28 10 65 0 57 3 69 25 90 13 14 36 25 50 25 14 0 25 5 25 10 0
16 -48 12 -75 -6 -23 -15 -25 -15 -25 0 0 19 -9 20 -30 5z"/>
<path d="M8295 9910 c-16 -18 -16 -20 -1 -26 13 -5 16 -20 16 -75 0 -88 15
-98 70 -44 22 21 37 42 33 48 -3 5 -23 -8 -44 -29 l-39 -38 0 92 c0 51 -4 92
-8 92 -5 0 -17 -9 -27 -20z"/>
<path d="M8413 9923 c-18 -7 -16 -23 2 -23 12 0 15 -16 15 -85 0 -50 4 -85 10
-85 6 0 10 25 10 56 0 51 3 59 35 91 19 19 40 33 47 31 9 -3 15 -34 18 -89 6
-94 18 -108 60 -64 30 32 18 46 -15 15 l-25 -23 0 76 c0 107 -28 133 -89 81
l-31 -26 0 26 c0 25 -10 30 -37 19z"/>
<path d="M8839 9899 c-24 -26 -29 -39 -29 -84 0 -57 19 -85 58 -85 25 0 91 55
79 66 -4 4 -20 -5 -35 -19 -16 -15 -35 -27 -44 -27 -36 0 -28 24 26 74 57 52
66 72 44 94 -23 23 -68 14 -99 -19z m87 0 c6 -10 -71 -88 -88 -89 -5 0 -8 11
-8 25 0 48 75 97 96 64z"/>
<path d="M9149 9900 c-42 -41 -28 -68 38 -72 35 -2 49 -7 51 -20 5 -27 -37
-58 -80 -58 -21 0 -38 -4 -38 -10 0 -5 19 -10 43 -10 34 0 49 6 70 28 49 51
31 92 -40 92 -31 0 -43 4 -43 14 0 22 40 46 77 46 18 0 33 5 33 10 0 6 -18 10
-41 10 -32 0 -47 -6 -70 -30z"/>
<path d="M8360 9515 c0 -114 2 -135 15 -135 20 0 92 66 82 76 -4 4 -23 -8 -42
-26 l-35 -34 0 127 c0 78 -4 127 -10 127 -6 0 -10 -52 -10 -135z"/>
<path d="M8490 9635 c-7 -9 -10 -18 -7 -22 8 -7 37 15 37 28 0 14 -16 11 -30
-6z"/>
<path d="M8810 9515 c0 -83 4 -135 10 -135 6 0 10 23 10 50 0 28 3 50 7 50 3
0 27 -23 53 -52 53 -59 88 -64 39 -5 -17 20 -26 37 -20 37 38 0 54 75 23 103
-25 23 -35 21 -71 -9 l-31 -26 0 61 c0 34 -4 61 -10 61 -6 0 -10 -52 -10 -135z
m116 -9 c-7 -30 -45 -36 -66 -11 -9 11 -7 19 15 41 24 24 28 25 42 11 10 -10
13 -24 9 -41z"/>
<path d="M7950 9521 c0 -86 3 -113 16 -125 22 -23 52 -20 91 10 l33 25 0 -25
c0 -15 5 -26 10 -26 6 0 10 48 10 125 0 77 -4 125 -10 125 -6 0 -10 -33 -10
-79 0 -64 -4 -83 -21 -105 -27 -34 -55 -49 -79 -41 -18 6 -20 16 -20 116 0 66
-4 109 -10 109 -6 0 -10 -43 -10 -109z"/>
<path d="M8151 9558 c-10 -16 -10 -23 -2 -26 7 -2 11 -40 11 -113 0 -66 4
-109 10 -109 6 0 10 16 10 35 0 29 4 35 21 35 12 0 39 17 60 39 35 35 39 44
39 89 0 41 -4 53 -20 62 -22 12 -47 3 -70 -24 -18 -23 -30 -20 -30 9 0 31 -11
32 -29 3z m127 -49 c3 -39 -1 -48 -32 -78 -43 -41 -66 -37 -66 14 0 26 9 45
36 75 21 23 42 39 48 37 6 -2 12 -24 14 -48z"/>
<path d="M8467 9562 c-21 -23 -21 -32 -2 -32 12 0 15 -15 15 -75 0 -59 3 -75
15 -75 21 0 85 59 85 78 0 11 -13 3 -40 -23 l-40 -39 0 92 c0 51 -4 92 -8 92
-5 0 -16 -8 -25 -18z"/>
<path d="M8583 9573 c-18 -7 -16 -23 2 -23 12 0 15 -16 15 -85 0 -50 4 -85 10
-85 6 0 10 26 10 58 0 53 3 61 35 92 50 48 65 32 65 -71 0 -62 3 -79 14 -79
20 0 73 47 63 56 -4 4 -18 -3 -32 -16 l-25 -23 0 69 c0 71 -17 114 -45 114 -7
0 -27 -12 -44 -26 l-31 -26 0 26 c0 25 -10 30 -37 19z"/>
<path d="M8280 9155 c0 -83 4 -135 10 -135 6 0 10 23 10 50 0 45 4 55 38 92
23 24 44 38 50 34 7 -4 12 -36 12 -79 0 -93 9 -108 49 -86 26 15 30 16 45 1
15 -15 19 -13 54 21 21 20 41 37 45 37 4 0 7 -14 7 -30 0 -42 25 -49 58 -17
33 33 21 49 -13 17 l-25 -23 0 91 0 92 -39 0 c-57 0 -101 -39 -101 -90 0 -39
-34 -95 -51 -85 -5 4 -9 40 -9 80 0 64 -3 76 -20 85 -22 12 -47 3 -70 -24 -23
-28 -30 -17 -30 44 0 33 -4 60 -10 60 -6 0 -10 -52 -10 -135z m318 13 c2 -20
-7 -38 -39 -73 -23 -25 -45 -45 -50 -45 -5 0 -9 23 -9 52 0 40 5 57 22 75 31
33 72 28 76 -9z"/>
<path d="M10040 9155 c0 -83 4 -135 10 -135 6 0 10 26 10 58 0 53 3 61 34 91
53 51 66 39 66 -59 0 -94 14 -110 58 -67 33 33 21 49 -13 17 l-25 -23 0 75 c0
60 -4 78 -18 91 -25 23 -35 21 -71 -9 l-31 -26 0 61 c0 34 -4 61 -10 61 -6 0
-10 -52 -10 -135z"/>
<path d="M10265 9270 c-10 -11 -13 -20 -8 -20 13 0 38 29 31 35 -3 3 -13 -4
-23 -15z"/>
<path d="M10590 9155 c0 -83 4 -135 10 -135 6 0 10 23 10 52 l0 52 53 -52 c58
-58 102 -74 47 -17 l-33 34 26 21 c30 24 34 55 11 88 -20 29 -36 28 -73 -4
l-31 -26 0 61 c0 34 -4 61 -10 61 -6 0 -10 -52 -10 -135z m114 22 c23 -37 -36
-76 -64 -42 -11 13 -9 19 10 40 26 28 38 28 54 2z"/>
<path d="M10790 9275 c-7 -9 -10 -18 -7 -22 8 -7 37 15 37 28 0 14 -16 11 -30
-6z"/>
<path d="M7950 9253 c0 -21 73 -233 80 -233 3 0 19 39 35 86 16 47 32 87 36
89 3 3 19 -36 35 -85 16 -49 33 -88 37 -87 9 3 50 111 73 192 17 60 16 55 4
55 -5 0 -14 -19 -20 -42 -17 -67 -51 -148 -60 -143 -5 3 -21 46 -37 95 -26 84
-43 113 -43 73 0 -24 -52 -173 -60 -173 -7 0 -60 153 -60 175 0 8 -4 15 -10
15 -5 0 -10 -8 -10 -17z"/>
<path d="M9720 9145 c0 -77 4 -125 10 -125 6 0 10 48 10 125 0 77 -4 125 -10
125 -6 0 -10 -48 -10 -125z"/>
<path d="M8690 9221 c0 -10 -8 -22 -17 -26 -17 -6 -17 -7 -1 -19 13 -9 18 -31
20 -82 2 -54 6 -69 19 -72 20 -4 82 56 72 71 -4 6 -14 0 -27 -16 -36 -44 -46
-35 -46 43 l0 69 35 7 c19 3 35 11 35 16 0 6 -14 8 -35 5 -26 -4 -35 -2 -35 9
0 8 -4 14 -10 14 -5 0 -10 -9 -10 -19z"/>
<path d="M9920 9226 c0 -7 -7 -19 -15 -26 -8 -7 -15 -16 -15 -21 0 -5 7 -9 15
-9 12 0 15 -15 15 -75 0 -60 3 -75 15 -75 20 0 82 56 72 66 -4 4 -21 -5 -37
-21 l-30 -29 0 76 c0 79 5 88 51 88 10 0 19 5 19 11 0 7 -14 10 -35 7 -24 -3
-35 0 -35 9 0 7 -4 13 -10 13 -5 0 -10 -6 -10 -14z"/>
<path d="M8943 9213 c-18 -7 -16 -23 2 -23 12 0 15 -16 15 -85 0 -47 4 -85 9
-85 10 0 67 89 82 128 13 33 22 22 49 -60 12 -38 27 -68 35 -68 17 0 55 91 55
132 0 36 -23 78 -36 65 -4 -4 -2 -13 4 -19 7 -7 12 -25 12 -40 0 -30 -27 -104
-35 -97 -2 3 -17 38 -32 79 -27 69 -53 102 -53 66 0 -9 -15 -45 -32 -79 l-33
-62 -3 78 c-3 76 -7 84 -39 70z"/>
<path d="M9249 9191 c-26 -26 -29 -37 -29 -89 0 -90 35 -104 88 -37 26 33 32
32 32 -5 0 -42 25 -49 58 -17 33 33 21 49 -13 17 l-25 -23 0 91 0 92 -41 0
c-31 0 -47 -6 -70 -29z m91 -22 c0 -21 -12 -45 -42 -79 -23 -27 -46 -47 -50
-44 -4 3 -8 28 -8 56 0 61 27 98 72 98 25 0 28 -4 28 -31z"/>
<path d="M9438 9191 c-44 -40 -31 -65 36 -69 57 -4 68 -23 36 -58 -17 -17 -34
-24 -62 -24 -21 0 -38 -4 -38 -10 0 -5 18 -10 39 -10 69 0 127 70 89 108 -7 7
-31 12 -53 12 -53 0 -60 8 -33 37 15 16 33 23 60 23 21 0 38 5 38 10 0 6 -18
10 -40 10 -30 0 -48 -7 -72 -29z"/>
<path d="M10236 9201 c-15 -17 -16 -20 -2 -28 11 -6 16 -28 18 -78 2 -53 7
-70 18 -73 20 -3 92 67 83 81 -4 6 -18 -3 -33 -21 -42 -51 -50 -42 -50 53 0
47 -4 85 -8 85 -5 0 -17 -9 -26 -19z"/>
<path d="M10354 9208 c-4 -6 -2 -14 4 -16 8 -2 12 -32 12 -88 0 -49 4 -84 10
-84 6 0 10 24 10 54 0 48 4 59 35 91 19 20 40 35 47 33 9 -3 15 -33 18 -89 4
-65 9 -84 20 -87 17 -3 60 32 60 48 0 16 -17 12 -24 -5 -3 -8 -12 -15 -21 -15
-12 0 -15 14 -15 75 0 70 -2 76 -24 86 -19 9 -29 7 -50 -6 -14 -10 -26 -21
-26 -26 0 -5 -4 -9 -10 -9 -5 0 -10 11 -10 25 0 26 -23 35 -36 13z"/>
<path d="M10765 9200 c-16 -18 -16 -20 -1 -26 13 -5 16 -20 16 -75 0 -88 15
-98 70 -44 22 21 37 42 33 48 -3 5 -23 -8 -44 -29 l-39 -38 0 92 c0 51 -4 92
-8 92 -5 0 -17 -9 -27 -20z"/>
<path d="M10883 9213 c-18 -7 -16 -23 2 -23 12 0 15 -16 15 -85 0 -50 4 -85
10 -85 6 0 10 25 10 56 0 51 3 59 35 91 50 50 59 41 63 -56 3 -89 16 -108 51
-77 16 15 19 15 31 1 18 -22 25 -19 70 21 l40 36 0 -39 c0 -45 -31 -83 -68
-83 -12 0 -22 -4 -22 -10 0 -19 49 -10 79 16 l31 26 0 109 0 109 -41 0 c-55 0
-99 -44 -99 -99 0 -27 -7 -44 -25 -61 l-25 -23 0 76 c0 107 -28 133 -89 81
l-31 -26 0 26 c0 25 -10 30 -37 19z m327 -44 c0 -22 -12 -46 -41 -80 -22 -27
-45 -46 -50 -43 -5 3 -9 28 -9 55 0 40 5 55 25 74 13 14 36 25 50 25 21 0 25
-4 25 -31z"/>
<path d="M8280 8805 c0 -113 2 -135 15 -135 12 0 15 13 15 59 0 55 2 61 36 91
20 17 40 28 45 23 4 -4 9 -44 11 -88 3 -72 5 -80 23 -83 27 -4 73 44 58 59 -8
8 -14 5 -22 -10 -20 -37 -31 -23 -31 42 0 101 -37 133 -92 80 l-28 -27 0 62
c0 48 -3 62 -15 62 -13 0 -15 -22 -15 -135z"/>
<path d="M10132 8808 c3 -116 5 -133 20 -136 24 -5 96 63 82 77 -7 8 -19 2
-39 -19 -16 -16 -32 -30 -37 -30 -4 0 -8 54 -8 120 0 76 -4 120 -10 120 -7 0
-10 -46 -8 -132z"/>
<path d="M10252 8808 c3 -116 5 -133 20 -136 24 -5 96 63 82 77 -7 8 -19 2
-39 -19 -16 -16 -32 -30 -37 -30 -4 0 -8 54 -8 120 0 76 -4 120 -10 120 -7 0
-10 -46 -8 -132z"/>
<path d="M10380 8925 c-21 -25 -1 -31 23 -7 17 18 18 22 5 22 -8 0 -21 -7 -28
-15z"/>
<path d="M10590 8905 c0 -33 -2 -35 -33 -35 -39 0 -87 -43 -87 -78 0 -21 -54
-92 -71 -92 -5 0 -9 38 -9 85 0 47 -4 85 -8 85 -5 0 -17 -9 -26 -19 -15 -17
-16 -20 -2 -28 11 -6 16 -28 18 -78 4 -82 17 -91 67 -50 29 25 31 25 31 7 0
-43 55 -34 86 13 23 35 34 31 34 -10 0 -28 4 -35 19 -35 10 0 24 7 31 15 11
13 15 13 33 0 32 -23 63 -18 99 14 42 37 30 53 -12 17 -17 -14 -38 -26 -45
-26 -33 0 -23 25 29 75 31 29 56 60 56 67 0 23 -22 38 -55 38 -43 0 -85 -44
-85 -91 0 -35 -23 -79 -41 -79 -5 0 -9 51 -9 120 0 73 -4 120 -10 120 -5 0
-10 -16 -10 -35z m-2 -86 c2 -18 -9 -38 -38 -72 -23 -26 -46 -47 -51 -47 -5 0
-9 23 -9 52 0 40 5 57 22 75 30 32 72 28 76 -8z m186 22 c3 -5 -16 -28 -42
-52 l-47 -44 -3 30 c-3 22 3 35 23 52 27 23 59 30 69 14z"/>
<path d="M7950 8900 c0 -11 12 -53 26 -93 14 -39 30 -87 35 -104 6 -18 14 -33
18 -33 5 0 23 41 41 92 l33 91 28 -78 c16 -44 29 -85 29 -92 0 -7 6 -13 13
-13 10 0 89 217 87 243 0 4 -7 7 -15 7 -9 0 -15 -9 -15 -24 0 -14 -12 -58 -27
-98 l-27 -72 -18 41 c-10 23 -24 65 -31 94 -17 64 -32 73 -41 24 -9 -48 -47
-145 -56 -145 -4 0 -21 40 -36 90 -28 86 -44 112 -44 70z"/>
<path d="M8826 8904 c-9 -8 -16 -31 -16 -49 0 -39 22 -65 54 -65 44 0 63 -52
30 -84 -19 -20 -38 -20 -58 -1 -18 19 -26 19 -26 0 0 -18 31 -35 63 -35 32 0
57 30 57 69 0 47 -16 71 -48 71 -34 0 -52 16 -52 46 0 42 59 57 74 19 7 -19
26 -20 26 -2 0 40 -74 62 -104 31z"/>
<path d="M9740 8879 c-34 -35 -40 -48 -40 -84 0 -36 6 -49 40 -84 26 -27 49
-41 65 -41 31 0 121 78 106 93 -6 6 -21 -3 -41 -26 -47 -54 -65 -56 -111 -11
-53 51 -53 86 -1 137 42 41 77 47 124 23 15 -8 30 -11 33 -6 10 17 -40 40 -87
40 -43 0 -52 -4 -88 -41z"/>
<path d="M8486 8851 c-15 -17 -16 -20 -2 -28 10 -6 16 -28 18 -72 4 -89 23
-100 78 -46 l40 39 0 -41 c0 -33 -5 -46 -26 -62 -15 -12 -37 -21 -50 -21 -13
0 -24 -4 -24 -10 0 -5 15 -10 33 -10 23 0 41 8 60 28 26 27 27 33 27 135 0 65
-4 107 -10 107 -5 0 -10 -19 -10 -42 -1 -35 -8 -51 -39 -85 -21 -24 -44 -43
-50 -43 -7 0 -11 29 -11 85 0 47 -4 85 -8 85 -5 0 -17 -9 -26 -19z"/>
<path d="M8966 8851 c-15 -17 -16 -20 -2 -28 10 -6 16 -28 18 -72 4 -89 23
-100 78 -46 l40 39 0 -32 c0 -42 23 -51 61 -23 l29 22 0 -56 c0 -42 3 -55 15
-55 10 0 15 11 15 35 0 28 4 35 19 35 10 0 37 20 60 45 33 36 41 52 41 83 0
40 -23 72 -50 72 -8 0 -27 -12 -42 -27 l-28 -27 0 27 c0 33 -11 34 -36 6 -14
-16 -15 -23 -6 -26 7 -3 12 -23 12 -54 0 -36 -3 -47 -13 -43 -8 3 -20 -2 -27
-11 -24 -29 -30 -15 -30 70 0 50 -4 85 -10 85 -5 0 -10 -19 -10 -42 -1 -35 -8
-51 -39 -85 -21 -24 -44 -43 -50 -43 -7 0 -11 29 -11 85 0 47 -4 85 -8 85 -5
0 -17 -9 -26 -19z m344 -56 c0 -37 -5 -47 -35 -74 -20 -17 -40 -31 -45 -31 -6
0 -10 21 -10 46 0 39 5 51 35 81 19 19 39 32 45 28 5 -3 10 -26 10 -50z"/>
<path d="M9407 8859 c-43 -25 -62 -123 -31 -167 22 -31 63 -28 102 8 18 16 30
35 26 41 -4 7 -18 -1 -39 -21 -25 -24 -38 -30 -55 -25 -20 6 -17 11 40 71 53
55 60 66 50 84 -12 22 -62 27 -93 9z m70 -24 c2 -6 -17 -28 -42 -48 l-45 -38
0 27 c0 15 10 38 22 51 22 24 58 28 65 8z"/>
<path d="M9534 8858 c-4 -6 -2 -14 4 -16 8 -2 12 -32 12 -88 0 -68 3 -84 15
-84 12 0 15 14 15 68 0 59 3 72 23 90 13 12 33 22 45 22 12 0 22 5 22 10 0 14
-53 12 -69 -2 -11 -10 -14 -10 -18 0 -6 15 -39 16 -49 0z"/>
<path d="M9967 8842 c-39 -41 -38 -107 2 -146 34 -32 59 -29 91 11 31 39 27
98 -9 134 -37 36 -50 36 -84 1z m77 -24 c29 -42 9 -118 -31 -118 -29 0 -53 31
-53 68 0 64 53 95 84 50z"/>
<path d="M10834 8858 c-4 -6 -2 -14 4 -16 8 -2 12 -32 12 -88 0 -49 4 -84 10
-84 6 0 10 28 10 65 0 57 3 69 25 90 13 14 36 25 50 25 14 0 25 5 25 10 0 16
-53 12 -78 -6 -20 -14 -22 -14 -22 0 0 19 -26 21 -36 4z"/>
<path d="M8320 8575 c-7 -9 -10 -18 -7 -22 8 -7 37 15 37 28 0 14 -16 11 -30
-6z"/>
<path d="M8740 8555 c0 -32 -2 -35 -31 -35 -46 0 -89 -47 -89 -97 0 -29 -7
-46 -25 -63 l-25 -23 0 76 c0 107 -28 133 -89 81 l-31 -26 0 26 c0 27 -7 31
-34 20 -20 -8 -21 -24 -1 -24 12 0 15 -16 15 -85 0 -50 4 -85 10 -85 6 0 10
25 10 56 0 51 3 59 35 91 50 50 59 41 63 -56 3 -89 16 -108 51 -77 16 15 19
15 31 1 18 -22 28 -19 67 20 19 19 37 35 39 35 2 0 4 -14 4 -30 0 -42 25 -49
58 -17 33 33 21 49 -13 17 l-25 -23 0 126 c0 78 -4 127 -10 127 -5 0 -10 -16
-10 -35z m0 -86 c0 -21 -12 -45 -42 -79 -23 -27 -46 -47 -50 -44 -4 3 -8 28
-8 56 0 61 27 98 72 98 25 0 28 -4 28 -31z"/>
<path d="M9800 8455 c0 -114 2 -135 15 -135 20 0 92 66 82 76 -4 4 -23 -8 -42
-26 l-35 -34 0 127 c0 78 -4 127 -10 127 -6 0 -10 -52 -10 -135z"/>
<path d="M7950 8553 c0 -21 73 -233 80 -233 3 0 19 39 35 86 16 47 32 87 36
89 3 3 19 -36 35 -85 16 -49 33 -88 37 -87 9 3 50 111 73 192 17 60 16 55 4
55 -5 0 -14 -19 -20 -42 -17 -67 -51 -148 -60 -143 -5 3 -21 46 -37 95 -26 84
-43 113 -43 73 0 -24 -52 -173 -60 -173 -7 0 -60 153 -60 175 0 8 -4 15 -10
15 -5 0 -10 -8 -10 -17z"/>
<path d="M9460 8521 c0 -10 -8 -22 -17 -26 -17 -6 -17 -7 -1 -19 13 -9 18 -31
20 -82 2 -54 6 -69 19 -72 20 -4 82 56 72 71 -4 6 -14 0 -27 -16 -36 -44 -46
-35 -46 43 l0 69 35 7 c19 3 35 11 35 16 0 6 -14 8 -35 5 -26 -4 -35 -2 -35 9
0 8 -4 14 -10 14 -5 0 -10 -9 -10 -19z"/>
<path d="M8295 8500 c-16 -18 -16 -20 -1 -26 13 -5 16 -20 16 -75 0 -88 15
-98 70 -44 22 21 37 42 33 48 -3 5 -23 -8 -44 -29 l-39 -38 0 92 c0 51 -4 92
-8 92 -5 0 -17 -9 -27 -20z"/>
<path d="M8943 8513 c-18 -7 -16 -23 2 -23 12 0 15 -16 15 -85 0 -50 4 -85 10
-85 6 0 10 26 10 58 0 53 3 61 35 92 50 48 65 32 65 -71 0 -46 4 -79 10 -79 6
0 10 26 10 58 0 53 3 61 35 92 50 48 65 32 65 -71 0 -84 6 -93 46 -65 17 12
22 12 39 0 30 -22 60 -17 95 16 41 38 32 52 -10 16 -31 -25 -60 -33 -73 -19
-4 3 20 35 54 69 52 55 59 66 49 84 -15 28 -61 26 -99 -6 -25 -21 -31 -34 -31
-64 0 -27 -8 -47 -25 -67 l-24 -28 -1 70 c0 72 -17 115 -45 115 -7 0 -27 -11
-43 -25 l-30 -25 -16 25 c-21 32 -37 31 -75 -1 l-31 -26 0 26 c0 25 -10 30
-37 19z m441 -22 c3 -5 -16 -28 -42 -52 l-47 -44 -3 29 c-2 19 4 36 19 52 22
24 63 32 73 15z"/>
<path d="M9609 8491 c-26 -26 -29 -37 -29 -89 0 -90 35 -104 88 -37 26 33 32
32 32 -5 0 -42 25 -49 58 -17 33 33 21 49 -13 17 l-25 -23 0 91 0 92 -41 0
c-31 0 -47 -6 -70 -29z m91 -22 c0 -21 -12 -45 -42 -79 -23 -27 -46 -47 -50
-44 -4 3 -8 28 -8 56 0 61 27 98 72 98 25 0 28 -4 28 -31z"/>
<path d="M9918 8491 c-44 -40 -31 -65 36 -69 57 -4 68 -23 36 -58 -17 -17 -34
-24 -62 -24 -21 0 -38 -4 -38 -10 0 -5 18 -10 39 -10 69 0 127 70 89 108 -7 7
-31 12 -53 12 -53 0 -60 8 -33 37 15 16 33 23 60 23 21 0 38 5 38 10 0 6 -18
10 -40 10 -30 0 -48 -7 -72 -29z"/>
<path d="M8755 8210 c-10 -11 -13 -20 -8 -20 13 0 38 29 31 35 -3 3 -13 -4
-23 -15z"/>
<path d="M7950 8193 c0 -21 73 -233 80 -233 3 0 19 39 35 86 16 47 32 87 36
89 3 3 19 -36 35 -85 16 -49 33 -88 37 -87 9 3 50 111 73 192 17 60 16 55 4
55 -5 0 -14 -19 -20 -42 -17 -67 -51 -148 -60 -143 -5 3 -21 46 -37 95 -26 84
-43 113 -43 73 0 -24 -52 -173 -60 -173 -7 0 -60 153 -60 175 0 8 -4 15 -10
15 -5 0 -10 -8 -10 -17z"/>
<path d="M8295 8140 c-16 -18 -16 -20 -1 -26 12 -5 16 -20 16 -69 0 -76 15
-95 55 -69 14 9 30 25 36 35 15 28 29 23 29 -11 0 -42 25 -49 58 -17 33 33 21
49 -13 17 l-25 -23 0 91 c0 55 -4 92 -10 92 -5 0 -10 -18 -10 -41 0 -33 -8
-49 -42 -89 -23 -27 -46 -47 -50 -44 -4 3 -8 43 -8 90 0 46 -4 84 -8 84 -5 0
-17 -9 -27 -20z"/>
<path d="M8500 8154 c0 -3 14 -17 30 -31 55 -45 55 -55 4 -112 -52 -58 -39
-70 17 -15 l38 37 34 -37 c19 -20 42 -36 51 -36 24 0 19 13 -12 31 -15 8 -33
28 -41 42 -14 26 -13 29 27 70 23 24 42 46 42 50 0 18 -26 3 -58 -34 l-34 -40
-24 34 c-21 32 -42 47 -65 47 -5 0 -9 -3 -9 -6z"/>
<path d="M8726 8141 c-15 -17 -16 -20 -2 -28 11 -6 16 -28 18 -78 3 -80 16
-91 60 -50 31 29 38 31 38 11 0 -7 7 -19 15 -26 13 -11 22 -7 53 23 21 21 41
37 45 37 4 0 7 -14 7 -30 0 -42 25 -49 58 -17 33 33 21 49 -13 17 l-25 -23 0
91 0 92 -39 0 c-49 0 -101 -40 -101 -76 0 -28 -48 -94 -67 -94 -10 0 -13 24
-13 85 0 47 -4 85 -8 85 -5 0 -17 -9 -26 -19z m232 -33 c2 -20 -7 -38 -39 -73
-23 -25 -45 -45 -50 -45 -5 0 -9 23 -9 52 0 40 5 57 22 75 31 33 72 28 76 -9z"/>
<path d="M8175 7860 c-14 -15 -15 -20 -4 -20 8 0 20 9 27 20 7 11 8 20 4 20
-5 0 -17 -9 -27 -20z"/>
<path d="M8450 7750 c0 -149 6 -160 65 -116 26 20 35 23 35 12 0 -18 30 -36
58 -36 22 0 89 57 79 67 -3 3 -20 -6 -37 -21 -31 -25 -60 -33 -73 -19 -4 3 20
35 54 69 52 55 59 66 49 84 -24 46 -130 0 -130 -57 0 -28 -46 -93 -66 -93 -11
0 -14 25 -14 120 0 73 -4 120 -10 120 -6 0 -10 -50 -10 -130z m214 31 c3 -5
-16 -28 -42 -52 l-47 -44 -3 29 c-2 19 4 36 19 52 22 24 63 32 73 15z"/>
<path d="M7950 7850 c0 -5 32 -10 71 -12 l71 -3 -71 -96 c-39 -53 -71 -104
-71 -113 0 -13 13 -16 80 -16 99 0 107 18 10 22 l-71 3 71 95 c38 52 70 103
70 113 0 15 -10 17 -80 17 -44 0 -80 -4 -80 -10z"/>
<path d="M8151 7789 c-8 -15 -9 -24 -2 -28 5 -4 11 -38 13 -76 2 -56 6 -70 20
-73 23 -4 94 61 83 77 -5 9 -16 2 -37 -23 -16 -20 -34 -34 -39 -31 -5 4 -9 44
-9 91 0 46 -3 84 -8 84 -4 0 -13 -10 -21 -21z"/>
<path d="M8260 7800 c0 -5 25 -10 55 -10 30 0 55 -4 55 -8 0 -4 -25 -37 -55
-72 -75 -89 -74 -100 15 -100 85 0 94 18 10 22 l-59 3 59 70 c80 95 79 105
-10 105 -40 0 -70 -4 -70 -10z"/>
<path d="M450 3905 l0 -3445 5485 0 5485 0 0 3445 0 3445 -5485 0 -5485 0 0
-3445z m10956 -2 l0 -3428 -5468 0 -5468 0 0 3428 0 3427 5468 0 5468 0 0
-3427z"/>
<path d="M1420 7140 c0 -80 4 -130 10 -130 6 0 10 25 10 56 0 51 3 59 35 91
19 19 40 33 47 31 9 -3 15 -34 18 -89 6 -94 18 -108 60 -64 30 32 18 46 -15
15 l-25 -23 0 76 c0 107 -28 133 -89 81 l-31 -26 0 56 c0 31 -4 56 -10 56 -6
0 -10 -50 -10 -130z"/>
<path d="M3172 7143 c3 -110 5 -128 20 -131 20 -4 91 65 82 80 -4 7 -17 -1
-33 -21 -45 -54 -51 -43 -51 84 0 72 -4 115 -10 115 -7 0 -10 -45 -8 -127z"/>
<path d="M3292 7143 c3 -110 5 -128 20 -131 20 -4 91 65 82 80 -4 7 -17 -1
-33 -21 -45 -54 -51 -43 -51 84 0 72 -4 115 -10 115 -7 0 -10 -45 -8 -127z"/>
<path d="M3420 7255 c-7 -8 -8 -15 -2 -15 5 0 15 7 22 15 7 8 8 15 2 15 -5 0
-15 -7 -22 -15z"/>
<path d="M3630 7240 c0 -26 -3 -30 -29 -30 -39 0 -91 -44 -91 -76 0 -28 -48
-94 -67 -94 -10 0 -13 24 -13 85 0 47 -4 85 -8 85 -5 0 -17 -9 -26 -19 -15
-17 -16 -20 -2 -28 11 -6 16 -28 18 -78 3 -80 16 -91 60 -50 31 29 38 31 38
11 0 -7 7 -19 15 -26 13 -11 22 -7 53 23 21 21 41 37 45 37 4 0 7 -14 7 -30 0
-37 23 -49 50 -25 18 16 20 16 35 1 9 -9 27 -16 41 -16 26 0 93 54 81 66 -4 4
-20 -5 -36 -20 -24 -23 -35 -27 -57 -22 l-27 7 64 65 c53 54 62 67 53 82 -6 9
-25 18 -43 20 -46 5 -91 -42 -91 -95 0 -29 -7 -46 -25 -63 l-25 -23 0 121 c0
75 -4 122 -10 122 -5 0 -10 -13 -10 -30z m-2 -82 c2 -20 -7 -38 -39 -73 -23
-25 -45 -45 -50 -45 -5 0 -9 23 -9 52 0 40 5 57 22 75 31 33 72 28 76 -9z
m186 25 c7 -7 -72 -93 -86 -93 -17 0 -7 55 14 77 21 22 57 30 72 16z"/>
<path d="M663 7223 c-8 -21 -37 -82 -64 -135 -27 -54 -45 -98 -39 -98 5 0 32
44 59 98 64 128 82 172 70 172 -6 0 -17 -17 -26 -37z"/>
<path d="M1080 7258 c2 -32 76 -242 87 -245 4 -1 21 38 37 87 15 49 31 88 35
86 3 -2 20 -43 36 -90 16 -47 32 -86 35 -86 7 0 80 212 80 233 0 9 -4 17 -10
17 -5 0 -10 -7 -10 -15 0 -24 -52 -175 -60 -175 -8 0 -60 148 -60 173 0 29
-18 19 -25 -15 -4 -18 -19 -61 -33 -96 -29 -74 -31 -73 -68 46 -15 45 -30 82
-35 82 -5 0 -9 -1 -9 -2z"/>
<path d="M4076 7244 c-16 -16 -22 -54 -8 -54 4 0 12 10 17 23 11 25 58 35 81
16 24 -20 16 -47 -23 -75 -46 -34 -64 -54 -57 -65 7 -12 25 -12 22 0 -2 4 17
24 42 42 51 39 63 78 34 110 -21 24 -86 26 -108 3z"/>
<path d="M4590 7147 c0 -106 -2 -115 -23 -135 -13 -12 -29 -22 -35 -22 -7 0
-12 -4 -12 -10 0 -21 39 -9 64 21 25 29 26 36 26 145 0 69 -4 114 -10 114 -6
0 -10 -44 -10 -113z"/>
<path d="M5806 7244 c-12 -12 -16 -37 -16 -109 0 -108 9 -125 69 -125 60 0 71
20 71 127 0 74 -3 93 -18 106 -23 21 -86 22 -106 1z m92 -16 c7 -7 12 -43 12
-93 0 -86 -8 -105 -46 -105 -51 0 -54 6 -54 105 0 65 4 95 13 98 23 10 63 7
75 -5z"/>
<path d="M6423 7223 c-8 -21 -37 -82 -64 -135 -27 -54 -45 -98 -39 -98 5 0 32
44 59 98 64 128 82 172 70 172 -6 0 -17 -17 -26 -37z"/>
<path d="M4412 7215 c-41 -45 -51 -109 -27 -170 18 -47 66 -96 74 -74 2 6 -4
16 -13 21 -22 12 -56 81 -56 113 0 35 23 86 49 109 11 11 21 23 21 28 0 17
-19 7 -48 -27z"/>
<path d="M5330 7240 c0 -5 4 -10 10 -10 5 0 21 -17 35 -37 41 -62 31 -147 -24
-197 -11 -10 -18 -23 -15 -28 9 -14 54 31 70 69 27 62 13 142 -34 196 -16 19
-42 23 -42 7z"/>
<path d="M5643 7200 c-3 -11 -14 -20 -24 -20 -11 0 -19 -4 -19 -10 0 -5 5 -10
10 -10 12 0 13 -42 1 -55 -13 -15 -22 -75 -11 -75 5 0 12 11 16 25 5 19 13 25
35 25 26 0 28 -2 19 -25 -6 -16 -6 -25 0 -25 6 0 15 11 20 25 6 15 17 25 30
25 11 0 20 5 20 10 0 6 -7 10 -15 10 -18 0 -20 34 -2 52 14 15 19 68 7 68 -5
0 -12 -9 -15 -20 -4 -13 -15 -20 -32 -20 -20 0 -24 4 -20 20 3 11 1 20 -5 20
-5 0 -12 -9 -15 -20z m57 -44 c0 -3 -4 -16 -10 -30 -13 -34 -50 -36 -50 -3 0
13 3 27 7 30 7 8 53 10 53 3z"/>
<path d="M1627 7192 c-21 -23 -21 -32 -2 -32 12 0 15 -14 15 -69 0 -87 16 -98
70 -46 20 19 39 35 43 35 4 0 7 -16 7 -35 0 -43 -37 -85 -75 -85 -14 0 -25 -4
-25 -10 0 -16 53 -11 76 8 12 9 27 27 33 39 14 27 15 213 1 213 -5 0 -10 -18
-10 -39 0 -34 -8 -48 -50 -93 l-49 -53 -1 93 c0 50 -4 92 -8 92 -5 0 -16 -8
-25 -18z"/>
<path d="M1949 7180 c-42 -41 -28 -68 38 -72 35 -2 49 -7 51 -20 5 -27 -37
-58 -80 -58 -21 0 -38 -4 -38 -10 0 -5 19 -10 43 -10 34 0 49 6 70 28 49 51
31 92 -40 92 -31 0 -43 4 -43 14 0 22 40 46 77 46 18 0 33 5 33 10 0 6 -18 10
-41 10 -32 0 -47 -6 -70 -30z"/>
<path d="M2107 7192 c-21 -23 -21 -32 -2 -32 12 0 15 -14 15 -69 0 -87 16 -98
70 -46 20 19 39 35 43 35 4 0 7 -16 7 -35 0 -24 5 -35 14 -35 20 0 73 47 63
56 -4 4 -18 -3 -32 -16 l-25 -23 0 91 c0 55 -4 92 -10 92 -5 0 -10 -18 -10
-39 0 -34 -8 -48 -50 -93 l-49 -53 -1 93 c0 50 -4 92 -8 92 -5 0 -16 -8 -25
-18z"/>
<path d="M2315 7190 c-16 -18 -16 -20 -1 -26 13 -5 16 -23 16 -115 0 -66 4
-109 10 -109 6 0 10 16 10 35 0 28 4 35 20 35 11 0 38 19 60 41 36 37 40 47
40 90 0 42 -3 51 -24 60 -19 9 -29 7 -50 -6 -14 -10 -26 -21 -26 -26 0 -5 -4
-9 -10 -9 -5 0 -10 11 -10 25 0 30 -11 32 -35 5z m133 -47 c3 -34 -2 -46 -31
-77 -48 -50 -67 -48 -67 8 0 37 6 51 35 81 19 20 40 35 47 33 7 -3 14 -23 16
-45z"/>
<path d="M2530 7181 c-26 -26 -30 -37 -30 -85 0 -61 16 -86 56 -86 26 0 93 54
81 66 -4 4 -20 -5 -36 -20 -24 -23 -35 -27 -57 -22 l-27 7 64 65 c53 54 62 67
53 82 -6 9 -25 18 -43 20 -24 3 -38 -4 -61 -27z m84 2 c7 -7 -72 -93 -86 -93
-17 0 -7 55 14 77 21 22 57 30 72 16z"/>
<path d="M2674 7198 c-4 -6 -2 -14 4 -16 8 -2 12 -32 12 -88 0 -49 4 -84 10
-84 6 0 10 29 10 68 0 59 3 72 23 90 13 12 35 22 50 22 15 0 27 5 27 10 0 16
-53 12 -78 -6 -20 -14 -22 -14 -22 0 0 19 -26 21 -36 4z"/>
<path d="M2839 7179 c-24 -26 -29 -39 -29 -84 0 -57 19 -85 58 -85 25 0 91 55
79 66 -4 4 -20 -5 -35 -19 -49 -47 -82 -30 -82 40 0 54 33 93 80 93 16 0 30 5
30 10 0 6 -16 10 -36 10 -27 0 -43 -7 -65 -31z"/>
<path d="M3009 7181 c-23 -23 -29 -38 -29 -71 0 -33 6 -48 29 -71 16 -16 35
-29 41 -29 6 0 25 13 41 29 23 23 29 38 29 71 0 33 -6 48 -29 71 -16 16 -35
29 -41 29 -6 0 -25 -13 -41 -29z m68 -13 c32 -30 31 -87 -2 -118 l-25 -23 -25
23 c-32 30 -34 84 -3 117 26 28 26 28 55 1z"/>
<path d="M3874 7198 c-4 -6 -2 -14 4 -16 8 -2 12 -32 12 -88 0 -49 4 -84 10
-84 6 0 10 29 10 68 0 59 3 72 23 90 13 12 35 22 50 22 15 0 27 5 27 10 0 16
-53 12 -78 -6 -20 -14 -22 -14 -22 0 0 19 -26 21 -36 4z"/>
<path d="M4644 7198 c-4 -6 -2 -14 4 -16 8 -2 12 -32 12 -88 0 -49 4 -84 10
-84 6 0 10 24 10 54 0 48 4 59 35 91 50 53 59 44 63 -58 3 -94 22 -122 22 -33
0 48 4 59 35 91 49 53 59 44 63 -54 3 -90 13 -104 55 -77 22 15 26 15 37 1 7
-8 23 -15 36 -15 26 0 93 54 81 66 -4 4 -20 -5 -35 -19 -49 -47 -82 -30 -82
40 0 54 33 93 80 93 16 0 30 5 30 10 0 6 -16 10 -36 10 -48 0 -94 -47 -94 -97
0 -41 -15 -73 -35 -73 -12 0 -15 16 -15 75 0 70 -2 76 -24 86 -19 9 -29 7 -50
-6 -14 -10 -26 -21 -26 -26 0 -5 -4 -9 -10 -9 -5 0 -10 7 -10 15 0 9 -11 20
-24 26 -19 9 -29 7 -50 -6 -14 -10 -26 -21 -26 -26 0 -5 -4 -9 -10 -9 -5 0
-10 11 -10 25 0 26 -23 35 -36 13z"/>
<path d="M5169 7181 c-25 -25 -29 -37 -29 -85 0 -61 16 -86 56 -86 26 0 93 54
81 66 -4 4 -20 -5 -36 -20 -23 -22 -36 -27 -55 -22 -24 6 -26 11 -26 59 0 64
27 97 78 97 18 0 32 5 32 10 0 6 -16 10 -36 10 -26 0 -43 -8 -65 -29z"/>
<path d="M820 7175 c0 -17 -16 -20 -25 -5 -4 6 -11 7 -17 4 -6 -4 -6 -10 1
-17 15 -15 14 -27 -4 -27 -8 0 -15 -4 -15 -10 0 -18 32 -11 51 11 17 19 20 20
34 5 15 -15 15 -17 0 -33 -14 -13 -18 -14 -25 -3 -7 12 -12 11 -29 -4 -11 -10
-18 -23 -15 -28 4 -6 10 -6 17 1 15 15 27 14 27 -4 0 -8 5 -15 10 -15 6 0 10
7 10 15 0 17 16 20 25 5 4 -6 11 -7 17 -4 6 4 6 10 -1 17 -15 15 -14 27 4 27
8 0 15 5 15 10 0 6 -7 10 -15 10 -18 0 -19 12 -3 28 6 6 9 15 5 19 -4 4 -13 1
-19 -5 -16 -16 -28 -15 -28 3 0 8 -4 15 -10 15 -5 0 -10 -7 -10 -15z"/>
<path d="M6170 7175 c0 -17 -16 -20 -25 -5 -4 6 -11 7 -17 4 -6 -4 -6 -10 1
-17 15 -15 14 -27 -4 -27 -8 0 -15 -4 -15 -10 0 -18 32 -11 51 11 17 19 20 20
34 5 15 -15 15 -17 0 -33 -14 -13 -18 -14 -25 -3 -7 12 -12 11 -29 -4 -11 -10
-18 -23 -15 -28 4 -6 10 -6 17 1 15 15 27 14 27 -4 0 -8 5 -15 10 -15 6 0 10
7 10 15 0 17 16 20 25 5 4 -6 11 -7 17 -4 6 4 6 10 -1 17 -15 15 -14 27 4 27
8 0 15 5 15 10 0 6 -7 10 -15 10 -18 0 -19 12 -3 28 6 6 9 15 5 19 -4 4 -13 1
-19 -5 -16 -16 -28 -15 -28 3 0 8 -4 15 -10 15 -5 0 -10 -7 -10 -15z"/>
<path d="M4091 7046 c-8 -10 -7 -17 3 -26 17 -13 36 -6 36 15 0 19 -27 26 -39
11z"/>
<path d="M560 6815 c0 -149 4 -157 56 -111 l28 23 19 -23 c10 -14 29 -24 43
-24 26 0 93 54 81 66 -4 4 -20 -5 -35 -19 -16 -15 -35 -27 -44 -27 -36 0 -28
24 26 74 31 28 56 59 56 67 0 23 -21 39 -53 39 -37 0 -87 -51 -87 -89 0 -18
-12 -39 -35 -61 l-35 -34 0 127 c0 78 -4 127 -10 127 -6 0 -10 -52 -10 -135z
m206 34 c6 -10 -71 -88 -88 -89 -5 0 -8 11 -8 25 0 48 75 97 96 64z"/>
<path d="M1722 6938 c-7 -7 -12 -30 -12 -52 0 -23 -7 -49 -15 -60 -11 -15 -12
-23 -2 -40 6 -11 14 -43 17 -71 5 -48 6 -50 38 -53 18 -2 32 1 32 7 0 6 -11
11 -25 11 -23 0 -25 4 -25 43 0 24 -5 48 -12 55 -9 9 -9 20 0 49 7 21 13 52
14 68 2 23 9 31 26 33 12 2 22 8 22 13 0 13 -44 11 -58 -3z"/>
<path d="M840 6880 c0 -11 -4 -20 -10 -20 -5 0 -10 -7 -10 -15 0 -8 4 -15 10
-15 5 0 10 -33 12 -72 2 -59 6 -73 20 -76 22 -4 83 51 74 66 -5 8 -16 2 -33
-18 -13 -17 -29 -28 -34 -24 -5 3 -9 36 -9 74 l0 70 40 6 c50 8 53 27 3 22
-22 -2 -38 2 -41 10 -6 19 -22 14 -22 -8z"/>
<path d="M1109 6850 c-42 -41 -28 -68 38 -72 35 -2 49 -7 51 -20 5 -27 -37
-58 -80 -58 -21 0 -38 -4 -38 -10 0 -5 19 -10 43 -10 34 0 49 6 70 28 49 51
31 92 -40 92 -31 0 -43 4 -43 14 0 22 40 46 77 46 18 0 33 5 33 10 0 6 -18 10
-41 10 -32 0 -47 -6 -70 -30z"/>
<path d="M1400 6840 c0 -6 30 -10 70 -10 40 0 70 4 70 10 0 6 -30 10 -70 10
-40 0 -70 -4 -70 -10z"/>
<path d="M1400 6760 c0 -6 30 -10 70 -10 40 0 70 4 70 10 0 6 -30 10 -70 10
-40 0 -70 -4 -70 -10z"/>
<path d="M1040 6475 c0 -77 4 -125 10 -125 6 0 10 26 10 57 l0 58 33 -40 c17
-21 39 -48 48 -58 8 -11 21 -18 27 -16 6 2 -11 30 -39 62 l-51 57 30 0 c31 0
72 38 72 65 0 7 -9 24 -21 39 -17 22 -28 26 -70 26 l-49 0 0 -125z m106 80
c21 -32 -6 -65 -52 -65 -34 0 -34 0 -34 46 l0 45 36 -3 c23 -2 42 -10 50 -23z"/>
<path d="M2154 6555 c-28 -38 -42 -111 -30 -159 8 -33 65 -98 78 -90 5 4 -1
18 -15 33 -36 38 -47 65 -47 113 0 45 28 104 55 114 15 6 11 24 -5 24 -5 0
-21 -16 -36 -35z"/>
<path d="M1250 6537 c-69 -54 -65 -187 5 -187 28 0 98 57 89 72 -4 5 -21 -4
-38 -21 -32 -31 -60 -39 -71 -21 -4 6 19 33 49 61 74 68 75 110 3 109 -12 0
-29 -6 -37 -13z m70 -21 c0 -14 -79 -86 -94 -86 -16 0 -4 50 19 74 26 28 75
36 75 12z"/>
<path d="M1398 6521 c-44 -40 -31 -65 36 -69 57 -4 68 -23 36 -58 -17 -17 -34
-24 -62 -24 -21 0 -38 -4 -38 -10 0 -5 18 -10 39 -10 69 0 127 70 89 108 -7 7
-31 12 -53 12 -53 0 -60 8 -33 37 15 16 33 23 60 23 21 0 38 5 38 10 0 6 -18
10 -40 10 -30 0 -48 -7 -72 -29z"/>
<path d="M1569 6521 c-23 -23 -29 -38 -29 -71 0 -33 6 -48 29 -71 16 -16 35
-29 41 -29 6 0 25 13 41 29 23 23 29 38 29 71 0 33 -6 48 -29 71 -16 16 -35
29 -41 29 -6 0 -25 -13 -41 -29z m68 -13 c32 -30 31 -87 -2 -118 l-25 -23 -25
23 c-32 30 -34 84 -3 117 26 28 26 28 55 1z"/>
<path d="M1714 6538 c-4 -6 -2 -14 4 -16 8 -2 12 -32 12 -88 0 -49 4 -84 10
-84 6 0 10 24 10 54 0 48 4 59 35 91 49 53 59 44 63 -54 3 -87 15 -107 49 -80
13 11 17 11 20 2 6 -16 143 -18 143 -3 0 6 -25 10 -55 10 -30 0 -55 3 -55 6 0
4 25 35 55 69 30 35 55 73 55 84 0 19 -6 21 -70 21 -40 0 -70 -4 -70 -10 0 -6
27 -10 60 -10 33 0 60 -3 60 -6 0 -15 -104 -122 -115 -118 -7 3 -15 -2 -18
-10 -4 -9 -13 -16 -22 -16 -12 0 -15 14 -15 75 0 70 -2 76 -24 86 -19 9 -29 7
-50 -6 -14 -10 -26 -21 -26 -26 0 -5 -4 -9 -10 -9 -5 0 -10 11 -10 25 0 26
-23 35 -36 13z"/>
<path d="M1520 6145 l0 -125 61 0 c59 0 63 2 105 44 36 36 44 50 44 81 0 31
-8 45 -44 81 -42 42 -46 44 -105 44 l-61 0 0 -125z m152 68 c51 -50 51 -84 1
-135 -33 -34 -43 -38 -85 -38 l-48 0 0 105 0 105 47 0 c41 0 52 -5 85 -37z"/>
<path d="M2467 6252 c-13 -14 -17 -39 -17 -109 0 -103 12 -123 73 -123 57 0
67 18 67 125 0 72 -4 97 -16 109 -22 22 -87 21 -107 -2z m87 -8 c13 -5 16 -24
16 -99 0 -99 -3 -105 -54 -105 -38 0 -46 19 -46 105 0 50 5 86 12 93 13 13 47
16 72 6z"/>
<path d="M2758 6259 c-10 -5 -18 -17 -18 -24 0 -19 8 -19 26 0 30 30 94 16 94
-21 0 -20 -82 -132 -110 -149 -5 -3 -10 -15 -10 -26 0 -17 7 -19 70 -19 40 0
70 4 70 10 0 6 -27 10 -60 10 -33 0 -60 3 -60 7 0 3 27 34 60 69 64 66 77 106
44 138 -17 18 -80 21 -106 5z"/>
<path d="M3530 6205 l0 -64 58 -3 57 -3 3 -39 c4 -47 -7 -56 -70 -56 -27 0
-48 -4 -48 -10 0 -17 107 -12 124 6 19 18 22 94 4 112 -7 7 -34 12 -60 12
l-48 0 0 45 0 45 60 0 c33 0 60 4 60 10 0 6 -30 10 -70 10 l-70 0 0 -65z"/>
<path d="M3736 6248 c-11 -16 -16 -46 -16 -103 0 -98 14 -125 66 -125 69 0 74
8 74 125 0 93 -2 105 -19 115 -35 18 -88 12 -105 -12z m99 -103 l0 -100 -33
-3 c-53 -5 -62 10 -62 102 0 94 8 108 60 104 l35 -3 0 -100z"/>
<path d="M2361 6241 c-60 -60 -67 -160 -17 -225 15 -20 34 -36 43 -36 13 0 11
6 -9 28 -36 38 -48 65 -48 107 0 44 26 102 52 118 10 7 18 15 18 19 0 14 -20
8 -39 -11z"/>
<path d="M2930 6250 c0 -5 4 -10 10 -10 5 0 21 -17 35 -37 41 -62 31 -147 -24
-197 -11 -10 -18 -23 -15 -28 9 -14 54 31 70 69 27 62 13 142 -34 196 -16 19
-42 23 -42 7z"/>
<path d="M2160 6220 c0 -11 -4 -20 -10 -20 -5 0 -10 -7 -10 -15 0 -8 4 -15 10
-15 5 0 10 -33 12 -72 2 -59 6 -73 20 -76 22 -4 83 51 74 66 -5 8 -16 2 -33
-18 -13 -17 -29 -28 -34 -24 -5 3 -9 36 -9 74 l0 70 40 6 c50 8 53 27 3 22
-22 -2 -38 2 -41 10 -6 19 -22 14 -22 -8z"/>
<path d="M1765 6200 c-16 -18 -16 -20 -1 -26 12 -5 16 -20 16 -68 0 -57 11
-86 32 -86 4 0 26 16 48 36 l40 36 0 -31 c0 -18 6 -34 14 -37 18 -7 66 24 66
42 0 19 -16 18 -24 -1 -3 -8 -12 -15 -21 -15 -12 0 -15 15 -15 85 0 50 -4 85
-10 85 -5 0 -10 -19 -10 -41 0 -34 -8 -50 -41 -90 -22 -27 -45 -46 -50 -43 -5
3 -9 43 -9 90 0 46 -4 84 -8 84 -5 0 -17 -9 -27 -20z"/>
<path d="M1998 6191 c-44 -40 -31 -65 36 -69 57 -4 68 -23 36 -58 -17 -17 -34
-24 -62 -24 -21 0 -38 -4 -38 -10 0 -5 18 -10 39 -10 69 0 127 70 89 108 -7 7
-31 12 -53 12 -53 0 -60 8 -33 37 15 16 33 23 60 23 21 0 38 5 38 10 0 6 -18
10 -40 10 -30 0 -48 -7 -72 -29z"/>
<path d="M3270 6193 c0 -25 -10 -29 -28 -11 -6 6 -15 9 -19 5 -4 -4 -1 -13 5
-19 16 -16 15 -28 -3 -28 -8 0 -15 -4 -15 -10 0 -5 7 -10 15 -10 18 0 19 -12
3 -28 -6 -6 -9 -15 -5 -19 4 -4 13 -1 19 5 18 18 28 14 29 -10 l0 -23 11 23
c9 18 7 25 -12 42 -22 19 -23 22 -7 37 15 16 18 15 35 -5 20 -23 52 -30 52
-12 0 6 -9 10 -20 10 -21 0 -27 15 -10 25 6 3 10 11 10 17 0 6 -6 6 -15 -2
-17 -14 -17 -14 -33 15 -11 19 -11 19 -12 -2z"/>
<path d="M3290 6112 c0 -5 9 -17 20 -27 22 -20 26 -14 10 16 -11 19 -30 26
-30 11z"/>
<path d="M2652 6057 c-14 -17 2 -42 22 -34 20 8 20 21 2 36 -10 8 -16 8 -24
-2z"/>
<path d="M3924 6056 c-3 -9 -1 -23 6 -31 10 -12 10 -18 0 -30 -7 -8 -8 -15 -2
-15 18 0 33 28 30 56 -3 31 -25 44 -34 20z"/>
<path d="M4110 5925 c0 -32 -2 -35 -29 -35 -17 0 -42 -11 -60 -26 -25 -21 -31
-34 -31 -64 0 -27 -8 -47 -25 -67 l-24 -28 -1 70 c0 72 -17 115 -45 115 -7 0
-27 -12 -44 -26 l-31 -26 0 26 c0 27 -7 31 -34 20 -20 -8 -21 -24 -1 -24 12 0
15 -16 15 -85 0 -50 4 -85 10 -85 6 0 10 26 10 58 0 53 3 61 35 92 50 48 65
32 65 -71 0 -84 7 -93 46 -65 17 13 21 12 37 -2 16 -14 20 -13 55 21 21 20 41
37 45 37 4 0 7 -14 7 -30 0 -42 25 -49 58 -17 33 33 21 49 -13 17 l-25 -23 0
126 c0 78 -4 127 -10 127 -5 0 -10 -16 -10 -35z m-2 -87 c2 -20 -7 -38 -39
-73 -23 -25 -45 -45 -50 -45 -5 0 -9 23 -9 52 0 40 5 57 22 75 31 33 72 28 76
-9z"/>
<path d="M1529 5922 c-13 -12 -18 -21 -12 -25 6 -4 16 0 23 8 19 23 77 19 90
-5 14 -26 -5 -62 -64 -120 -28 -27 -46 -53 -46 -67 0 -22 4 -23 70 -23 40 0
70 4 70 10 0 6 -27 10 -60 10 -33 0 -60 3 -60 6 0 4 24 32 54 64 61 67 74 101
51 136 -20 30 -81 33 -116 6z"/>
<path d="M1726 5924 c-12 -12 -16 -37 -16 -109 0 -108 9 -125 69 -125 60 0 71
20 71 127 0 74 -3 93 -18 106 -23 21 -86 22 -106 1z m92 -16 c7 -7 12 -43 12
-93 0 -86 -8 -105 -46 -105 -51 0 -54 6 -54 105 0 65 4 95 13 98 23 10 63 7
75 -5z"/>
<path d="M1917 5922 c-13 -14 -17 -39 -17 -109 0 -103 12 -123 73 -123 57 0
67 18 67 125 0 72 -4 97 -16 109 -22 22 -87 21 -107 -2z m87 -8 c13 -5 16 -24
16 -99 0 -99 -3 -105 -54 -105 -38 0 -46 19 -46 105 0 50 5 86 12 93 13 13 47
16 72 6z"/>
<path d="M2568 5929 c-10 -5 -18 -17 -18 -25 0 -13 3 -13 22 0 44 31 98 15 98
-29 0 -27 -18 -45 -47 -45 -35 0 -27 -18 10 -22 28 -3 32 -7 35 -36 2 -18 -2
-40 -9 -48 -16 -19 -68 -18 -91 3 -16 15 -18 15 -18 0 0 -37 94 -51 123 -19
19 21 22 73 7 102 -7 13 -7 21 0 25 17 10 11 71 -8 88 -21 19 -77 22 -104 6z"/>
<path d="M2757 5922 c-13 -14 -17 -39 -17 -109 0 -103 12 -123 73 -123 57 0
67 18 67 125 0 72 -4 97 -16 109 -22 22 -87 21 -107 -2z m87 -8 c13 -5 16 -24
16 -99 0 -75 -3 -94 -16 -99 -25 -10 -59 -7 -72 6 -16 16 -16 170 0 186 13 13
47 16 72 6z"/>
<path d="M2947 5922 c-13 -14 -17 -39 -17 -109 0 -103 12 -123 73 -123 57 0
67 18 67 125 0 72 -4 97 -16 109 -22 22 -87 21 -107 -2z m87 -8 c13 -5 16 -24
16 -99 0 -75 -3 -94 -16 -99 -25 -10 -59 -7 -72 6 -16 16 -16 170 0 186 13 13
47 16 72 6z"/>
<path d="M3136 5918 c-11 -16 -16 -46 -16 -103 0 -98 14 -125 66 -125 69 0 74
8 74 125 0 93 -2 105 -19 115 -35 18 -88 12 -105 -12z m99 -103 l0 -100 -33
-3 c-53 -5 -62 10 -62 102 0 94 8 108 60 104 l35 -3 0 -100z"/>
<path d="M3410 5815 c0 -77 4 -125 10 -125 6 0 10 26 10 58 l0 57 54 -60 c66
-74 85 -68 21 6 l-46 54 33 7 c57 11 77 69 38 108 -15 15 -33 20 -70 20 l-50
0 0 -125z m101 95 c11 -6 19 -21 19 -35 0 -28 -26 -45 -69 -45 -30 0 -31 1
-31 45 0 44 1 45 31 45 17 0 39 -5 50 -10z"/>
<path d="M4216 5918 c-11 -16 -16 -46 -16 -103 0 -98 14 -125 66 -125 69 0 74
8 74 125 0 93 -2 105 -19 115 -35 18 -88 12 -105 -12z m99 -103 l0 -100 -33
-3 c-53 -5 -62 10 -62 102 0 94 8 108 60 104 l35 -3 0 -100z"/>
<path d="M2280 5875 c0 -33 -2 -35 -35 -35 -19 0 -35 -4 -35 -10 0 -5 16 -10
35 -10 34 0 35 -1 35 -40 0 -51 18 -53 22 -2 3 35 5 37 41 40 50 4 48 22 -3
22 -39 0 -40 1 -40 35 0 19 -4 35 -10 35 -5 0 -10 -16 -10 -35z"/>
<path d="M3609 5861 c-26 -26 -29 -37 -29 -89 0 -90 35 -104 88 -37 26 33 32
32 32 -5 0 -42 25 -49 58 -17 33 33 21 49 -13 17 l-25 -23 0 91 0 92 -41 0
c-31 0 -47 -6 -70 -29z m91 -22 c0 -21 -12 -45 -42 -79 -23 -27 -46 -47 -50
-44 -4 3 -8 28 -8 56 0 61 27 98 72 98 25 0 28 -4 28 -31z"/>
<path d="M3323 5724 c-8 -21 13 -42 28 -27 13 13 5 43 -11 43 -6 0 -13 -7 -17
-16z"/>
<path d="M4404 5726 c-3 -9 -1 -23 6 -31 10 -12 10 -18 0 -30 -7 -8 -8 -15 -2
-15 18 0 33 28 30 56 -3 31 -25 44 -34 20z"/>
<path d="M1538 5599 c-15 -8 -18 -26 -18 -114 0 -117 5 -125 74 -125 52 0 66
27 66 125 0 100 -14 125 -68 125 -20 0 -45 -5 -54 -11z m92 -28 c5 -11 10 -53
10 -94 0 -85 -10 -100 -62 -95 l-33 3 -3 89 c-2 49 -1 95 2 103 8 21 73 16 86
-6z"/>
<path d="M1816 5588 c-11 -16 -16 -46 -16 -103 0 -98 14 -125 66 -125 69 0 74
8 74 125 0 93 -2 105 -19 115 -35 18 -88 12 -105 -12z m99 -103 l0 -100 -33
-3 c-53 -5 -62 10 -62 102 0 94 8 108 60 104 l35 -3 0 -100z"/>
<path d="M2018 5599 c-15 -8 -18 -26 -18 -114 0 -117 5 -125 74 -125 52 0 66
27 66 125 0 100 -14 125 -68 125 -20 0 -45 -5 -54 -11z m92 -28 c5 -11 10 -53
10 -94 0 -85 -10 -100 -62 -95 l-33 3 -3 89 c-2 49 -1 95 2 103 8 21 73 16 86
-6z"/>
<path d="M2208 5599 c-10 -5 -18 -17 -18 -25 0 -13 3 -13 22 0 44 31 98 15 98
-29 0 -27 -18 -45 -47 -45 -35 0 -27 -18 10 -22 28 -3 32 -7 35 -36 2 -18 -2
-40 -9 -48 -16 -19 -68 -18 -91 3 -16 15 -18 15 -18 0 0 -37 94 -51 123 -19
19 21 22 73 7 102 -7 13 -7 21 0 25 17 10 11 71 -8 88 -21 19 -77 22 -104 6z"/>
<path d="M1713 5394 c-8 -21 13 -42 28 -27 13 13 5 43 -11 43 -6 0 -13 -7 -17
-16z"/>
<path d="M1040 5264 c0 -4 13 -21 30 -40 39 -45 47 -93 25 -150 -9 -25 -26
-50 -36 -57 -10 -6 -19 -18 -19 -25 0 -21 36 3 58 40 43 70 37 146 -15 208
-23 28 -43 39 -43 24z"/>
<path d="M560 4960 c0 -5 9 -10 20 -10 17 0 20 -7 20 -40 0 -23 7 -52 16 -65
14 -22 14 -26 0 -47 -9 -12 -16 -39 -16 -60 0 -31 -4 -38 -20 -38 -11 0 -20
-5 -20 -11 0 -6 12 -9 28 -7 24 3 27 8 30 43 1 22 10 54 19 71 15 29 15 33 0
55 -10 13 -17 42 -17 65 0 29 -5 44 -16 48 -24 9 -44 7 -44 -4z"/>
<path d="M800 4855 c0 -57 4 -95 10 -95 6 0 10 38 10 95 0 57 -4 95 -10 95 -6
0 -10 -38 -10 -95z"/>
<path d="M1309 4928 c-9 -16 -9 -23 0 -26 7 -2 11 -37 11 -103 0 -59 4 -99 10
-99 6 0 10 48 10 125 0 124 -7 148 -31 103z"/>
<path d="M1456 4928 c-11 -16 -16 -46 -16 -103 0 -98 14 -125 66 -125 69 0 74
8 74 125 0 93 -2 105 -19 115 -35 18 -88 12 -105 -12z m99 -103 l0 -100 -33
-3 c-53 -5 -62 10 -62 102 0 94 8 108 60 104 l35 -3 0 -100z"/>
<path d="M990 4885 c0 -33 -2 -35 -35 -35 -19 0 -35 -4 -35 -10 0 -5 16 -10
35 -10 34 0 35 -1 35 -40 0 -22 5 -40 10 -40 6 0 10 18 10 40 0 39 1 40 35 40
19 0 35 5 35 10 0 6 -16 10 -35 10 -33 0 -35 2 -35 35 0 19 -4 35 -10 35 -5 0
-10 -16 -10 -35z"/>
<path d="M1643 4854 c-8 -21 13 -42 28 -27 13 13 5 43 -11 43 -6 0 -13 -7 -17
-16z"/>
<path d="M1644 4736 c-3 -9 -1 -23 6 -31 10 -12 10 -18 0 -30 -7 -8 -8 -15 -2
-15 18 0 33 28 30 56 -3 31 -25 44 -34 20z"/>
<path d="M796 4723 c-11 -11 -6 -23 9 -23 8 0 15 4 15 9 0 13 -16 22 -24 14z"/>
<path d="M560 4505 c0 -149 4 -157 56 -111 l28 23 19 -23 c10 -14 29 -24 43
-24 26 0 93 54 81 66 -4 4 -20 -5 -35 -19 -16 -15 -35 -27 -44 -27 -36 0 -28
24 26 74 31 28 56 59 56 67 0 23 -21 39 -53 39 -37 0 -87 -51 -87 -89 0 -18
-12 -39 -35 -61 l-35 -34 0 127 c0 78 -4 127 -10 127 -6 0 -10 -52 -10 -135z
m206 34 c6 -10 -71 -88 -88 -89 -5 0 -8 11 -8 25 0 48 75 97 96 64z"/>
<path d="M1773 4633 c-8 -3 -13 -22 -13 -47 0 -23 -7 -52 -17 -65 -15 -22 -15
-26 0 -55 9 -17 18 -49 19 -71 3 -35 6 -40 31 -43 15 -2 27 1 27 7 0 6 -9 11
-20 11 -16 0 -20 7 -20 38 0 21 -7 48 -16 60 -14 21 -14 25 0 47 9 13 16 42
16 65 0 33 3 40 20 40 11 0 20 5 20 10 0 10 -26 12 -47 3z"/>
<path d="M840 4570 c0 -11 -4 -20 -10 -20 -5 0 -10 -7 -10 -15 0 -8 4 -15 10
-15 5 0 10 -33 12 -72 2 -59 6 -73 20 -76 22 -4 83 51 74 66 -5 8 -16 2 -33
-18 -13 -17 -29 -28 -34 -24 -5 3 -9 36 -9 74 l0 70 40 6 c50 8 53 27 3 22
-22 -2 -38 2 -41 10 -6 19 -22 14 -22 -8z"/>
<path d="M1080 4563 c0 -5 14 -16 30 -25 17 -9 35 -28 41 -42 11 -22 7 -30
-30 -73 -27 -30 -38 -49 -30 -52 7 -2 29 16 49 39 l37 43 18 -31 c18 -30 60
-60 70 -50 3 2 -13 24 -35 47 l-41 43 46 54 c53 61 38 77 -16 16 l-34 -37 -36
37 c-32 34 -69 50 -69 31z"/>
<path d="M1440 4530 c0 -6 30 -10 70 -10 40 0 70 4 70 10 0 6 -30 10 -70 10
-40 0 -70 -4 -70 -10z"/>
<path d="M1440 4450 c0 -6 30 -10 70 -10 40 0 70 4 70 10 0 6 -30 10 -70 10
-40 0 -70 -4 -70 -10z"/>
<path d="M1780 4207 c0 -97 -1 -105 -25 -127 l-25 -23 0 76 c0 107 -28 133
-89 81 -17 -14 -31 -21 -31 -16 0 15 -29 42 -45 42 -7 0 -27 -12 -44 -26 l-31
-26 0 26 c0 27 -7 31 -34 20 -20 -8 -21 -24 -1 -24 12 0 15 -16 15 -85 0 -50
4 -85 10 -85 6 0 10 25 10 56 0 51 3 59 35 91 50 50 59 41 63 -60 3 -95 22
-121 22 -31 0 51 3 59 35 91 50 50 59 41 63 -56 3 -90 16 -108 52 -76 18 16
20 17 20 2 0 -12 9 -17 29 -17 21 0 39 12 70 45 34 36 41 52 41 84 0 40 -20
71 -45 71 -7 0 -27 -12 -44 -26 l-31 -26 0 61 c0 34 -4 61 -10 61 -6 0 -10
-41 -10 -103z m118 -33 c2 -33 -2 -44 -34 -76 -49 -51 -64 -50 -64 8 0 39 5
51 35 81 19 19 40 33 47 31 7 -3 14 -22 16 -44z"/>
<path d="M1079 4251 c-34 -34 -39 -44 -39 -86 0 -42 5 -52 39 -86 21 -22 48
-39 60 -39 25 0 120 84 108 96 -4 4 -27 -11 -50 -34 -24 -23 -50 -42 -58 -42
-8 0 -29 15 -47 33 -25 26 -32 41 -32 73 0 78 95 132 157 89 13 -9 24 -11 28
-6 10 17 -38 41 -83 41 -38 0 -50 -6 -83 -39z"/>
<path d="M1970 4165 l0 -125 60 0 c33 0 60 4 60 10 0 6 -22 10 -50 10 l-50 0
0 115 c0 70 -4 115 -10 115 -6 0 -10 -48 -10 -125z"/>
<path d="M2182 4245 c-41 -45 -51 -109 -27 -170 18 -47 66 -96 74 -74 2 6 -4
16 -13 21 -22 12 -56 81 -56 113 0 35 23 86 49 109 11 11 21 23 21 28 0 17
-19 7 -48 -27z"/>
<path d="M1311 4214 c-27 -22 -31 -32 -31 -74 0 -42 4 -52 31 -74 37 -32 40
-32 72 -2 30 28 42 65 33 102 -7 25 -51 74 -67 74 -4 0 -21 -12 -38 -26z m79
-34 c17 -32 11 -70 -16 -97 l-25 -25 -25 23 c-31 29 -33 84 -3 115 24 26 50
20 69 -16z"/>
<path d="M1950 3850 c0 -148 8 -164 60 -115 27 26 28 26 34 7 12 -37 37 -35
78 5 37 36 38 36 38 13 0 -54 36 -63 75 -20 26 28 10 38 -18 12 -13 -12 -27
-19 -30 -15 -4 3 -7 44 -7 90 l0 83 -37 0 c-53 -1 -103 -47 -103 -95 0 -12
-16 -36 -35 -55 l-35 -34 0 127 c0 78 -4 127 -10 127 -6 0 -10 -50 -10 -130z
m210 6 c0 -25 -10 -45 -41 -80 -47 -53 -59 -49 -59 20 0 50 35 94 75 94 22 0
25 -4 25 -34z"/>
<path d="M1520 3835 l0 -125 61 0 c59 0 63 2 105 44 36 36 44 50 44 81 0 31
-8 45 -44 81 -42 42 -46 44 -105 44 l-61 0 0 -125z m152 68 c51 -50 51 -84 1
-135 -33 -34 -43 -38 -85 -38 l-48 0 0 105 0 105 47 0 c41 0 52 -5 85 -37z"/>
<path d="M2450 3836 c0 -153 18 -172 22 -23 l3 102 60 -102 c33 -57 65 -103
72 -103 10 0 13 31 13 125 0 104 -2 125 -15 125 -12 0 -15 -18 -15 -102 l0
-103 -58 99 c-31 55 -63 101 -70 104 -9 3 -12 -26 -12 -122z"/>
<path d="M3218 3949 c-15 -8 -18 -26 -18 -114 0 -117 5 -125 74 -125 52 0 66
27 66 125 0 100 -14 125 -68 125 -20 0 -45 -5 -54 -11z m92 -28 c5 -11 10 -53
10 -94 0 -85 -10 -100 -62 -95 l-33 3 -3 89 c-2 49 -1 95 2 103 8 21 73 16 86
-6z"/>
<path d="M3496 3938 c-11 -16 -16 -46 -16 -103 0 -98 14 -125 66 -125 69 0 74
8 74 125 0 93 -2 105 -19 115 -35 18 -88 12 -105 -12z m99 -103 l0 -100 -33
-3 c-53 -5 -62 10 -62 102 0 94 8 108 60 104 l35 -3 0 -100z"/>
<path d="M3726 3887 c-25 -41 -46 -86 -46 -100 0 -25 3 -27 45 -27 41 0 45 -2
45 -25 0 -14 5 -25 10 -25 6 0 10 11 10 25 0 16 6 25 15 25 8 0 15 5 15 10 0
6 -7 10 -15 10 -12 0 -15 17 -15 90 0 50 -4 90 -9 90 -5 0 -30 -33 -55 -73z
m44 -42 l0 -65 -35 0 c-21 0 -35 5 -35 12 0 11 61 118 67 118 2 0 3 -29 3 -65z"/>
<path d="M3887 3946 c-11 -11 -15 -42 -15 -115 -1 -89 1 -102 18 -111 30 -16
85 -12 103 8 19 21 22 73 7 102 -7 13 -7 21 0 25 17 10 11 71 -8 88 -23 21
-85 22 -105 3z m91 -18 c7 -7 12 -21 12 -33 0 -38 -39 -56 -84 -39 -19 7 -22
70 -3 77 23 10 63 7 75 -5z m10 -136 c4 -40 -12 -62 -43 -62 -44 0 -55 10 -55
49 0 48 5 53 55 49 37 -3 40 -5 43 -36z"/>
<path d="M4298 3949 c-15 -8 -18 -26 -18 -114 0 -117 5 -125 74 -125 52 0 66
27 66 125 0 100 -14 125 -68 125 -20 0 -45 -5 -54 -11z m92 -28 c5 -11 10 -53
10 -94 0 -85 -10 -100 -62 -95 l-33 3 -3 89 c-2 49 -1 95 2 103 8 21 73 16 86
-6z"/>
<path d="M4576 3938 c-11 -16 -16 -46 -16 -103 0 -98 14 -125 66 -125 69 0 74
8 74 125 0 93 -2 105 -19 115 -35 18 -88 12 -105 -12z m99 -103 l0 -100 -33
-3 c-53 -5 -62 10 -62 102 0 94 8 108 60 104 l35 -3 0 -100z"/>
<path d="M4806 3887 c-25 -41 -46 -86 -46 -100 0 -25 3 -27 45 -27 41 0 45 -2
45 -25 0 -14 5 -25 10 -25 6 0 10 11 10 25 0 16 6 25 15 25 8 0 15 5 15 10 0
6 -7 10 -15 10 -12 0 -15 17 -15 90 0 50 -4 90 -9 90 -5 0 -30 -33 -55 -73z
m44 -42 l0 -65 -35 0 c-21 0 -35 5 -35 12 0 11 61 118 67 118 2 0 3 -29 3 -65z"/>
<path d="M4967 3946 c-11 -11 -15 -42 -15 -115 -1 -89 1 -102 18 -111 30 -16
85 -12 103 8 19 21 22 73 7 102 -7 13 -7 21 0 25 17 10 11 71 -8 88 -23 21
-85 22 -105 3z m91 -18 c7 -7 12 -21 12 -33 0 -38 -39 -56 -84 -39 -19 7 -22
70 -3 77 23 10 63 7 75 -5z m10 -136 c4 -40 -12 -62 -43 -62 -44 0 -55 10 -55
49 0 48 5 53 55 49 37 -3 40 -5 43 -36z"/>
<path d="M2721 3931 c-60 -60 -67 -160 -17 -225 15 -20 34 -36 43 -36 13 0 11
6 -9 28 -36 38 -48 65 -48 107 0 44 26 102 52 118 10 7 18 15 18 19 0 14 -20
8 -39 -11z"/>
<path d="M5140 3940 c0 -5 4 -10 10 -10 5 0 21 -17 35 -37 41 -62 31 -147 -24
-197 -11 -10 -18 -23 -15 -28 9 -14 54 31 70 69 27 62 13 142 -34 196 -16 19
-42 23 -42 7z"/>
<path d="M1791 3884 c-29 -24 -31 -31 -31 -90 0 -52 3 -65 19 -74 33 -17 57
-11 91 20 41 38 32 52 -10 16 -31 -25 -60 -33 -73 -19 -4 3 20 35 54 69 52 55
59 66 49 84 -15 28 -61 26 -99 -6z m83 -3 c3 -5 -16 -28 -42 -52 l-47 -44 -3
29 c-2 19 4 36 19 52 22 24 63 32 73 15z"/>
<path d="M2245 3890 c-16 -18 -16 -20 -1 -26 12 -5 16 -20 16 -68 0 -57 11
-86 32 -86 4 0 26 16 48 36 l40 36 0 -39 c0 -47 -32 -83 -73 -83 -15 0 -27 -4
-27 -10 0 -23 62 -10 91 19 28 29 29 32 29 135 0 64 -4 106 -10 106 -5 0 -10
-19 -10 -41 0 -34 -8 -50 -41 -90 -22 -27 -45 -46 -50 -43 -5 3 -9 43 -9 90 0
46 -4 84 -8 84 -5 0 -17 -9 -27 -20z"/>
<path d="M2818 3889 c-31 -23 -37 -63 -12 -73 9 -3 33 -6 54 -6 49 0 59 -22
25 -56 -16 -16 -35 -24 -60 -24 -19 0 -35 -4 -35 -10 0 -17 74 -11 96 8 34 27
47 58 34 82 -8 15 -21 20 -55 20 -24 0 -47 5 -51 12 -12 19 35 48 77 48 21 0
39 5 39 10 0 19 -84 10 -112 -11z"/>
<path d="M2983 3744 c-4 -10 0 -22 10 -29 10 -7 13 -16 6 -26 -12 -19 -11 -32
2 -24 19 12 30 55 19 76 -13 23 -28 25 -37 3z"/>
<path d="M3393 3744 c-8 -21 13 -42 28 -27 13 13 5 43 -11 43 -6 0 -13 -7 -17
-16z"/>
<path d="M4063 3744 c-4 -10 0 -22 10 -29 10 -7 13 -16 6 -26 -12 -19 -11 -32
2 -24 19 12 30 55 19 76 -13 23 -28 25 -37 3z"/>
<path d="M4473 3744 c-8 -21 13 -42 28 -27 13 13 5 43 -11 43 -6 0 -13 -7 -17
-16z"/>
<path d="M5291 3746 c-9 -11 -8 -18 5 -31 12 -12 14 -19 5 -28 -6 -6 -11 -16
-11 -21 1 -18 40 35 40 54 0 27 -25 44 -39 26z"/>
<path d="M1538 3619 c-15 -8 -18 -26 -18 -114 0 -117 5 -125 74 -125 52 0 66
27 66 125 0 100 -14 125 -68 125 -20 0 -45 -5 -54 -11z m92 -28 c5 -11 10 -53
10 -94 0 -85 -10 -100 -62 -95 l-33 3 -3 89 c-2 49 -1 95 2 103 8 21 73 16 86
-6z"/>
<path d="M1867 3612 c-21 -23 -21 -32 -2 -32 12 0 15 -18 15 -100 0 -60 4
-100 10 -100 6 0 10 48 10 125 0 69 -4 125 -8 125 -5 0 -16 -8 -25 -18z"/>
<path d="M1713 3414 c-8 -21 13 -42 28 -27 13 13 5 43 -11 43 -6 0 -13 -7 -17
-16z"/>
<path d="M2004 3416 c-3 -9 -1 -23 6 -31 10 -12 10 -18 0 -30 -7 -8 -8 -15 -2
-15 18 0 33 28 30 56 -3 31 -25 44 -34 20z"/>
<path d="M2200 3305 c-7 -9 -10 -18 -7 -22 8 -7 37 15 37 28 0 14 -16 11 -30
-6z"/>
<path d="M4250 3285 c0 -32 -2 -35 -31 -35 -43 0 -89 -50 -89 -97 0 -41 -15
-73 -35 -73 -12 0 -15 16 -15 75 0 70 -2 76 -24 86 -19 9 -29 7 -50 -6 -14
-10 -26 -21 -26 -26 0 -5 -4 -9 -10 -9 -5 0 -10 11 -10 25 0 15 -6 25 -14 25
-19 0 -33 -23 -18 -28 8 -2 12 -32 12 -88 0 -49 4 -84 10 -84 6 0 10 24 10 54
0 48 4 59 35 91 49 52 59 44 63 -51 3 -90 11 -103 47 -84 20 10 28 11 37 2 18
-18 24 -15 68 24 l40 36 0 -31 c0 -19 6 -34 15 -37 19 -8 65 22 65 41 0 21
-13 19 -28 -5 -24 -38 -32 -9 -32 111 0 73 -4 119 -10 119 -5 0 -10 -16 -10
-35z m0 -86 c0 -22 -12 -46 -41 -80 -22 -27 -45 -46 -50 -43 -5 3 -9 28 -9 55
0 40 5 55 25 74 13 14 36 25 50 25 21 0 25 -4 25 -31z"/>
<path d="M1520 3175 l0 -125 55 0 c30 0 55 5 55 10 0 6 -20 10 -45 10 l-45 0
0 115 c0 70 -4 115 -10 115 -6 0 -10 -48 -10 -125z"/>
<path d="M1696 3278 c-9 -12 -16 -30 -16 -39 0 -10 -6 -20 -12 -23 -10 -5 -10
-7 0 -12 8 -4 12 -37 12 -115 0 -66 4 -109 10 -109 6 0 10 43 10 110 l0 110
25 0 c31 0 33 17 3 22 -15 2 -23 10 -23 23 0 11 10 24 23 30 27 12 29 25 3 25
-11 0 -27 -10 -35 -22z"/>
<path d="M1800 3175 c0 -77 4 -125 10 -125 6 0 10 40 10 101 0 56 4 98 9 95 5
-3 33 -49 62 -101 30 -52 60 -95 67 -95 9 0 12 32 12 125 0 152 -18 170 -22
23 l-3 -103 -60 102 c-33 57 -66 103 -72 103 -10 0 -13 -32 -13 -125z"/>
<path d="M2707 3282 c-21 -23 -21 -32 -2 -32 12 0 15 -18 15 -100 0 -60 4
-100 10 -100 6 0 10 48 10 125 0 69 -4 125 -8 125 -5 0 -16 -8 -25 -18z"/>
<path d="M2997 3282 c-13 -14 -17 -39 -17 -109 0 -103 12 -123 73 -123 57 0
67 18 67 125 0 72 -4 97 -16 109 -22 22 -87 21 -107 -2z m87 -8 c13 -5 16 -24
16 -99 0 -75 -3 -94 -16 -99 -25 -10 -59 -7 -72 6 -16 16 -16 170 0 186 13 13
47 16 72 6z"/>
<path d="M3325 3280 c-16 -18 -16 -20 -1 -26 13 -5 16 -23 16 -105 0 -59 4
-99 10 -99 6 0 10 48 10 125 0 69 -4 125 -8 125 -5 0 -17 -9 -27 -20z"/>
<path d="M3560 3175 c0 -77 4 -125 10 -125 6 0 10 26 10 57 l0 58 33 -40 c17
-21 39 -48 48 -58 8 -11 21 -18 27 -16 6 2 -11 30 -39 62 l-51 57 30 0 c31 0
72 38 72 65 0 7 -9 24 -21 39 -17 22 -28 26 -70 26 l-49 0 0 -125z m106 80
c21 -32 -6 -65 -52 -65 -34 0 -34 0 -34 46 l0 45 36 -3 c23 -2 42 -10 50 -23z"/>
<path d="M4366 3284 c-12 -12 -16 -37 -16 -109 0 -108 9 -125 69 -125 60 0 71
20 71 127 0 74 -3 93 -18 106 -23 21 -86 22 -106 1z m92 -16 c16 -16 16 -170
0 -186 -13 -13 -47 -16 -72 -6 -13 5 -16 24 -16 99 0 65 4 95 13 98 23 10 63
7 75 -5z"/>
<path d="M5157 3282 c-13 -14 -17 -39 -17 -109 0 -103 12 -123 73 -123 57 0
67 18 67 125 0 72 -4 97 -16 109 -22 22 -87 21 -107 -2z m87 -8 c13 -5 16 -24
16 -99 0 -99 -3 -105 -54 -105 -38 0 -46 19 -46 105 0 50 5 86 12 93 13 13 47
16 72 6z"/>
<path d="M5446 3284 c-12 -12 -16 -37 -16 -109 0 -108 9 -125 69 -125 60 0 71
20 71 127 0 74 -3 93 -18 106 -23 21 -86 22 -106 1z m92 -16 c7 -7 12 -43 12
-93 0 -86 -8 -105 -46 -105 -51 0 -54 6 -54 105 0 65 4 95 13 98 23 10 63 7
75 -5z"/>
<path d="M5667 3221 c-26 -43 -47 -88 -47 -100 0 -19 6 -21 50 -21 47 0 50 -2
50 -25 0 -14 5 -25 10 -25 6 0 10 11 10 24 0 13 6 27 13 30 10 5 10 7 0 12 -9
4 -13 33 -13 95 0 67 -3 89 -13 89 -7 0 -34 -35 -60 -79z m49 -87 c-5 -13 -76
-21 -76 -8 0 8 19 43 49 89 l26 40 3 -54 c2 -29 1 -60 -2 -67z"/>
<path d="M6286 3284 c-12 -12 -16 -37 -16 -109 0 -108 9 -125 69 -125 60 0 71
20 71 127 0 74 -3 93 -18 106 -23 21 -86 22 -106 1z m92 -16 c7 -7 12 -43 12
-93 0 -86 -8 -105 -46 -105 -51 0 -54 6 -54 105 0 65 4 95 13 98 23 10 63 7
75 -5z"/>
<path d="M6578 3289 c-15 -8 -18 -26 -18 -114 0 -117 5 -125 74 -125 52 0 66
27 66 125 0 100 -14 125 -68 125 -20 0 -45 -5 -54 -11z m92 -28 c5 -11 10 -53
10 -94 0 -85 -10 -100 -62 -95 l-33 3 -3 89 c-2 49 -1 95 2 103 8 21 73 16 86
-6z"/>
<path d="M6750 3235 l0 -64 58 -3 c57 -3 57 -3 60 -36 5 -47 -12 -62 -69 -62
-27 0 -49 -4 -49 -10 0 -5 24 -10 53 -10 63 0 87 19 87 69 0 56 -14 71 -70 71
l-50 0 0 45 0 45 60 0 c33 0 60 4 60 10 0 6 -30 10 -70 10 l-70 0 0 -65z"/>
<path d="M2874 3255 c-28 -38 -42 -111 -30 -159 8 -33 65 -98 78 -90 5 4 -1
18 -15 33 -36 38 -47 65 -47 113 0 45 28 104 55 114 15 6 11 24 -5 24 -5 0
-21 -16 -36 -35z"/>
<path d="M4540 3280 c0 -5 4 -10 10 -10 5 0 21 -17 35 -37 41 -62 31 -147 -24
-197 -11 -10 -18 -23 -15 -28 9 -14 54 31 70 69 27 62 13 142 -34 196 -16 19
-42 23 -42 7z"/>
<path d="M6000 3235 c0 -33 -2 -35 -35 -35 -19 0 -35 -4 -35 -10 0 -5 16 -10
35 -10 34 0 35 -1 35 -40 0 -51 18 -53 22 -2 3 35 5 37 41 40 50 4 48 22 -3
22 -39 0 -40 1 -40 35 0 19 -4 35 -10 35 -5 0 -10 -16 -10 -35z"/>
<path d="M2031 3224 c-27 -22 -31 -32 -31 -74 0 -42 4 -52 31 -74 17 -14 34
-26 38 -26 16 0 60 49 67 74 9 37 -3 74 -33 102 -32 30 -35 30 -72 -2z m79
-34 c17 -32 11 -70 -16 -97 l-25 -25 -25 23 c-31 29 -33 84 -3 115 24 26 50
20 69 -16z"/>
<path d="M2175 3230 c-16 -18 -16 -20 -1 -26 13 -5 16 -20 16 -75 0 -88 15
-98 70 -44 22 21 37 42 33 48 -3 5 -23 -8 -44 -29 l-39 -38 0 92 c0 51 -4 92
-8 92 -5 0 -17 -9 -27 -20z"/>
<path d="M2309 3220 c-42 -41 -28 -68 38 -72 35 -2 49 -7 51 -20 5 -27 -37
-58 -80 -58 -21 0 -38 -4 -38 -10 0 -5 19 -10 43 -10 34 0 49 6 70 28 49 51
31 92 -40 92 -31 0 -43 4 -43 14 0 22 40 46 77 46 18 0 33 5 33 10 0 6 -18 10
-41 10 -32 0 -47 -6 -70 -30z"/>
<path d="M2479 3219 c-24 -26 -29 -39 -29 -84 0 -57 19 -85 58 -85 25 0 91 55
79 66 -4 4 -20 -5 -35 -19 -16 -15 -35 -27 -44 -27 -36 0 -28 24 26 74 57 52
66 72 44 94 -23 23 -68 14 -99 -19z m87 0 c6 -10 -71 -88 -88 -89 -5 0 -8 11
-8 25 0 48 75 97 96 64z"/>
<path d="M3770 3237 c-49 -38 -69 -137 -34 -171 21 -22 23 -21 66 21 37 36 38
36 38 13 0 -54 36 -63 75 -20 26 28 10 38 -18 12 -13 -12 -27 -19 -30 -15 -4
3 -7 44 -7 90 l0 83 -37 0 c-21 0 -45 -6 -53 -13z m70 -41 c0 -25 -10 -45 -41
-80 -47 -53 -59 -49 -59 20 0 50 35 94 75 94 22 0 25 -4 25 -34z"/>
<path d="M4877 3221 c-7 -33 -8 -34 -27 -16 -23 21 -26 9 -5 -19 11 -15 18
-16 28 -8 10 9 16 9 25 0 9 -9 15 -7 27 8 21 28 18 40 -4 20 -19 -18 -20 -17
-29 15 l-8 34 -7 -34z"/>
<path d="M4815 3160 c3 -5 13 -10 21 -10 16 0 19 -16 4 -25 -5 -3 -10 -11 -10
-17 0 -6 9 -3 19 6 18 16 19 16 28 -11 l10 -28 7 29 c7 27 8 28 26 11 11 -10
20 -13 20 -7 0 6 -4 14 -10 17 -16 10 -11 22 13 30 19 6 20 8 4 12 -11 3 -28
-4 -41 -16 l-23 -21 -18 20 c-18 20 -62 29 -50 10z"/>
<path d="M3173 3084 c-8 -21 13 -42 28 -27 13 13 5 43 -11 43 -6 0 -13 -7 -17
-16z"/>
<path d="M3463 3084 c-8 -21 13 -42 28 -27 13 13 5 43 -11 43 -6 0 -13 -7 -17
-16z"/>
<path d="M5333 3084 c-8 -21 13 -42 28 -27 13 13 5 43 -11 43 -6 0 -13 -7 -17
-16z"/>
<path d="M6463 3084 c-8 -21 13 -42 28 -27 13 13 5 43 -11 43 -6 0 -13 -7 -17
-16z"/>
<path d="M6944 3086 c-3 -9 -1 -23 6 -31 10 -12 10 -18 0 -30 -10 -12 -10 -15
4 -15 16 0 30 36 24 66 -4 23 -26 30 -34 10z"/>
<path d="M1575 2950 c-16 -18 -16 -20 -1 -26 13 -5 16 -23 16 -105 0 -59 4
-99 10 -99 6 0 10 48 10 125 0 69 -4 125 -8 125 -5 0 -17 -9 -27 -20z"/>
<path d="M1710 2905 l0 -64 58 -3 c57 -3 57 -3 60 -36 5 -47 -12 -62 -69 -62
-27 0 -49 -4 -49 -10 0 -5 24 -10 53 -10 63 0 87 19 87 69 0 56 -14 71 -70 71
l-50 0 0 45 0 45 60 0 c33 0 60 4 60 10 0 6 -30 10 -70 10 l-70 0 0 -65z"/>
<path d="M1040 2624 c0 -4 13 -21 30 -40 39 -45 47 -93 25 -150 -9 -25 -26
-50 -36 -57 -10 -6 -19 -18 -19 -25 0 -21 36 3 58 40 43 70 37 146 -15 208
-23 28 -43 39 -43 24z"/>
<path d="M560 2320 c0 -5 9 -10 20 -10 17 0 20 -7 20 -40 0 -23 7 -52 16 -65
14 -22 14 -26 0 -47 -9 -12 -16 -39 -16 -60 0 -31 -4 -38 -20 -38 -11 0 -20
-5 -20 -11 0 -6 12 -9 28 -7 24 3 27 8 30 43 1 22 10 54 19 71 15 29 15 33 0
55 -10 13 -17 42 -17 65 0 29 -5 44 -16 48 -24 9 -44 7 -44 -4z"/>
<path d="M800 2215 c0 -57 4 -95 10 -95 6 0 10 38 10 95 0 57 -4 95 -10 95 -6
0 -10 -38 -10 -95z"/>
<path d="M1250 2300 c0 -5 25 -10 55 -10 31 0 55 -5 55 -10 0 -6 -20 -54 -45
-107 -46 -99 -51 -113 -37 -113 10 0 112 218 112 238 0 8 -21 12 -70 12 -40 0
-70 -4 -70 -10z"/>
<path d="M990 2245 c0 -33 -2 -35 -35 -35 -19 0 -35 -4 -35 -10 0 -5 16 -10
35 -10 34 0 35 -1 35 -40 0 -22 5 -40 10 -40 6 0 10 18 10 40 0 39 1 40 35 40
19 0 35 5 35 10 0 6 -16 10 -35 10 -33 0 -35 2 -35 35 0 19 -4 35 -10 35 -5 0
-10 -16 -10 -35z"/>
<path d="M1451 2216 c-8 -10 -8 -16 3 -25 10 -9 16 -8 26 3 12 15 6 36 -9 36
-5 0 -14 -6 -20 -14z"/>
<path d="M1451 2096 c-9 -11 -8 -18 5 -31 12 -12 14 -19 5 -28 -6 -6 -11 -16
-11 -21 1 -18 40 35 40 54 0 27 -25 44 -39 26z"/>
<path d="M796 2083 c-11 -11 -6 -23 9 -23 8 0 15 4 15 9 0 13 -16 22 -24 14z"/>
<path d="M1000 1985 c-7 -9 -10 -18 -7 -22 8 -7 37 15 37 28 0 14 -16 11 -30
-6z"/>
<path d="M2973 1993 c-8 -3 -13 -22 -13 -47 0 -23 -7 -52 -17 -65 -15 -22 -15
-26 0 -55 9 -17 18 -49 19 -71 3 -35 6 -40 31 -43 15 -2 27 1 27 7 0 6 -9 11
-20 11 -16 0 -20 7 -20 38 0 21 -7 48 -16 60 -14 21 -14 25 0 47 9 13 16 42
16 65 0 33 3 40 20 40 11 0 20 5 20 10 0 10 -26 12 -47 3z"/>
<path d="M606 1907 c-25 -41 -46 -86 -46 -100 0 -25 3 -27 45 -27 41 0 45 -2
45 -25 0 -14 5 -25 10 -25 6 0 10 11 10 25 0 16 6 25 15 25 8 0 15 5 15 10 0
6 -7 10 -15 10 -12 0 -15 17 -15 90 0 50 -4 90 -9 90 -5 0 -30 -33 -55 -73z
m44 -42 l0 -65 -35 0 c-21 0 -35 5 -35 12 0 11 61 118 67 118 2 0 3 -29 3 -65z"/>
<path d="M1780 1855 c0 -77 4 -125 10 -125 6 0 10 26 10 58 l0 57 54 -60 c66
-74 85 -68 21 6 l-46 54 33 7 c57 11 77 69 38 108 -15 15 -33 20 -70 20 l-50
0 0 -125z m101 95 c11 -6 19 -21 19 -35 0 -28 -26 -45 -69 -45 -30 0 -31 1
-31 45 0 44 1 45 31 45 17 0 39 -5 50 -10z"/>
<path d="M840 1930 c0 -11 -4 -20 -10 -20 -5 0 -10 -7 -10 -15 0 -8 4 -15 10
-15 5 0 10 -33 12 -72 2 -59 6 -73 20 -76 22 -4 83 51 74 66 -5 8 -16 2 -33
-18 -13 -17 -29 -28 -34 -24 -5 3 -9 36 -9 74 l0 70 40 6 c50 8 53 27 3 22
-22 -2 -38 2 -41 10 -6 19 -22 14 -22 -8z"/>
<path d="M2690 1931 c0 -10 -8 -22 -17 -26 -17 -6 -17 -7 -1 -19 13 -9 18 -31
20 -82 2 -54 6 -69 19 -72 20 -4 82 56 72 71 -4 6 -14 0 -27 -16 -36 -44 -46
-35 -46 43 l0 69 35 7 c19 3 35 11 35 16 0 6 -14 8 -35 5 -26 -4 -35 -2 -35 9
0 8 -4 14 -10 14 -5 0 -10 -9 -10 -19z"/>
<path d="M975 1910 c-16 -18 -16 -20 -1 -26 13 -5 16 -20 16 -75 0 -88 15 -98
70 -44 22 21 37 42 33 48 -3 5 -23 -8 -44 -29 l-39 -38 0 92 c0 51 -4 92 -8
92 -5 0 -17 -9 -27 -20z"/>
<path d="M1093 1923 c-18 -7 -16 -23 2 -23 12 0 15 -16 15 -85 0 -50 4 -85 10
-85 6 0 10 25 10 56 0 51 3 59 35 91 50 50 59 41 63 -60 3 -95 22 -121 22 -31
0 51 3 59 35 91 50 50 59 41 63 -56 3 -89 16 -108 52 -76 18 16 20 16 35 1 9
-9 27 -16 41 -16 26 0 93 54 81 66 -4 4 -20 -5 -36 -20 -24 -23 -35 -27 -57
-22 l-27 7 64 65 c53 54 62 67 53 82 -6 9 -25 18 -43 20 -46 5 -91 -42 -91
-95 0 -29 -7 -46 -25 -63 l-25 -23 0 76 c0 107 -28 133 -89 81 -17 -14 -31
-21 -31 -16 0 15 -29 42 -45 42 -7 0 -27 -12 -44 -26 l-31 -26 0 26 c0 25 -10
30 -37 19z m441 -20 c7 -7 -72 -93 -86 -93 -17 0 -7 55 14 77 21 22 57 30 72
16z"/>
<path d="M1618 1909 c-31 -23 -37 -63 -12 -73 9 -3 33 -6 54 -6 49 0 59 -22
25 -56 -16 -16 -35 -24 -60 -24 -19 0 -35 -4 -35 -10 0 -17 74 -11 96 8 34 27
47 58 34 82 -8 15 -21 20 -55 20 -24 0 -47 5 -51 12 -12 19 35 48 77 48 21 0
39 5 39 10 0 19 -84 10 -112 -11z"/>
<path d="M1981 1904 c-29 -24 -31 -31 -31 -90 0 -52 3 -65 19 -74 33 -17 57
-11 91 20 41 38 32 52 -10 16 -31 -25 -60 -33 -73 -19 -4 3 20 35 54 69 52 55
59 66 49 84 -15 28 -61 26 -99 -6z m83 -3 c3 -5 -16 -28 -42 -52 l-47 -44 -3
29 c-2 19 4 36 19 52 22 24 63 32 73 15z"/>
<path d="M2125 1910 c-16 -18 -16 -20 -1 -26 13 -5 16 -23 16 -110 0 -63 -4
-104 -10 -104 -6 0 -10 -52 -10 -135 0 -114 2 -135 15 -135 20 0 92 66 82 76
-4 4 -23 -8 -42 -26 l-35 -34 0 122 c0 75 4 122 10 122 6 0 10 16 10 35 0 28
4 35 20 35 11 0 38 19 60 41 36 37 40 47 40 90 0 42 -3 51 -24 60 -19 9 -29 7
-50 -6 -14 -10 -26 -21 -26 -26 0 -5 -4 -9 -10 -9 -5 0 -10 11 -10 25 0 30
-11 32 -35 5z m133 -47 c3 -34 -2 -46 -31 -77 -48 -50 -67 -48 -67 8 0 37 6
51 35 81 19 20 40 35 47 33 7 -3 14 -23 16 -45z"/>
<path d="M2341 1904 c-29 -24 -31 -31 -31 -90 0 -52 3 -65 19 -74 33 -17 57
-11 91 20 41 38 32 52 -10 16 -31 -25 -60 -33 -73 -19 -4 3 20 35 54 69 52 55
59 66 49 84 -15 28 -61 26 -99 -6z m83 -3 c3 -5 -16 -28 -42 -52 l-47 -44 -3
29 c-2 19 4 36 19 52 22 24 63 32 73 15z"/>
<path d="M2511 1904 c-29 -24 -31 -31 -31 -89 0 -88 18 -101 68 -52 21 21 41
37 45 37 4 0 7 -14 7 -30 0 -42 25 -49 58 -17 33 33 21 49 -13 17 l-25 -23 0
91 0 92 -39 0 c-28 0 -49 -8 -70 -26z m87 -26 c2 -20 -7 -38 -39 -73 -23 -25
-45 -45 -50 -45 -5 0 -9 23 -9 52 0 40 5 57 22 75 31 33 72 28 76 -9z"/>
<path d="M753 1764 c-8 -21 13 -42 28 -27 13 13 5 43 -11 43 -6 0 -13 -7 -17
-16z"/>
<path d="M2000 1535 c0 -114 2 -135 15 -135 20 0 92 66 82 76 -4 4 -23 -8 -42
-26 l-35 -34 0 127 c0 78 -4 127 -10 127 -6 0 -10 -52 -10 -135z"/>
<path d="M4842 1658 c-7 -7 -12 -30 -12 -52 0 -23 -7 -49 -15 -60 -11 -15 -12
-23 -2 -40 6 -11 14 -43 17 -71 5 -48 6 -50 38 -53 18 -2 32 1 32 7 0 6 -11
11 -25 11 -23 0 -25 4 -25 43 0 24 -5 48 -12 55 -9 9 -9 20 0 49 7 21 13 52
14 68 2 23 9 31 26 33 12 2 22 8 22 13 0 13 -44 11 -58 -3z"/>
<path d="M6720 1635 c0 -31 -3 -35 -27 -35 -47 -1 -93 -52 -93 -103 0 -36 -16
-67 -35 -67 -12 0 -15 16 -15 75 0 70 -2 76 -24 86 -19 9 -29 7 -50 -6 -14
-10 -26 -21 -26 -26 0 -5 -4 -9 -10 -9 -5 0 -10 11 -10 25 0 15 -6 25 -14 25
-19 0 -33 -23 -18 -28 8 -2 12 -32 12 -88 0 -49 4 -84 10 -84 6 0 10 24 10 54
0 48 4 59 35 91 49 53 59 44 63 -54 3 -91 13 -104 56 -76 14 10 26 13 26 7 0
-5 8 -13 17 -16 11 -5 29 5 55 31 37 36 38 36 38 13 0 -54 36 -63 75 -20 26
28 10 38 -18 12 -13 -12 -27 -19 -30 -15 -4 3 -7 60 -7 125 0 72 -4 118 -10
118 -5 0 -10 -16 -10 -35z m0 -89 c0 -25 -10 -45 -41 -80 -47 -53 -59 -49 -59
20 0 50 35 94 75 94 22 0 25 -4 25 -34z"/>
<path d="M7130 1661 c0 -5 10 -11 23 -13 18 -2 22 -10 25 -43 1 -22 7 -50 13
-61 8 -15 8 -27 0 -42 -6 -11 -11 -39 -11 -61 0 -37 -2 -41 -25 -41 -14 0 -25
-4 -25 -10 0 -14 43 -13 58 2 7 7 12 29 12 50 0 21 5 47 12 57 9 15 9 25 0 46
-7 14 -12 43 -12 63 0 21 -5 43 -12 50 -14 14 -58 16 -58 3z"/>
<path d="M1832 1598 c-28 -74 -52 -158 -52 -180 0 -34 17 -18 24 23 l6 40 53
-3 52 -3 3 -37 c2 -25 8 -38 17 -38 11 0 13 9 9 33 -10 60 -68 217 -80 217 -7
0 -21 -24 -32 -52z m63 -58 l14 -40 -45 0 c-50 0 -50 0 -17 80 16 39 22 35 48
-40z"/>
<path d="M2960 1525 c0 -77 4 -125 10 -125 6 0 10 41 10 103 l0 102 60 -102
c33 -57 65 -103 70 -103 6 0 10 50 10 125 0 152 -18 170 -22 23 l-3 -103 -59
103 c-33 56 -63 102 -68 102 -4 0 -8 -56 -8 -125z"/>
<path d="M3766 1634 c-12 -12 -16 -37 -16 -109 0 -108 9 -125 69 -125 60 0 71
20 71 127 0 74 -3 93 -18 106 -23 21 -86 22 -106 1z m92 -16 c16 -16 16 -170
0 -186 -13 -13 -47 -16 -72 -6 -13 5 -16 24 -16 99 0 65 4 95 13 98 23 10 63
7 75 -5z"/>
<path d="M4058 1639 c-15 -8 -18 -26 -18 -114 0 -117 5 -125 74 -125 52 0 66
27 66 125 0 100 -14 125 -68 125 -20 0 -45 -5 -54 -11z m92 -28 c5 -11 10 -53
10 -94 0 -85 -10 -100 -62 -95 l-33 3 -3 89 c-2 49 -1 95 2 103 8 21 73 16 86
-6z"/>
<path d="M4230 1585 l0 -64 58 -3 c57 -3 57 -3 60 -36 5 -47 -12 -62 -69 -62
-27 0 -49 -4 -49 -10 0 -5 24 -10 53 -10 63 0 87 19 87 69 0 56 -14 71 -70 71
l-50 0 0 45 0 45 60 0 c33 0 60 4 60 10 0 6 -30 10 -70 10 l-70 0 0 -65z"/>
<path d="M4437 1632 c-13 -14 -17 -39 -17 -109 0 -103 12 -123 73 -123 57 0
67 18 67 125 0 72 -4 97 -16 109 -22 22 -87 21 -107 -2z m87 -8 c13 -5 16 -24
16 -99 0 -75 -3 -94 -16 -99 -25 -10 -59 -7 -72 6 -16 16 -16 170 0 186 13 13
47 16 72 6z"/>
<path d="M5086 1634 c-12 -12 -16 -37 -16 -109 0 -108 9 -125 69 -125 60 0 71
20 71 127 0 74 -3 93 -18 106 -23 21 -86 22 -106 1z m92 -16 c7 -7 12 -43 12
-93 0 -86 -8 -105 -46 -105 -51 0 -54 6 -54 105 0 65 4 95 13 98 23 10 63 7
75 -5z"/>
<path d="M5378 1639 c-15 -8 -18 -26 -18 -114 0 -117 5 -125 74 -125 52 0 66
27 66 125 0 100 -14 125 -68 125 -20 0 -45 -5 -54 -11z m92 -28 c5 -11 10 -53
10 -94 0 -85 -10 -100 -62 -95 l-33 3 -3 89 c-2 49 -1 95 2 103 8 21 73 16 86
-6z"/>
<path d="M5550 1585 l0 -64 58 -3 c57 -3 57 -3 60 -36 5 -47 -12 -62 -69 -62
-27 0 -49 -4 -49 -10 0 -5 24 -10 53 -10 63 0 87 19 87 69 0 56 -14 71 -70 71
l-50 0 0 45 0 45 60 0 c33 0 60 4 60 10 0 6 -30 10 -70 10 l-70 0 0 -65z"/>
<path d="M5757 1632 c-13 -14 -17 -39 -17 -109 0 -103 12 -123 73 -123 57 0
67 18 67 125 0 72 -4 97 -16 109 -22 22 -87 21 -107 -2z m87 -8 c13 -5 16 -24
16 -99 0 -99 -3 -105 -54 -105 -38 0 -46 19 -46 105 0 50 5 86 12 93 13 13 47
16 72 6z"/>
<path d="M6030 1525 c0 -77 4 -125 10 -125 6 0 10 26 10 58 l1 57 20 -25 c56
-67 80 -91 89 -88 5 2 -12 28 -37 58 l-45 55 33 7 c58 11 78 69 39 108 -15 15
-33 20 -70 20 l-50 0 0 -125z m104 89 c33 -33 6 -74 -50 -74 -34 0 -34 0 -34
45 0 45 0 45 34 45 19 0 42 -7 50 -16z"/>
<path d="M6836 1634 c-12 -12 -16 -37 -16 -109 0 -108 9 -125 69 -125 60 0 71
20 71 127 0 74 -3 93 -18 106 -23 21 -86 22 -106 1z m92 -16 c7 -7 12 -43 12
-93 0 -86 -8 -105 -46 -105 -51 0 -54 6 -54 105 0 65 4 95 13 98 23 10 63 7
75 -5z"/>
<path d="M7370 1555 c0 -57 4 -95 10 -95 6 0 10 38 10 95 0 57 -4 95 -10 95
-6 0 -10 -38 -10 -95z"/>
<path d="M7628 1639 c-10 -5 -18 -17 -18 -24 0 -19 8 -19 26 0 30 30 94 16 94
-21 0 -20 -82 -132 -110 -149 -5 -3 -10 -15 -10 -26 0 -17 7 -19 70 -19 40 0
70 4 70 10 0 6 -27 10 -60 10 -33 0 -60 3 -60 7 0 3 27 34 60 69 64 66 77 106
44 138 -17 18 -80 21 -106 5z"/>
<path d="M8075 1630 c-16 -18 -16 -20 -1 -26 13 -5 16 -23 16 -105 0 -59 4
-99 10 -99 6 0 10 48 10 125 0 69 -4 125 -8 125 -5 0 -17 -9 -27 -20z"/>
<path d="M3212 1605 c-41 -45 -51 -109 -27 -170 18 -47 66 -96 74 -74 2 6 -4
16 -13 21 -22 12 -56 81 -56 113 0 35 23 86 49 109 11 11 21 23 21 28 0 17
-19 7 -48 -27z"/>
<path d="M8210 1630 c0 -5 4 -10 10 -10 5 0 21 -17 35 -37 41 -62 31 -147 -24
-197 -11 -10 -18 -23 -15 -28 9 -14 54 31 70 69 27 62 13 142 -34 196 -16 19
-42 23 -42 7z"/>
<path d="M1010 1593 c0 -5 12 -15 28 -24 15 -8 33 -28 41 -42 14 -27 13 -29
-34 -77 -37 -38 -45 -50 -31 -50 11 0 35 18 54 41 l34 40 24 -34 c21 -32 42
-47 65 -47 17 0 9 17 -13 27 -13 6 -31 24 -40 41 l-18 30 46 51 c52 58 39 70
-17 15 l-38 -37 -34 37 c-31 32 -67 48 -67 29z"/>
<path d="M2227 1582 c-21 -23 -21 -32 -2 -32 12 0 15 -19 15 -110 0 -67 4
-110 10 -110 6 0 10 16 10 35 0 24 5 35 14 35 21 0 74 47 91 81 19 36 19 69
-1 97 -20 29 -36 28 -73 -4 l-31 -26 0 26 c0 31 -11 33 -33 8z m121 -14 c23
-23 13 -66 -24 -108 -49 -54 -64 -52 -64 7 0 39 5 52 32 80 36 37 39 38 56 21z"/>
<path d="M2450 1587 c-49 -38 -69 -137 -34 -171 21 -22 23 -21 66 21 37 36 38
36 38 13 0 -54 36 -63 75 -20 26 28 10 38 -18 12 -13 -12 -27 -19 -30 -15 -4
3 -7 44 -7 90 l0 83 -37 0 c-21 0 -45 -6 -53 -13z m70 -41 c0 -25 -10 -45 -41
-80 -47 -53 -59 -49 -59 20 0 50 35 94 75 94 22 0 25 -4 25 -34z"/>
<path d="M2628 1579 c-31 -23 -37 -63 -12 -73 9 -3 33 -6 54 -6 49 0 59 -22
25 -56 -16 -16 -35 -24 -60 -24 -19 0 -35 -4 -35 -10 0 -17 74 -11 96 8 34 27
47 58 34 82 -8 15 -21 20 -55 20 -24 0 -47 5 -51 12 -12 19 35 48 77 48 21 0
39 5 39 10 0 19 -84 10 -112 -11z"/>
<path d="M2789 1570 c-42 -41 -28 -68 38 -72 35 -2 49 -7 51 -20 5 -27 -37
-58 -80 -58 -21 0 -38 -4 -38 -10 0 -5 19 -10 43 -10 34 0 49 6 70 28 49 51
31 92 -40 92 -31 0 -43 4 -43 14 0 22 40 46 77 46 18 0 33 5 33 10 0 6 -18 10
-41 10 -32 0 -47 -6 -70 -30z"/>
<path d="M3290 1593 c0 -5 12 -15 28 -24 15 -8 33 -28 41 -42 14 -27 13 -29
-34 -77 -37 -38 -45 -50 -31 -50 11 0 35 18 54 41 l34 40 24 -34 c21 -32 42
-47 65 -47 17 0 9 17 -13 27 -13 6 -31 24 -40 41 l-18 30 46 51 c52 58 39 70
-17 15 l-38 -37 -34 37 c-31 32 -67 48 -67 29z"/>
<path d="M6240 1587 c-49 -38 -69 -137 -34 -171 21 -22 23 -21 66 21 37 36 38
36 38 13 0 -54 36 -63 75 -20 26 28 10 38 -18 12 -13 -12 -27 -19 -30 -15 -4
3 -7 44 -7 90 l0 83 -37 0 c-21 0 -45 -6 -53 -13z m70 -41 c0 -25 -10 -45 -41
-80 -47 -53 -59 -49 -59 20 0 50 35 94 75 94 22 0 25 -4 25 -34z"/>
<path d="M1381 1556 c-8 -10 -8 -16 3 -25 10 -9 16 -8 26 3 12 15 6 36 -9 36
-5 0 -14 -6 -20 -14z"/>
<path d="M1470 1560 c0 -6 30 -10 70 -10 40 0 70 4 70 10 0 6 -30 10 -70 10
-40 0 -70 -4 -70 -10z"/>
<path d="M1470 1480 c0 -6 30 -10 70 -10 40 0 70 4 70 10 0 6 -30 10 -70 10
-40 0 -70 -4 -70 -10z"/>
<path d="M1382 1437 c-14 -17 2 -42 22 -34 20 8 20 21 2 36 -10 8 -16 8 -24
-2z"/>
<path d="M3533 1434 c-4 -10 0 -22 10 -29 10 -7 13 -16 6 -26 -12 -19 -11 -32
2 -24 19 12 30 55 19 76 -13 23 -28 25 -37 3z"/>
<path d="M3943 1434 c-8 -21 13 -42 28 -27 13 13 5 43 -11 43 -6 0 -13 -7 -17
-16z"/>
<path d="M4613 1434 c-4 -10 0 -22 10 -29 10 -7 13 -16 6 -26 -12 -19 -11 -32
2 -24 19 12 30 55 19 76 -13 23 -28 25 -37 3z"/>
<path d="M5263 1434 c-8 -21 13 -42 28 -27 13 13 5 43 -11 43 -6 0 -13 -7 -17
-16z"/>
<path d="M5933 1434 c-8 -21 13 -42 28 -27 13 13 5 43 -11 43 -6 0 -13 -7 -17
-16z"/>
<path d="M7811 1436 c-9 -11 -8 -18 5 -31 12 -12 14 -19 5 -28 -6 -6 -11 -16
-11 -21 1 -18 40 35 40 54 0 27 -25 44 -39 26z"/>
<path d="M7370 1416 c0 -9 7 -16 16 -16 9 0 14 5 12 12 -6 18 -28 21 -28 4z"/>
<path d="M560 1330 c0 -5 9 -10 20 -10 17 0 20 -7 20 -40 0 -23 7 -52 16 -65
14 -22 14 -26 0 -47 -9 -12 -16 -39 -16 -60 0 -31 -4 -38 -20 -38 -11 0 -20
-5 -20 -11 0 -6 12 -9 28 -7 24 3 27 8 30 43 1 22 10 54 19 71 15 29 15 33 0
55 -10 13 -17 42 -17 65 0 29 -5 44 -16 48 -24 9 -44 7 -44 -4z"/>
<path d="M683 1224 c-8 -21 13 -42 28 -27 13 13 5 43 -11 43 -6 0 -13 -7 -17
-16z"/>
<path d="M684 1106 c-3 -9 -1 -23 6 -31 10 -12 10 -18 0 -30 -7 -8 -8 -15 -2
-15 18 0 33 28 30 56 -3 31 -25 44 -34 20z"/>
<path d="M1246 974 c-12 -12 -16 -37 -16 -109 0 -108 9 -125 69 -125 60 0 71
20 71 127 0 74 -3 93 -18 106 -23 21 -86 22 -106 1z m92 -16 c7 -7 12 -43 12
-93 0 -86 -8 -105 -46 -105 -51 0 -54 6 -54 105 0 65 4 95 13 98 23 10 63 7
75 -5z"/>
<path d="M1529 972 c-13 -12 -18 -21 -12 -25 6 -4 16 0 23 8 19 23 77 19 90
-5 14 -26 -5 -62 -64 -120 -28 -27 -46 -53 -46 -67 0 -22 4 -23 70 -23 40 0
70 4 70 10 0 6 -27 10 -60 10 -33 0 -60 3 -60 6 0 4 24 32 54 64 61 67 74 101
51 136 -20 30 -81 33 -116 6z"/>
<path d="M1900 925 c0 -33 -2 -35 -35 -35 -19 0 -35 -4 -35 -10 0 -5 16 -10
35 -10 34 0 35 -1 35 -40 0 -22 5 -40 10 -40 6 0 10 18 10 40 0 39 1 40 35 40
19 0 35 5 35 10 0 6 -16 10 -35 10 -33 0 -35 2 -35 35 0 19 -4 35 -10 35 -5 0
-10 -16 -10 -35z"/>
<path d="M530 933 c0 -5 12 -15 28 -24 15 -8 33 -28 41 -42 14 -26 13 -29 -27
-70 -23 -24 -42 -46 -42 -50 0 -18 26 -3 58 34 l34 40 24 -34 c21 -32 42 -47
65 -47 17 0 9 17 -13 27 -13 6 -31 24 -40 41 l-18 30 46 51 c52 58 39 70 -17
15 l-38 -37 -34 37 c-31 32 -67 48 -67 29z"/>
<path d="M967 911 c-7 -33 -8 -34 -27 -16 -23 21 -26 9 -5 -19 11 -15 18 -16
28 -8 10 9 16 9 25 0 9 -9 15 -7 27 8 21 28 18 40 -4 20 -19 -18 -20 -17 -29
15 l-8 34 -7 -34z"/>
<path d="M2168 911 c-44 -40 -31 -65 36 -69 57 -4 68 -23 36 -58 -17 -17 -34
-24 -62 -24 -21 0 -38 -4 -38 -10 0 -5 18 -10 41 -10 31 0 47 6 70 29 50 51
34 91 -37 91 -24 0 -46 5 -50 11 -11 19 37 49 79 49 20 0 37 5 37 10 0 6 -18
10 -40 10 -30 0 -48 -7 -72 -29z"/>
<path d="M905 850 c3 -5 13 -10 21 -10 16 0 19 -16 4 -25 -5 -3 -10 -11 -10
-17 0 -6 9 -3 19 6 18 16 19 16 28 -11 l10 -28 7 29 c7 27 8 28 26 11 11 -10
20 -13 20 -7 0 6 -4 14 -10 17 -16 10 -11 22 13 30 19 6 20 8 4 12 -11 3 -28
-4 -41 -16 l-23 -21 -18 20 c-18 20 -62 29 -50 10z"/>
<path d="M1423 774 c-8 -21 13 -42 28 -27 13 13 5 43 -11 43 -6 0 -13 -7 -17
-16z"/>
<path d="M11429 433 l-24 -28 28 24 c15 14 27 26 27 28 0 8 -8 1 -31 -24z"/>
</g>
</svg>
