<?xml version="1.0" encoding="UTF-8" standalone="no"?>
<!DOCTYPE svg PUBLIC "-//W3C//DTD SVG 1.1//EN"
 "http://www.w3.org/Graphics/SVG/1.1/DTD/svg11.dtd">
<!-- Generated by graphviz version 12.0.0 (0)
 -->
<!-- Pages: 1 -->
<svg width="52pt" height="54pt"
 viewBox="0.00 0.00 52.12 54.00" xmlns="http://www.w3.org/2000/svg" xmlns:xlink="http://www.w3.org/1999/xlink">
<g id="graph0" class="graph" transform="scale(0.520807 0.520807) rotate(0) translate(4 99.69)">
<!-- 1 -->
<g id="node1" class="node">
<title>1</title>
<ellipse fill="black" stroke="black" cx="1.8" cy="-16.1" rx="1.8" ry="1.8"/>
</g>
<!-- 1&#45;&#45;1 -->
<g id="edge1" class="edge">
<title>1&#45;&#45;1</title>
<path fill="none" stroke="black" stroke-width="0.75" d="M3.11,-17.68C10,-25.06 21.6,-24.53 21.6,-16.1 21.6,-7.66 10,-7.13 3.11,-14.51"/>
</g>
<!-- 2 -->
<g id="node2" class="node">
<title>2</title>
<ellipse fill="black" stroke="black" cx="90.27" cy="-41.77" rx="1.8" ry="1.8"/>
</g>
<!-- 1&#45;&#45;2 -->
<g id="edge2" class="edge">
<title>1&#45;&#45;2</title>
<path fill="none" stroke="black" stroke-width="0.75" d="M3.99,-16.73C16.23,-20.28 76.12,-37.66 88.16,-41.16"/>
</g>
<!-- 3 -->
<g id="node3" class="node">
<title>3</title>
<ellipse fill="black" stroke="black" cx="59.23" cy="-1.8" rx="1.8" ry="1.8"/>
</g>
<!-- 1&#45;&#45;3 -->
<g id="edge3" class="edge">
<title>1&#45;&#45;3</title>
<path fill="none" stroke="black" stroke-width="0.75" d="M3.71,-15.62C12.35,-13.47 47.75,-4.66 57,-2.35"/>
</g>
<!-- 2&#45;&#45;3 -->
<g id="edge4" class="edge">
<title>2&#45;&#45;3</title>
<path fill="none" stroke="black" stroke-width="0.75" d="M88.94,-40.05C83.83,-33.48 65.56,-9.95 60.52,-3.47"/>
</g>
<!-- 4 -->
<g id="node4" class="node">
<title>4</title>
<ellipse fill="black" stroke="black" cx="62.23" cy="-93.89" rx="1.8" ry="1.8"/>
</g>
<!-- 2&#45;&#45;4 -->
<g id="edge5" class="edge">
<title>2&#45;&#45;4</title>
<path fill="none" stroke="black" stroke-width="0.75" d="M89.34,-43.5C85.08,-51.42 67.52,-84.06 63.19,-92.09"/>
</g>
<!-- 3&#45;&#45;4 -->
<g id="edge6" class="edge">
<title>3&#45;&#45;4</title>
<path fill="none" stroke="black" stroke-width="0.75" d="M59.3,-4.08C59.72,-16.82 61.75,-79.16 62.16,-91.69"/>
</g>
</g>
</svg>
