<svg xmlns="http://www.w3.org/2000/svg" width="66.0" height="100.0" viewBox="-28.4 -26.3 76.0 110.0">
<g fill="none" stroke="black" stroke-width="0.2350%" transform="translate(0, 57.4468) scale(2.1277, -2.1277)">
<polyline points="0.0,0.0 0.0,1.0 -1.0,1.0 -1.0,2.0 -2.0,2.0 -2.0,1.0 -3.0,1.0 -3.0,2.0 -4.0,2.0 -4.0,1.0 -3.0,1.0 -3.0,0.0 -4.0,0.0 -4.0,-1.0 -5.0,-1.0 -5.0,0.0 -6.0,0.0 -6.0,-1.0 -5.0,-1.0 -5.0,-2.0 -4.0,-2.0 -4.0,-1.0 -3.0,-1.0 -3.0,-2.0 -4.0,-2.0 -4.0,-3.0 -3.0,-3.0 -3.0,-4.0 -4.0,-4.0 -4.0,-5.0 -5.0,-5.0 -5.0,-4.0 -6.0,-4.0 -6.0,-5.0 -5.0,-5.0 -5.0,-6.0 -4.0,-6.0 -4.0,-5.0 -3.0,-5.0 -3.0,-6.0 -2.0,-6.0 -2.0,-5.0 -3.0,-5.0 -3.0,-4.0 -2.0,-4.0 -2.0,-3.0 -1.0,-3.0 -1.0,-4.0 -2.0,-4.0 -2.0,-5.0 -1.0,-5.0 -1.0,-6.0 -0.0,-6.0 -0.0,-5.0 1.0,-5.0 1.0,-6.0 -0.0,-6.0 -0.0,-7.0 1.0,-7.0 1.0,-8.0 -0.0,-8.0 -0.0,-9.0 -1.0,-9.0 -1.0,-8.0 -2.0,-8.0 -2.0,-9.0 -1.0,-9.0 -1.0,-10.0 -0.0,-10.0 -0.0,-9.0 1.0,-9.0 1.0,-10.0 2.0,-10.0 2.0,-9.0 1.0,-9.0 1.0,-8.0 2.0,-8.0 2.0,-7.0 3.0,-7.0 3.0,-8.0 4.0,-8.0 4.0,-7.0 3.0,-7.0 3.0,-6.0 2.0,-6.0 2.0,-7.0 1.0,-7.0 1.0,-6.0 2.0,-6.0 2.0,-5.0 1.0,-5.0 1.0,-4.0 2.0,-4.0 2.0,-3.0 3.0,-3.0 3.0,-4.0 2.0,-4.0 2.0,-5.0 3.0,-5.0 3.0,-6.0 4.0,-6.0 4.0,-5.0 5.0,-5.0 5.0,-6.0 6.0,-6.0 6.0,-5.0 5.0,-5.0 5.0,-4.0 6.0,-4.0 6.0,-3.0 7.0,-3.0 7.0,-4.0 6.0,-4.0 6.0,-5.0 7.0,-5.0 7.0,-6.0 8.0,-6.0 8.0,-5.0 9.0,-5.0 9.0,-6.0 8.0,-6.0 8.0,-7.0 9.0,-7.0 9.0,-8.0 8.0,-8.0 8.0,-9.0 7.0,-9.0 7.0,-8.0 6.0,-8.0 6.0,-9.0 7.0,-9.0 7.0,-10.0 8.0,-10.0 8.0,-9.0 9.0,-9.0 9.0,-10.0 10.0,-10.0 10.0,-9.0 9.0,-9.0 9.0,-8.0 10.0,-8.0 10.0,-7.0 11.0,-7.0 11.0,-8.0 12.0,-8.0 12.0,-7.0 11.0,-7.0 11.0,-6.0 10.0,-6.0 10.0,-7.0 9.0,-7.0 9.0,-6.0 10.0,-6.0 10.0,-5.0 9.0,-5.0 9.0,-4.0 10.0,-4.0 10.0,-3.0 11.0,-3.0 11.0,-4.0 12.0,-4.0 12.0,-3.0 11.0,-3.0 11.0,-2.0 10.0,-2.0 10.0,-3.0 9.0,-3.0 9.0,-2.0 8.0,-2.0 8.0,-3.0 9.0,-3.0 9.0,-4.0 8.0,-4.0 8.0,-5.0 7.0,-5.0 7.0,-4.0 8.0,-4.0 8.0,-3.0 7.0,-3.0 7.0,-2.0 6.0,-2.0 6.0,-3.0 5.0,-3.0 5.0,-2.0 6.0,-2.0 6.0,-1.0 5.0,-1.0 5.0,0.0 6.0,0.0 6.0,1.0 7.0,1.0 7.0,0.0 6.0,0.0 6.0,-1.0 7.0,-1.0 7.0,-2.0 8.0,-2.0 8.0,-1.0 9.0,-1.0 9.0,-2.0 10.0,-2.0 10.0,-1.0 9.0,-1.0 9.0,0.0 10.0,0.0 10.0,1.0 11.0,1.0 11.0,0.0 12.0,0.0 12.0,1.0 11.0,1.0 11.0,2.0 10.0,2.0 10.0,1.0 9.0,1.0 9.0,2.0 10.0,2.0 10.0,3.0 9.0,3.0 9.0,4.0 10.0,4.0 10.0,5.0 11.0,5.0 11.0,4.0 10.0,4.0 10.0,3.0 11.0,3.0 11.0,2.0 12.0,2.0 12.0,3.0 13.0,3.0 13.0,2.0 14.0,2.0 14.0,3.0 13.0,3.0 13.0,4.0 14.0,4.0 14.0,5.0 15.0,5.0 15.0,4.0 14.0,4.0 14.0,3.0 15.0,3.0 15.0,2.0 16.0,2.0 16.0,3.0 17.0,3.0 17.0,2.0 16.0,2.0 16.0,1.0 17.0,1.0 17.0,0.0 16.0,0.0 16.0,-1.0 15.0,-1.0 15.0,0.0 14.0,0.0 14.0,-1.0 15.0,-1.0 15.0,-2.0 16.0,-2.0 16.0,-1.0 17.0,-1.0 17.0,-2.0 18.0,-2.0 18.0,-1.0 17.0,-1.0 17.0,0.0 18.0,0.0 18.0,1.0 19.0,1.0 19.0,0.0 20.0,0.0 20.0,1.0 19.0,1.0 19.0,2.0 18.0,2.0 18.0,1.0 17.0,1.0 17.0,2.0 18.0,2.0 18.0,3.0 17.0,3.0 17.0,4.0 18.0,4.0 18.0,5.0 19.0,5.0 19.0,4.0 20.0,4.0 20.0,5.0 19.0,5.0 19.0,6.0 18.0,6.0 18.0,5.0 17.0,5.0 17.0,6.0 16.0,6.0 16.0,5.0 17.0,5.0 17.0,4.0 16.0,4.0 16.0,3.0 15.0,3.0 15.0,4.0 16.0,4.0 16.0,5.0 15.0,5.0 15.0,6.0 14.0,6.0 14.0,5.0 13.0,5.0 13.0,6.0 14.0,6.0 14.0,7.0 13.0,7.0 13.0,8.0 14.0,8.0 14.0,9.0 15.0,9.0 15.0,8.0 16.0,8.0 16.0,9.0 15.0,9.0 15.0,10.0 14.0,10.0 14.0,9.0 13.0,9.0 13.0,10.0 12.0,10.0 12.0,9.0 13.0,9.0 13.0,8.0 12.0,8.0 12.0,7.0 11.0,7.0 11.0,8.0 10.0,8.0 10.0,7.0 11.0,7.0 11.0,6.0 12.0,6.0 12.0,7.0 13.0,7.0 13.0,6.0 12.0,6.0 12.0,5.0 13.0,5.0 13.0,4.0 12.0,4.0 12.0,3.0 11.0,3.0 11.0,4.0 12.0,4.0 12.0,5.0 11.0,5.0 11.0,6.0 10.0,6.0 10.0,5.0 9.0,5.0 9.0,6.0 8.0,6.0 8.0,5.0 9.0,5.0 9.0,4.0 8.0,4.0 8.0,3.0 7.0,3.0 7.0,4.0 8.0,4.0 8.0,5.0 7.0,5.0 7.0,6.0 6.0,6.0 6.0,5.0 5.0,5.0 5.0,6.0 6.0,6.0 6.0,7.0 5.0,7.0 5.0,8.0 6.0,8.0 6.0,9.0 7.0,9.0 7.0,8.0 6.0,8.0 6.0,7.0 7.0,7.0 7.0,6.0 8.0,6.0 8.0,7.0 9.0,7.0 9.0,6.0 10.0,6.0 10.0,7.0 9.0,7.0 9.0,8.0 10.0,8.0 10.0,9.0 11.0,9.0 11.0,8.0 12.0,8.0 12.0,9.0 11.0,9.0 11.0,10.0 10.0,10.0 10.0,9.0 9.0,9.0 9.0,10.0 10.0,10.0 10.0,11.0 9.0,11.0 9.0,12.0 10.0,12.0 10.0,13.0 11.0,13.0 11.0,12.0 12.0,12.0 12.0,13.0 11.0,13.0 11.0,14.0 10.0,14.0 10.0,13.0 9.0,13.0 9.0,14.0 8.0,14.0 8.0,13.0 9.0,13.0 9.0,12.0 8.0,12.0 8.0,11.0 7.0,11.0 7.0,12.0 8.0,12.0 8.0,13.0 7.0,13.0 7.0,14.0 6.0,14.0 6.0,13.0 5.0,13.0 5.0,14.0 6.0,14.0 6.0,15.0 5.0,15.0 5.0,16.0 6.0,16.0 6.0,17.0 7.0,17.0 7.0,16.0 6.0,16.0 6.0,15.0 7.0,15.0 7.0,14.0 8.0,14.0 8.0,15.0 9.0,15.0 9.0,14.0 10.0,14.0 10.0,15.0 9.0,15.0 9.0,16.0 10.0,16.0 10.0,17.0 11.0,17.0 11.0,16.0 12.0,16.0 12.0,17.0 11.0,17.0 11.0,18.0 10.0,18.0 10.0,17.0 9.0,17.0 9.0,18.0 10.0,18.0 10.0,19.0 9.0,19.0 9.0,20.0 10.0,20.0 10.0,21.0 11.0,21.0 11.0,20.0 10.0,20.0 10.0,19.0 11.0,19.0 11.0,18.0 12.0,18.0 12.0,19.0 13.0,19.0 13.0,18.0 14.0,18.0 14.0,19.0 13.0,19.0 13.0,20.0 14.0,20.0 14.0,21.0 15.0,21.0 15.0,20.0 14.0,20.0 14.0,19.0 15.0,19.0 15.0,18.0 16.0,18.0 16.0,19.0 17.0,19.0 17.0,18.0 16.0,18.0 16.0,17.0 17.0,17.0 17.0,16.0 16.0,16.0 16.0,15.0 15.0,15.0 15.0,16.0 14.0,16.0 14.0,15.0 15.0,15.0 15.0,14.0 16.0,14.0 16.0,15.0 17.0,15.0 17.0,14.0 18.0,14.0 18.0,15.0 17.0,15.0 17.0,16.0 18.0,16.0 18.0,17.0 19.0,17.0 19.0,16.0 20.0,16.0 20.0,17.0 19.0,17.0 19.0,18.0 18.0,18.0 18.0,17.0 17.0,17.0 17.0,18.0 18.0,18.0 18.0,19.0 17.0,19.0 17.0,20.0 18.0,20.0 18.0,21.0 19.0,21.0 19.0,20.0 20.0,20.0 20.0,21.0 19.0,21.0 19.0,22.0 18.0,22.0 18.0,21.0 17.0,21.0 17.0,22.0 16.0,22.0 16.0,21.0 17.0,21.0 17.0,20.0 16.0,20.0 16.0,19.0 15.0,19.0 15.0,20.0 16.0,20.0 16.0,21.0 15.0,21.0 15.0,22.0 14.0,22.0 14.0,21.0 13.0,21.0 13.0,22.0 14.0,22.0 14.0,23.0 13.0,23.0 13.0,24.0 14.0,24.0 14.0,25.0 15.0,25.0 15.0,24.0 16.0,24.0 16.0,25.0 15.0,25.0 15.0,26.0 14.0,26.0 14.0,25.0 13.0,25.0 13.0,26.0 12.0,26.0 12.0,25.0 13.0,25.0 13.0,24.0 12.0,24.0 12.0,23.0 11.0,23.0 11.0,24.0 10.0,24.0 10.0,23.0 11.0,23.0 11.0,22.0 12.0,22.0 12.0,23.0 13.0,23.0 13.0,22.0 12.0,22.0 12.0,21.0 13.0,21.0 13.0,20.0 12.0,20.0 12.0,19.0 11.0,19.0 11.0,20.0 12.0,20.0 12.0,21.0 11.0,21.0 11.0,22.0 10.0,22.0 10.0,21.0 9.0,21.0 9.0,22.0 8.0,22.0 8.0,21.0 9.0,21.0 9.0,20.0 8.0,20.0 8.0,19.0 7.0,19.0 7.0,20.0 8.0,20.0 8.0,21.0 7.0,21.0 7.0,22.0 6.0,22.0 6.0,21.0 5.0,21.0 5.0,22.0 6.0,22.0 6.0,23.0 5.0,23.0 5.0,24.0 6.0,24.0 6.0,25.0 7.0,25.0 7.0,24.0 8.0,24.0 8.0,25.0 7.0,25.0 7.0,26.0 6.0,26.0 6.0,25.0 5.0,25.0 5.0,26.0 4.0,26.0 4.0,25.0 5.0,25.0 5.0,24.0 4.0,24.0 4.0,23.0 3.0,23.0 3.0,24.0 2.0,24.0 2.0,23.0 3.0,23.0 3.0,22.0 4.0,22.0 4.0,23.0 5.0,23.0 5.0,22.0 4.0,22.0 4.0,21.0 5.0,21.0 5.0,20.0 4.0,20.0 4.0,19.0 3.0,19.0 3.0,20.0 2.0,20.0 2.0,19.0 3.0,19.0 3.0,18.0 4.0,18.0 4.0,19.0 5.0,19.0 5.0,18.0 6.0,18.0 6.0,19.0 5.0,19.0 5.0,20.0 6.0,20.0 6.0,21.0 7.0,21.0 7.0,20.0 6.0,20.0 6.0,19.0 7.0,19.0 7.0,18.0 8.0,18.0 8.0,19.0 9.0,19.0 9.0,18.0 8.0,18.0 8.0,17.0 9.0,17.0 9.0,16.0 8.0,16.0 8.0,15.0 7.0,15.0 7.0,16.0 8.0,16.0 8.0,17.0 7.0,17.0 7.0,18.0 6.0,18.0 6.0,17.0 5.0,17.0 5.0,18.0 4.0,18.0 4.0,17.0 5.0,17.0 5.0,16.0 4.0,16.0 4.0,15.0 3.0,15.0 3.0,16.0 2.0,16.0 2.0,15.0 3.0,15.0 3.0,14.0 4.0,14.0 4.0,15.0 5.0,15.0 5.0,14.0 4.0,14.0 4.0,13.0 5.0,13.0 5.0,12.0 4.0,12.0 4.0,11.0 3.0,11.0 3.0,12.0 4.0,12.0 4.0,13.0 3.0,13.0 3.0,14.0 2.0,14.0 2.0,13.0 1.0,13.0 1.0,14.0 -0.0,14.0 -0.0,13.0 1.0,13.0 1.0,12.0 -0.0,12.0 -0.0,11.0 -1.0,11.0 -1.0,12.0 -0.0,12.0 -0.0,13.0 -1.0,13.0 -1.0,14.0 -2.0,14.0 -2.0,13.0 -3.0,13.0 -3.0,14.0 -2.0,14.0 -2.0,15.0 -3.0,15.0 -3.0,16.0 -2.0,16.0 -2.0,17.0 -1.0,17.0 -1.0,16.0 -2.0,16.0 -2.0,15.0 -1.0,15.0 -1.0,14.0 -0.0,14.0 -0.0,15.0 1.0,15.0 1.0,14.0 2.0,14.0 2.0,15.0 1.0,15.0 1.0,16.0 2.0,16.0 2.0,17.0 3.0,17.0 3.0,16.0 4.0,16.0 4.0,17.0 3.0,17.0 3.0,18.0 2.0,18.0 2.0,17.0 1.0,17.0 1.0,18.0 2.0,18.0 2.0,19.0 1.0,19.0 1.0,20.0 2.0,20.0 2.0,21.0 3.0,21.0 3.0,20.0 4.0,20.0 4.0,21.0 3.0,21.0 3.0,22.0 2.0,22.0 2.0,21.0 1.0,21.0 1.0,22.0 -0.0,22.0 -0.0,21.0 1.0,21.0 1.0,20.0 -0.0,20.0 -0.0,19.0 -1.0,19.0 -1.0,20.0 -0.0,20.0 -0.0,21.0 -1.0,21.0 -1.0,22.0 -2.0,22.0 -2.0,21.0 -3.0,21.0 -3.0,22.0 -2.0,22.0 -2.0,23.0 -3.0,23.0 -3.0,24.0 -2.0,24.0 -2.0,25.0 -1.0,25.0 -1.0,24.0 -0.0,24.0 -0.0,25.0 -1.0,25.0 -1.0,26.0 -2.0,26.0 -2.0,25.0 -3.0,25.0 -3.0,26.0 -4.0,26.0 -4.0,25.0 -3.0,25.0 -3.0,24.0 -4.0,24.0 -4.0,23.0 -5.0,23.0 -5.0,24.0 -6.0,24.0 -6.0,23.0 -5.0,23.0 -5.0,22.0 -4.0,22.0 -4.0,23.0 -3.0,23.0 -3.0,22.0 -4.0,22.0 -4.0,21.0 -3.0,21.0 -3.0,20.0 -4.0,20.0 -4.0,19.0 -5.0,19.0 -5.0,20.0 -4.0,20.0 -4.0,21.0 -5.0,21.0 -5.0,22.0 -6.0,22.0 -6.0,21.0 -7.0,21.0 -7.0,22.0 -8.0,22.0 -8.0,21.0 -7.0,21.0 -7.0,20.0 -8.0,20.0 -8.0,19.0 -9.0,19.0 -9.0,20.0 -8.0,20.0 -8.0,21.0 -9.0,21.0 -9.0,22.0 -10.0,22.0 -10.0,21.0 -11.0,21.0 -11.0,22.0 -10.0,22.0 -10.0,23.0 -11.0,23.0 -11.0,24.0 -10.0,24.0 -10.0,25.0 -9.0,25.0 -9.0,24.0 -10.0,24.0 -10.0,23.0 -9.0,23.0 -9.0,22.0 -8.0,22.0 -8.0,23.0 -7.0,23.0 -7.0,22.0 -6.0,22.0 -6.0,23.0 -7.0,23.0 -7.0,24.0 -6.0,24.0 -6.0,25.0 -5.0,25.0 -5.0,24.0 -4.0,24.0 -4.0,25.0 -5.0,25.0 -5.0,26.0 -6.0,26.0 -6.0,25.0 -7.0,25.0 -7.0,26.0 -6.0,26.0 -6.0,27.0 -7.0,27.0 -7.0,28.0 -6.0,28.0 -6.0,29.0 -5.0,29.0 -5.0,28.0 -4.0,28.0 -4.0,29.0 -5.0,29.0 -5.0,30.0 -6.0,30.0 -6.0,29.0 -7.0,29.0 -7.0,30.0 -8.0,30.0 -8.0,29.0 -7.0,29.0 -7.0,28.0 -8.0,28.0 -8.0,27.0 -9.0,27.0 -9.0,28.0 -8.0,28.0 -8.0,29.0 -9.0,29.0 -9.0,30.0 -10.0,30.0 -10.0,29.0 -11.0,29.0 -11.0,30.0 -10.0,30.0 -10.0,31.0 -11.0,31.0 -11.0,32.0 -10.0,32.0 -10.0,33.0 -9.0,33.0 -9.0,32.0 -10.0,32.0 -10.0,31.0 -9.0,31.0 -9.0,30.0 -8.0,30.0 -8.0,31.0 -7.0,31.0 -7.0,30.0 -6.0,30.0 -6.0,31.0 -7.0,31.0 -7.0,32.0 -6.0,32.0 -6.0,33.0 -5.0,33.0 -5.0,32.0 -4.0,32.0 -4.0,33.0 -5.0,33.0 -5.0,34.0 -6.0,34.0 -6.0,33.0 -7.0,33.0 -7.0,34.0 -6.0,34.0 -6.0,35.0 -7.0,35.0 -7.0,36.0 -6.0,36.0 -6.0,37.0 -5.0,37.0 -5.0,36.0 -6.0,36.0 -6.0,35.0 -5.0,35.0 -5.0,34.0 -4.0,34.0 -4.0,35.0 -3.0,35.0 -3.0,34.0 -2.0,34.0 -2.0,35.0 -3.0,35.0 -3.0,36.0 -2.0,36.0 -2.0,37.0 -1.0,37.0 -1.0,36.0 -2.0,36.0 -2.0,35.0 -1.0,35.0 -1.0,34.0 -0.0,34.0 -0.0,35.0 1.0,35.0 1.0,34.0 -0.0,34.0 -0.0,33.0 1.0,33.0 1.0,32.0 -0.0,32.0 -0.0,31.0 -1.0,31.0 -1.0,32.0" />
</g>
</svg>