<svg xmlns="http://www.w3.org/2000/svg" width="161.8" height="100.0" viewBox="-85.902 -55.000 171.803 110.000">
<g fill="none" stroke="black" stroke-width="0.0125%" transform="translate(0, 0.0000) scale(39.8967, -39.8967)">
<circle cx="-2.028" cy="0.000" r="0.013" />
<circle cx="0.000" cy="1.253" r="0.013" />
<polyline points="-2.028,-1.253 -1.987,-1.197 -1.947,-1.148 -1.906,-1.104 -1.866,-1.063 -1.825,-1.026 -1.784,-0.990 -1.744,-0.956 -1.703,-0.924 -1.663,-0.893 -1.622,-0.863 -1.582,-0.835 -1.541,-0.807 -1.501,-0.780 -1.460,-0.753 -1.419,-0.727 -1.379,-0.702 -1.338,-0.678 -1.298,-0.654 -1.257,-0.630 -1.217,-0.607 -1.176,-0.584 -1.136,-0.561 -1.095,-0.539 -1.054,-0.517 -1.014,-0.495 -0.973,-0.473 -0.933,-0.452 -0.892,-0.431 -0.852,-0.410 -0.811,-0.390 -0.771,-0.369 -0.730,-0.349 -0.689,-0.329 -0.649,-0.309 -0.608,-0.289 -0.568,-0.269 -0.527,-0.250 -0.487,-0.230 -0.446,-0.211 -0.406,-0.191 -0.365,-0.172 -0.324,-0.153 -0.284,-0.133 -0.243,-0.114 -0.203,-0.095 -0.162,-0.076 -0.122,-0.057 -0.081,-0.038 -0.041,-0.019 0.000,0.000 0.041,0.019 0.081,0.038 0.122,0.057 0.162,0.076 0.203,0.095 0.243,0.114 0.284,0.133 0.324,0.153 0.365,0.172 0.406,0.191 0.446,0.211 0.487,0.230 0.527,0.250 0.568,0.269 0.608,0.289 0.649,0.309 0.689,0.329 0.730,0.349 0.771,0.369 0.811,0.390 0.852,0.410 0.892,0.431 0.933,0.452 0.973,0.473 1.014,0.495 1.054,0.517 1.095,0.539 1.136,0.561 1.176,0.584 1.217,0.607 1.257,0.630 1.298,0.654 1.338,0.678 1.379,0.702 1.419,0.727 1.460,0.753 1.501,0.780 1.541,0.807 1.582,0.835 1.622,0.863 1.663,0.893 1.703,0.924 1.744,0.956 1.784,0.990 1.825,1.026 1.866,1.063 1.906,1.104 1.947,1.148 1.987,1.197 2.028,1.253" />
</g>
</svg>