<svg xmlns="http://www.w3.org/2000/svg" width="103.9" height="100.0" viewBox="-30.490 -83.431 113.922 110.000">
<g fill="none" stroke="black" stroke-width="0.0064%" transform="translate(0, -56.8627) scale(78.4314, -78.4314)">
<circle cx="0.000" cy="0.000" r="0.006" />
<circle cx="-0.325" cy="-0.275" r="0.006" />
<circle cx="1.000" cy="0.000" r="0.006" />
<circle cx="0.000" cy="-1.000" r="0.006" />
<circle cx="0.325" cy="0.275" r="0.006" />
<line x1="0.000" y1="0.000" x2="-0.325" y2="-0.275" />
<line x1="0.000" y1="0.000" x2="1.000" y2="0.000" />
<line x1="0.000" y1="0.000" x2="0.000" y2="-1.000" />
<line x1="0.000" y1="0.000" x2="0.325" y2="0.275" />
</g>
</svg>