<svg xmlns="http://www.w3.org/2000/svg" width="161.8" height="100.0" viewBox="35.451 -5.000 171.803 110.000">
<g fill="none" stroke="black" stroke-width="0.0050%" transform="translate(0, 100.0000) scale(100.0000, -100.0000)">
<circle cx="0.405" cy="0.000" r="0.005" />
<polyline points="0.405,1.000 0.809,1.000 1.214,0.000 1.618,1.000 2.023,1.000" />
</g>
</svg>