<svg xmlns="http://www.w3.org/2000/svg" width="161.8" height="100.0" viewBox="-1.24 20.00 171.80 110.00">
<g fill="none" stroke="black" stroke-width="0.0200%" transform="translate(0, 150.0000) scale(25.0000, -25.0000)">
<polyline points="0.15,3.00 0.30,3.00 0.30,5.00 0.45,5.00 0.45,5.00 0.60,5.00 0.60,1.00 0.75,1.00 0.75,1.00 0.90,1.00 0.90,5.00 1.05,5.00 1.05,3.00 1.20,3.00 1.20,5.00 1.35,5.00 1.35,5.00 1.51,5.00 1.51,3.00 1.66,3.00 1.66,5.00 1.81,5.00 1.81,5.00 1.96,5.00 1.96,1.00 2.11,1.00 2.11,1.00 2.26,1.00 2.26,5.00 2.41,5.00 2.41,5.00 2.56,5.00 2.56,1.00 2.71,1.00 2.71,1.00 2.86,1.00 2.86,5.00 3.01,5.00 3.01,5.00 3.16,5.00 3.16,3.00 3.31,3.00 3.31,5.00 3.46,5.00 3.46,5.00 3.61,5.00 3.61,5.00 3.76,5.00 3.76,5.00 3.91,5.00 3.91,5.00 4.06,5.00 4.06,5.00 4.21,5.00 4.21,5.00 4.36,5.00 4.36,3.00 4.52,3.00 4.52,5.00 4.67,5.00 4.67,3.00 4.82,3.00 4.82,5.00 4.97,5.00 4.97,5.00 5.12,5.00 5.12,3.00 5.27,3.00 5.27,1.00 5.42,1.00 5.42,3.00 5.57,3.00 5.57,3.00 5.72,3.00 5.72,3.00 5.87,3.00 5.87,5.00 6.02,5.00 6.02,3.00 6.17,3.00 6.17,5.00 6.32,5.00 6.32,5.00 6.47,5.00 6.47,3.00 6.62,3.00" />
</g>
</svg>