<svg xmlns="http://www.w3.org/2000/svg" width="161.8" height="100.0" viewBox="-3 -56 172 110">
<g fill="none" stroke="black" stroke-width="1.8093%" transform="translate(0, -2.2230) scale(0.2763, -0.2763)">
<circle cx="6" cy="0" r="2" />
<circle cx="6" cy="0" r="2" />
<circle cx="12" cy="0" r="2" />
<circle cx="18" cy="0" r="2" />
<circle cx="24" cy="0" r="2" />
<circle cx="30" cy="0" r="2" />
<circle cx="35" cy="0" r="2" />
<circle cx="41" cy="0" r="2" />
<circle cx="47" cy="0" r="2" />
<circle cx="53" cy="0" r="2" />
<circle cx="59" cy="0" r="2" />
<circle cx="65" cy="2" r="2" />
<circle cx="71" cy="0" r="2" />
<circle cx="77" cy="-7" r="2" />
<circle cx="83" cy="0" r="2" />
<circle cx="89" cy="2" r="2" />
<circle cx="95" cy="0" r="2" />
<circle cx="101" cy="-8" r="2" />
<circle cx="106" cy="0" r="2" />
<circle cx="112" cy="11" r="2" />
<circle cx="118" cy="0" r="2" />
<circle cx="124" cy="-12" r="2" />
<circle cx="130" cy="0" r="2" />
<circle cx="136" cy="14" r="2" />
<circle cx="142" cy="0" r="2" />
<circle cx="148" cy="-19" r="2" />
<circle cx="154" cy="0" r="2" />
<circle cx="160" cy="16" r="2" />
<circle cx="166" cy="0" r="2" />
<circle cx="172" cy="-24" r="2" />
<circle cx="177" cy="0" r="2" />
<circle cx="183" cy="30" r="2" />
<circle cx="189" cy="0" r="2" />
<circle cx="195" cy="-30" r="2" />
<circle cx="201" cy="0" r="2" />
<circle cx="207" cy="29" r="2" />
<circle cx="213" cy="0" r="2" />
<circle cx="219" cy="-45" r="2" />
<circle cx="225" cy="0" r="2" />
<circle cx="231" cy="36" r="2" />
<circle cx="237" cy="0" r="2" />
<circle cx="242" cy="-47" r="2" />
<circle cx="248" cy="0" r="2" />
<circle cx="254" cy="49" r="2" />
<circle cx="260" cy="0" r="2" />
<circle cx="266" cy="-52" r="2" />
<circle cx="272" cy="0" r="2" />
<circle cx="278" cy="55" r="2" />
<circle cx="284" cy="0" r="2" />
<circle cx="290" cy="-64" r="2" />
<circle cx="296" cy="0" r="2" />
<circle cx="302" cy="61" r="2" />
<circle cx="308" cy="0" r="2" />
<circle cx="313" cy="-69" r="2" />
<circle cx="319" cy="0" r="2" />
<circle cx="325" cy="72" r="2" />
<circle cx="331" cy="0" r="2" />
<circle cx="337" cy="-77" r="2" />
<circle cx="343" cy="0" r="2" />
<circle cx="349" cy="80" r="2" />
<circle cx="355" cy="0" r="2" />
<circle cx="361" cy="-97" r="2" />
<circle cx="367" cy="0" r="2" />
<circle cx="373" cy="85" r="2" />
<circle cx="379" cy="0" r="2" />
<circle cx="384" cy="-94" r="2" />
<circle cx="390" cy="0" r="2" />
<circle cx="396" cy="104" r="2" />
<circle cx="402" cy="0" r="2" />
<circle cx="408" cy="-101" r="2" />
<circle cx="414" cy="0" r="2" />
<circle cx="420" cy="111" r="2" />
<circle cx="426" cy="0" r="2" />
<circle cx="432" cy="-126" r="2" />
<circle cx="438" cy="0" r="2" />
<circle cx="444" cy="114" r="2" />
<circle cx="449" cy="0" r="2" />
<circle cx="455" cy="-121" r="2" />
<circle cx="461" cy="0" r="2" />
<circle cx="467" cy="130" r="2" />
<circle cx="473" cy="0" r="2" />
<circle cx="479" cy="-140" r="2" />
<circle cx="485" cy="0" r="2" />
<circle cx="491" cy="139" r="2" />
<circle cx="497" cy="0" r="2" />
<circle cx="503" cy="-153" r="2" />
<circle cx="509" cy="0" r="2" />
<circle cx="515" cy="145" r="2" />
<circle cx="520" cy="0" r="2" />
<circle cx="526" cy="-159" r="2" />
<circle cx="532" cy="0" r="2" />
<circle cx="538" cy="166" r="2" />
<circle cx="544" cy="0" r="2" />
<circle cx="550" cy="-166" r="2" />
<circle cx="556" cy="0" r="2" />
<circle cx="562" cy="166" r="2" />
<circle cx="568" cy="0" r="2" />
<circle cx="574" cy="-185" r="2" />
<circle cx="580" cy="0" r="2" />
<circle cx="586" cy="177" r="2" />
<circle cx="591" cy="0" r="2" />
</g>
</svg>