<svg xmlns="http://www.w3.org/2000/svg" width="82.2" height="100.0" viewBox="54.0 22.0 92.2 110.0">
<g fill="none" stroke="black" stroke-width="0.7435%" transform="translate(0, 154.0151) scale(0.6725, -0.6725)">
<circle cx="110.0" cy="150.0" r="0.7" />
<circle cx="105.0" cy="152.5" r="0.7" />
<circle cx="100.7" cy="155.1" r="0.7" />
<circle cx="97.1" cy="157.7" r="0.7" />
<circle cx="94.1" cy="160.3" r="0.7" />
<circle cx="91.7" cy="162.9" r="0.7" />
<circle cx="89.8" cy="165.4" r="0.7" />
<circle cx="88.6" cy="167.9" r="0.7" />
<circle cx="87.9" cy="170.4" r="0.7" />
<circle cx="87.7" cy="172.7" r="0.7" />
<circle cx="87.9" cy="175.0" r="0.7" />
<circle cx="88.7" cy="177.2" r="0.7" />
<circle cx="89.9" cy="179.2" r="0.7" />
<circle cx="91.4" cy="181.1" r="0.7" />
<circle cx="93.4" cy="182.8" r="0.7" />
<circle cx="95.7" cy="184.3" r="0.7" />
<circle cx="98.4" cy="185.7" r="0.7" />
<circle cx="101.4" cy="186.8" r="0.7" />
<circle cx="104.6" cy="187.7" r="0.7" />
<circle cx="108.1" cy="188.3" r="0.7" />
<circle cx="111.9" cy="188.7" r="0.7" />
<circle cx="115.8" cy="188.9" r="0.7" />
<circle cx="120.0" cy="188.7" r="0.7" />
<circle cx="124.3" cy="188.2" r="0.7" />
<circle cx="128.7" cy="187.4" r="0.7" />
<circle cx="133.2" cy="186.2" r="0.7" />
<circle cx="137.8" cy="184.7" r="0.7" />
<circle cx="142.5" cy="182.8" r="0.7" />
<circle cx="147.2" cy="180.5" r="0.7" />
<circle cx="152.0" cy="177.8" r="0.7" />
<circle cx="156.7" cy="174.7" r="0.7" />
<circle cx="161.3" cy="171.1" r="0.7" />
<circle cx="165.9" cy="167.1" r="0.7" />
<circle cx="170.5" cy="162.6" r="0.7" />
<circle cx="174.8" cy="157.6" r="0.7" />
<circle cx="179.1" cy="152.1" r="0.7" />
<circle cx="183.2" cy="146.0" r="0.7" />
<circle cx="187.1" cy="139.4" r="0.7" />
<circle cx="190.7" cy="132.3" r="0.7" />
<circle cx="194.2" cy="124.6" r="0.7" />
<circle cx="197.3" cy="116.3" r="0.7" />
<circle cx="200.2" cy="107.4" r="0.7" />
<circle cx="202.7" cy="97.8" r="0.7" />
<circle cx="205.0" cy="87.6" r="0.7" />
<circle cx="206.8" cy="76.8" r="0.7" />
<circle cx="208.2" cy="65.3" r="0.7" />
<circle cx="209.3" cy="53.1" r="0.7" />
<circle cx="209.9" cy="40.2" r="0.7" />
</g>
</svg>