<svg xmlns="http://www.w3.org/2000/svg" width="200.0" height="100.0" viewBox="-5.000 -5.000 210.000 110.000">
<g fill="none" stroke="black" stroke-width="0.0050%" transform="translate(0, 100.0000) scale(100.0000, -100.0000)">
<line x1="0.000" y1="0.000" x2="0.000" y2="1.000" />
<line x1="0.013" y1="0.000" x2="0.013" y2="1.000" />
<line x1="0.028" y1="0.000" x2="0.028" y2="1.000" />
<line x1="0.044" y1="0.000" x2="0.044" y2="1.000" />
<line x1="0.062" y1="0.000" x2="0.062" y2="1.000" />
<line x1="0.082" y1="0.000" x2="0.082" y2="1.000" />
<line x1="0.103" y1="0.000" x2="0.103" y2="1.000" />
<line x1="0.126" y1="0.000" x2="0.126" y2="1.000" />
<line x1="0.151" y1="0.000" x2="0.151" y2="1.000" />
<line x1="0.176" y1="0.000" x2="0.176" y2="1.000" />
<line x1="0.204" y1="0.000" x2="0.204" y2="1.000" />
<line x1="0.232" y1="0.000" x2="0.232" y2="1.000" />
<line x1="0.262" y1="0.000" x2="0.262" y2="1.000" />
<line x1="0.292" y1="0.000" x2="0.292" y2="1.000" />
<line x1="0.324" y1="0.000" x2="0.324" y2="1.000" />
<line x1="0.357" y1="0.000" x2="0.357" y2="1.000" />
<line x1="0.391" y1="0.000" x2="0.391" y2="1.000" />
<line x1="0.426" y1="0.000" x2="0.426" y2="1.000" />
<line x1="0.462" y1="0.000" x2="0.462" y2="1.000" />
<line x1="0.499" y1="0.000" x2="0.499" y2="1.000" />
<line x1="0.536" y1="0.000" x2="0.536" y2="1.000" />
<line x1="0.574" y1="0.000" x2="0.574" y2="1.000" />
<line x1="0.613" y1="0.000" x2="0.613" y2="1.000" />
<line x1="0.652" y1="0.000" x2="0.652" y2="1.000" />
<line x1="0.692" y1="0.000" x2="0.692" y2="1.000" />
<line x1="0.732" y1="0.000" x2="0.732" y2="1.000" />
<line x1="0.772" y1="0.000" x2="0.772" y2="1.000" />
<line x1="0.813" y1="0.000" x2="0.813" y2="1.000" />
<line x1="0.855" y1="0.000" x2="0.855" y2="1.000" />
<line x1="0.896" y1="0.000" x2="0.896" y2="1.000" />
<line x1="0.938" y1="0.000" x2="0.938" y2="1.000" />
<line x1="0.979" y1="0.000" x2="0.979" y2="1.000" />
<line x1="1.021" y1="0.000" x2="1.021" y2="1.000" />
<line x1="1.062" y1="0.000" x2="1.062" y2="1.000" />
<line x1="1.104" y1="0.000" x2="1.104" y2="1.000" />
<line x1="1.145" y1="0.000" x2="1.145" y2="1.000" />
<line x1="1.187" y1="0.000" x2="1.187" y2="1.000" />
<line x1="1.228" y1="0.000" x2="1.228" y2="1.000" />
<line x1="1.268" y1="0.000" x2="1.268" y2="1.000" />
<line x1="1.308" y1="0.000" x2="1.308" y2="1.000" />
<line x1="1.348" y1="0.000" x2="1.348" y2="1.000" />
<line x1="1.387" y1="0.000" x2="1.387" y2="1.000" />
<line x1="1.426" y1="0.000" x2="1.426" y2="1.000" />
<line x1="1.464" y1="0.000" x2="1.464" y2="1.000" />
<line x1="1.501" y1="0.000" x2="1.501" y2="1.000" />
<line x1="1.538" y1="0.000" x2="1.538" y2="1.000" />
<line x1="1.574" y1="0.000" x2="1.574" y2="1.000" />
<line x1="1.609" y1="0.000" x2="1.609" y2="1.000" />
<line x1="1.643" y1="0.000" x2="1.643" y2="1.000" />
<line x1="1.676" y1="0.000" x2="1.676" y2="1.000" />
<line x1="1.708" y1="0.000" x2="1.708" y2="1.000" />
<line x1="1.738" y1="0.000" x2="1.738" y2="1.000" />
<line x1="1.768" y1="0.000" x2="1.768" y2="1.000" />
<line x1="1.796" y1="0.000" x2="1.796" y2="1.000" />
<line x1="1.824" y1="0.000" x2="1.824" y2="1.000" />
<line x1="1.849" y1="0.000" x2="1.849" y2="1.000" />
<line x1="1.874" y1="0.000" x2="1.874" y2="1.000" />
<line x1="1.897" y1="0.000" x2="1.897" y2="1.000" />
<line x1="1.918" y1="0.000" x2="1.918" y2="1.000" />
<line x1="1.938" y1="0.000" x2="1.938" y2="1.000" />
<line x1="1.956" y1="0.000" x2="1.956" y2="1.000" />
<line x1="1.972" y1="0.000" x2="1.972" y2="1.000" />
<line x1="1.987" y1="0.000" x2="1.987" y2="1.000" />
<line x1="2.000" y1="0.000" x2="2.000" y2="1.000" />
</g>
</svg>