<svg xmlns="http://www.w3.org/2000/svg" width="200.0" height="100.0" viewBox="-5.000 -5.000 210.000 110.000">
<g fill="none" stroke="black" stroke-width="0.0050%" transform="translate(0, 100.0000) scale(100.0000, -100.0000)">
<path d="M 0.000,0.000 Q 1.000,1.000 2.000,0.000" />
<polyline points="0.000,0.000 1.000,1.000 2.000,0.000" />
<circle cx="0.000" cy="0.000" r="0.005" />
<circle cx="1.000" cy="1.000" r="0.005" />
<circle cx="2.000" cy="0.000" r="0.005" />
</g>
</svg>