<svg xmlns="http://www.w3.org/2000/svg" width="87.5" height="100.0" viewBox="7.50 -5.00 97.50 110.00">
<g fill="none" stroke="black" stroke-width="0.0400%" transform="translate(0, 100.0000) scale(12.5000, -12.5000)">
<path d="M 1.00,1.00 C 8.00,7.00 2.00,8.00 6.00,0.00" />
<polyline points="1.00,1.00 8.00,7.00 2.00,8.00 6.00,0.00" />
</g>
</svg>