<svg xmlns="http://www.w3.org/2000/svg" width="161.8" height="100.0" viewBox="-85.90 -5.00 171.80 110.00">
<g fill="none" stroke="black" stroke-width="0.0250%" transform="translate(0, 100.0000) scale(20.0000, -20.0000)">
<circle cx="-4.05" cy="0.00" r="0.03" />
<circle cx="0.00" cy="5.00" r="0.03" />
<polyline points="-4.05,5.00 -3.88,5.00 -3.72,5.00 -3.56,5.00 -3.40,5.00 -3.24,5.00 -3.07,5.00 -2.91,5.00 -2.75,5.00 -2.59,5.00 -2.43,4.00 -2.27,4.00 -2.10,4.00 -1.94,4.00 -1.78,4.00 -1.62,4.00 -1.46,4.00 -1.29,4.00 -1.13,3.00 -0.97,3.00 -0.81,3.00 -0.65,3.00 -0.49,2.00 -0.32,2.00 -0.16,1.00 0.00,0.00 0.16,1.00 0.32,2.00 0.49,2.00 0.65,3.00 0.81,3.00 0.97,3.00 1.13,3.00 1.29,4.00 1.46,4.00 1.62,4.00 1.78,4.00 1.94,4.00 2.10,4.00 2.27,4.00 2.43,4.00 2.59,5.00 2.75,5.00 2.91,5.00 3.07,5.00 3.24,5.00 3.40,5.00 3.56,5.00 3.72,5.00 3.88,5.00 4.05,5.00" />
</g>
</svg>