<svg xmlns="http://www.w3.org/2000/svg" width="161.8" height="100.0" viewBox="-2.4 -2.6 171.8 110.0">
<g fill="none" stroke="black" stroke-width="0.6300%" transform="translate(0, 104.7619) scale(0.7937, -0.7937)">
<polyline points="3.2,3.0 6.5,6.0 9.7,7.0 12.9,12.0 16.2,15.0 19.4,14.0 22.7,15.0 25.9,24.0 29.1,27.0 32.4,30.0 35.6,31.0 38.8,28.0 42.1,31.0 45.3,30.0 48.5,31.0 51.8,48.0 55.0,51.0 58.2,54.0 61.5,55.0 64.7,60.0 68.0,63.0 71.2,62.0 74.4,63.0 77.7,56.0 80.9,59.0 84.1,62.0 87.4,63.0 90.6,60.0 93.8,63.0 97.1,62.0 100.3,63.0 103.6,96.0 106.8,99.0 110.0,102.0 113.3,103.0 116.5,108.0 119.7,111.0 123.0,110.0 126.2,111.0 129.4,120.0 132.7,123.0 135.9,126.0 139.2,127.0 142.4,124.0 145.6,127.0 148.9,126.0 152.1,127.0 155.3,112.0 158.6,115.0 161.8,118.0 165.0,119.0 168.3,124.0 171.5,127.0 174.7,126.0 178.0,127.0 181.2,120.0 184.5,123.0 187.7,126.0 190.9,127.0 194.2,124.0 197.4,127.0 200.6,126.0 203.9,127.0 207.1,129.0" />
</g>
</svg>