<svg
	width="300" height="50"
	viewBox="0 0 300 50"
	xmlns="http://www.w3.org/2000/svg"
	xmlns:xlink="http://www.w3.org/1999/xlink"
>
<defs>
	<linearGradient id="gradient">
		<stop offset="0.000" stop-color="rgb(0,0,0)" />
		<stop offset="0.021" stop-color="rgb(9,3,10)" />
		<stop offset="0.043" stop-color="rgb(17,6,21)" />
		<stop offset="0.064" stop-color="rgb(22,10,33)" />
		<stop offset="0.085" stop-color="rgb(25,16,45)" />
		<stop offset="0.106" stop-color="rgb(26,22,56)" />
		<stop offset="0.128" stop-color="rgb(25,30,66)" />
		<stop offset="0.149" stop-color="rgb(23,39,74)" />
		<stop offset="0.170" stop-color="rgb(20,48,80)" />
		<stop offset="0.191" stop-color="rgb(17,59,83)" />
		<stop offset="0.213" stop-color="rgb(15,69,83)" />
		<stop offset="0.234" stop-color="rgb(13,79,81)" />
		<stop offset="0.255" stop-color="rgb(13,89,77)" />
		<stop offset="0.277" stop-color="rgb(16,98,71)" />
		<stop offset="0.298" stop-color="rgb(21,106,64)" />
		<stop offset="0.319" stop-color="rgb(28,113,56)" />
		<stop offset="0.340" stop-color="rgb(39,118,49)" />
		<stop offset="0.362" stop-color="rgb(52,122,43)" />
		<stop offset="0.383" stop-color="rgb(67,124,38)" />
		<stop offset="0.404" stop-color="rgb(84,125,36)" />
		<stop offset="0.426" stop-color="rgb(102,125,36)" />
		<stop offset="0.447" stop-color="rgb(121,124,39)" />
		<stop offset="0.468" stop-color="rgb(140,123,46)" />
		<stop offset="0.489" stop-color="rgb(158,121,56)" />
		<stop offset="0.511" stop-color="rgb(175,119,69)" />
		<stop offset="0.532" stop-color="rgb(189,118,85)" />
		<stop offset="0.553" stop-color="rgb(202,118,102)" />
		<stop offset="0.574" stop-color="rgb(211,118,122)" />
		<stop offset="0.596" stop-color="rgb(218,120,141)" />
		<stop offset="0.617" stop-color="rgb(221,124,161)" />
		<stop offset="0.638" stop-color="rgb(222,129,180)" />
		<stop offset="0.660" stop-color="rgb(221,136,198)" />
		<stop offset="0.681" stop-color="rgb(218,144,214)" />
		<stop offset="0.702" stop-color="rgb(213,153,227)" />
		<stop offset="0.723" stop-color="rgb(207,163,237)" />
		<stop offset="0.745" stop-color="rgb(202,174,245)" />
		<stop offset="0.766" stop-color="rgb(197,185,249)" />
		<stop offset="0.787" stop-color="rgb(193,195,251)" />
		<stop offset="0.809" stop-color="rgb(191,206,251)" />
		<stop offset="0.830" stop-color="rgb(191,215,249)" />
		<stop offset="0.851" stop-color="rgb(193,224,247)" />
		<stop offset="0.872" stop-color="rgb(197,231,244)" />
		<stop offset="0.894" stop-color="rgb(204,238,241)" />
		<stop offset="0.915" stop-color="rgb(212,243,240)" />
		<stop offset="0.936" stop-color="rgb(222,247,240)" />
		<stop offset="0.957" stop-color="rgb(233,250,243)" />
		<stop offset="0.979" stop-color="rgb(244,253,248)" />
		<stop offset="1.000" stop-color="rgb(255,255,255)" />
	</linearGradient>
</defs>
<rect width="300" height="50" fill="url(#gradient)" />
</svg>