<svg xmlns="http://www.w3.org/2000/svg" width="161.8" height="100.0" viewBox="-5.000 -5.000 171.803 110.000">
<g fill="none" stroke="black" stroke-width="0.0100%" transform="translate(0, 100.0000) scale(50.0000, -50.0000)">
<circle cx="0.000" cy="0.000" r="0.010" />
<circle cx="0.000" cy="2.000" r="0.010" />
<polyline points="0.000,0.000 0.032,0.029 0.065,0.058 0.097,0.085 0.129,0.111 0.162,0.136 0.194,0.159 0.227,0.182 0.259,0.204 0.291,0.225 0.324,0.245 0.356,0.264 0.388,0.282 0.421,0.300 0.453,0.316 0.485,0.332 0.518,0.347 0.550,0.361 0.582,0.375 0.615,0.388 0.647,0.400 0.680,0.412 0.712,0.423 0.744,0.433 0.777,0.444 0.809,0.453 0.841,0.462 0.874,0.471 0.906,0.479 0.938,0.487 0.971,0.495 1.003,0.502 1.036,0.509 1.068,0.516 1.100,0.523 1.133,0.529 1.165,0.536 1.197,0.542 1.230,0.548 1.262,0.554 1.294,0.560 1.327,0.566 1.359,0.572 1.392,0.578 1.424,0.584 1.456,0.591 1.489,0.597 1.521,0.604 1.553,0.611 1.586,0.618 1.618,0.625 1.650,0.633 1.683,0.641 1.715,0.649 1.747,0.658 1.780,0.667 1.812,0.676 1.845,0.687 1.877,0.697 1.909,0.708 1.942,0.720 1.974,0.732 2.006,0.745 2.039,0.759 2.071,0.773 2.103,0.788 2.136,0.804 2.168,0.820 2.201,0.838 2.233,0.856 2.265,0.875 2.298,0.895 2.330,0.916 2.362,0.938 2.395,0.961 2.427,0.984 2.459,1.009 2.492,1.035 2.524,1.062 2.556,1.091 2.589,1.120 2.621,1.151 2.654,1.182 2.686,1.216 2.718,1.250 2.751,1.286 2.783,1.323 2.815,1.361 2.848,1.401 2.880,1.442 2.912,1.485 2.945,1.529 2.977,1.575 3.010,1.622 3.042,1.671 3.074,1.722 3.107,1.774 3.139,1.828 3.171,1.884 3.204,1.941 3.236,2.000" />
</g>
</svg>