<svg xmlns="http://www.w3.org/2000/svg" width="161.8" height="100.0" viewBox="-149.892 -39.684 171.803 110.000">
<g fill="none" stroke="black" stroke-width="0.0144%" transform="translate(0, 30.6315) scale(34.6842, -34.6842)">
<circle cx="-4.177" cy="0.000" r="0.014" />
<circle cx="0.000" cy="1.883" r="0.014" />
<circle cx="0.000" cy="0.000" r="0.014" />
<circle cx="-2.091" cy="-1.000" r="0.014" />
<circle cx="-0.261" cy="1.363" r="0.014" />
<circle cx="-2.275" cy="1.067" r="0.014" />
<circle cx="-3.296" cy="1.502" r="0.014" />
<circle cx="-1.165" cy="1.727" r="0.014" />
<circle cx="-0.640" cy="0.846" r="0.014" />
<circle cx="-4.055" cy="0.665" r="0.014" />
<circle cx="-3.490" cy="0.997" r="0.014" />
<circle cx="-3.224" cy="1.637" r="0.014" />
<circle cx="-0.600" cy="1.513" r="0.014" />
<circle cx="-1.564" cy="1.046" r="0.014" />
<circle cx="-3.483" cy="1.292" r="0.014" />
<circle cx="-2.089" cy="1.883" r="0.014" />
<circle cx="-0.060" cy="0.741" r="0.014" />
<circle cx="-4.174" cy="0.245" r="0.014" />
<circle cx="-2.460" cy="0.135" r="0.014" />
<circle cx="-2.454" cy="-0.254" r="0.014" />
<circle cx="-0.703" cy="-0.124" r="0.014" />
<circle cx="-1.495" cy="-0.738" r="0.014" />
<circle cx="0.091" cy="0.669" r="0.014" />
<circle cx="-4.177" cy="0.026" r="0.014" />
<circle cx="-1.487" cy="-0.035" r="0.014" />
<circle cx="-1.831" cy="-0.550" r="0.014" />
<circle cx="0.028" cy="0.308" r="0.014" />
<circle cx="-3.421" cy="-0.742" r="0.014" />
<circle cx="0.488" cy="1.105" r="0.014" />
<circle cx="-3.375" cy="0.746" r="0.014" />
<circle cx="-3.688" cy="1.107" r="0.014" />
<circle cx="-2.804" cy="1.811" r="0.014" />
<circle cx="-0.096" cy="1.072" r="0.014" />
<circle cx="-3.502" cy="0.889" r="0.014" />
<circle cx="-3.481" cy="1.442" r="0.014" />
<circle cx="-1.393" cy="1.818" r="0.014" />
<circle cx="-0.329" cy="0.710" r="0.014" />
<circle cx="-4.177" cy="0.257" r="0.014" />
<circle cx="-2.505" cy="0.152" r="0.014" />
<circle cx="-2.518" cy="-0.230" r="0.014" />
<circle cx="-0.785" cy="-0.142" r="0.014" />
<circle cx="-1.410" cy="-0.699" r="0.014" />
<circle cx="0.087" cy="0.553" r="0.014" />
<circle cx="-4.068" cy="-0.253" r="0.014" />
<circle cx="-0.279" cy="0.136" r="0.014" />
<circle cx="-2.717" cy="-0.859" r="0.014" />
<circle cx="0.189" cy="1.241" r="0.014" />
<circle cx="-2.828" cy="0.934" r="0.014" />
<circle cx="-3.562" cy="1.413" r="0.014" />
<circle cx="-1.508" cy="1.852" r="0.014" />
<circle cx="-0.223" cy="0.661" r="0.014" />
<circle cx="-4.172" cy="0.105" r="0.014" />
<circle cx="-1.856" cy="-0.005" r="0.014" />
<circle cx="-1.918" cy="-0.455" r="0.014" />
<circle cx="-0.151" cy="0.112" r="0.014" />
<circle cx="-2.610" cy="-0.916" r="0.014" />
<circle cx="0.056" cy="1.335" r="0.014" />
<circle cx="-2.406" cy="0.977" r="0.014" />
<circle cx="-3.544" cy="1.400" r="0.014" />
<circle cx="-1.570" cy="1.858" r="0.014" />
<circle cx="-0.201" cy="0.665" r="0.014" />
<circle cx="-4.174" cy="0.108" r="0.014" />
<circle cx="-1.866" cy="-0.003" r="0.014" />
<circle cx="-1.924" cy="-0.452" r="0.014" />
<circle cx="-0.156" cy="0.108" r="0.014" />
<circle cx="-2.590" cy="-0.917" r="0.014" />
<circle cx="0.049" cy="1.333" r="0.014" />
<circle cx="-2.417" cy="0.980" r="0.014" />
<circle cx="-3.535" cy="1.407" r="0.014" />
<circle cx="-1.541" cy="1.852" r="0.014" />
<circle cx="-0.219" cy="0.671" r="0.014" />
<circle cx="-4.176" cy="0.127" r="0.014" />
<circle cx="-1.953" cy="0.010" r="0.014" />
<circle cx="-1.972" cy="-0.429" r="0.014" />
<circle cx="-0.206" cy="0.072" r="0.014" />
<circle cx="-2.425" cy="-0.921" r="0.014" />
<circle cx="0.007" cy="1.302" r="0.014" />
<circle cx="-2.556" cy="0.998" r="0.014" />
<circle cx="-3.457" cy="1.467" r="0.014" />
<circle cx="-1.285" cy="1.791" r="0.014" />
<circle cx="-0.419" cy="0.741" r="0.014" />
<circle cx="-4.167" cy="0.357" r="0.014" />
<circle cx="-2.870" cy="0.316" r="0.014" />
<circle cx="-3.097" cy="0.059" r="0.014" />
<circle cx="-1.955" cy="-0.169" r="0.014" />
<circle cx="-1.151" cy="-0.346" r="0.014" />
<circle cx="-0.571" cy="-0.318" r="0.014" />
<circle cx="-0.711" cy="-0.540" r="0.014" />
<circle cx="-0.112" cy="-0.036" r="0.014" />
<circle cx="-1.922" cy="-0.961" r="0.014" />
<circle cx="-0.184" cy="1.255" r="0.014" />
<circle cx="-2.768" cy="1.053" r="0.014" />
<circle cx="-3.237" cy="1.593" r="0.014" />
<circle cx="-0.780" cy="1.591" r="0.014" />
<circle cx="-1.208" cy="0.989" r="0.014" />
<circle cx="-3.698" cy="1.107" r="0.014" />
<circle cx="-2.801" cy="1.812" r="0.014" />
<circle cx="-0.093" cy="1.068" r="0.014" />
<circle cx="-3.514" cy="0.884" r="0.014" />
<circle cx="-3.488" cy="1.433" r="0.014" />
<circle cx="-1.433" cy="1.826" r="0.014" />
<circle cx="-0.301" cy="0.702" r="0.014" />
</g>
</svg>