<svg xmlns="http://www.w3.org/2000/svg" width="161.8" height="100.0" viewBox="-3 -5 172 110">
<g fill="none" stroke="black" stroke-width="6.2500%" transform="translate(0, 100.1600) scale(0.0800, -0.0800)">
<polyline points="20,1 41,3 61,5 82,9 102,11 123,15 143,19 163,27 184,29 204,33 225,37 245,45 266,49 286,57 306,65 327,81 347,83 368,87 388,91 409,99 429,103 449,111 470,119 490,135 511,139 531,147 552,155 572,171 592,179 613,195 633,211 654,243 674,245 695,249 715,253 735,261 756,265 776,273 797,281 817,297 838,301 858,309 878,317 899,333 919,341 940,357 960,373 981,405 1001,409 1021,417 1042,425 1062,441 1083,449 1103,465 1124,481 1144,513 1164,521 1185,537 1205,553 1226,585 1246,601 1267,633 1287,665 1308,729 1328,731 1348,735 1369,739 1389,747 1410,751 1430,759 1451,767 1471,783 1491,787 1512,795 1532,803 1553,819 1573,827 1594,843 1614,859 1634,891 1655,895 1675,903 1696,911 1716,927 1737,935 1757,951 1777,967 1798,999 1818,1007 1839,1023 1859,1039 1880,1071 1900,1087 1920,1119 1941,1151 1961,1215 1982,1219 2002,1227 2023,1235 2043,1251" />
</g>
</svg>