<svg xmlns="http://www.w3.org/2000/svg" width="161.8" height="100.0" viewBox="-2.004 5.267 171.803 110.000">
<g fill="none" stroke="black" stroke-width="0.0045%" transform="translate(0, 120.5338) scale(110.2669, -110.2669)">
<polyline points="0.027,1.000 0.054,0.585 0.082,0.415 0.109,0.322 0.136,0.263 0.163,0.415 0.190,0.170 0.217,0.152 0.245,0.263 0.272,0.322 0.299,0.093 0.326,0.170 0.353,0.152 0.380,0.263 0.408,0.170 0.435,0.152 0.462,0.093 0.489,0.170 0.516,0.152 0.543,0.170 0.571,0.093 0.598,0.170 0.625,0.152 0.652,0.093 0.679,0.170 0.707,0.152 0.734,0.170 0.761,0.093 0.788,0.170 0.815,0.152 0.842,0.170 0.870,0.093 0.897,0.152 0.924,0.170 0.951,0.093 0.978,0.170 1.005,0.152 1.033,0.170 1.060,0.093 1.087,0.152 1.114,0.170 1.141,0.263 1.168,0.152 1.196,0.170 1.223,0.093 1.250,0.322 1.277,0.263 1.304,0.152 1.332,0.170 1.359,0.415 1.386,0.263 1.413,0.322 1.440,0.415 1.467,0.585 1.495,1.000" />
</g>
</svg>