<svg xmlns="http://www.w3.org/2000/svg" width="161.8" height="100.0" viewBox="-86.064 -54.649 171.803 110.000">
<g fill="none" stroke="black" stroke-width="0.0077%" transform="translate(0, 0.7027) scale(64.8861, -64.8861)">
<circle cx="-1.249" cy="0.000" r="0.008" />
<circle cx="0.000" cy="0.776" r="0.008" />
<polyline points="0.866,0.000 0.868,0.036 0.872,0.070 0.880,0.101 0.890,0.127 0.902,0.147 0.915,0.161 0.929,0.168 0.944,0.168 0.958,0.160 0.971,0.144 0.983,0.120 0.992,0.090 0.998,0.054 1.001,0.012 1.000,-0.032 0.996,-0.079 0.987,-0.126 0.974,-0.172 0.957,-0.216 0.936,-0.256 0.913,-0.291 0.886,-0.322 0.857,-0.346 0.826,-0.365 0.794,-0.379 0.761,-0.387 0.727,-0.389 0.693,-0.387 0.660,-0.381 0.628,-0.371 0.596,-0.356 0.566,-0.339 0.537,-0.318 0.511,-0.294 0.487,-0.267 0.465,-0.237 0.446,-0.205 0.429,-0.169 0.416,-0.131 0.407,-0.090 0.401,-0.046 0.399,0.001 0.401,0.050 0.408,0.102 0.419,0.157 0.435,0.214 0.456,0.273 0.482,0.333 0.514,0.393 0.550,0.454 0.592,0.513 0.639,0.568 0.690,0.619 0.746,0.662 0.805,0.695 0.866,0.715 0.928,0.718 0.990,0.702 1.049,0.663 1.104,0.600 1.153,0.513 1.192,0.403 1.222,0.274 1.239,0.131 1.244,-0.018 1.236,-0.167 1.216,-0.307 1.184,-0.433 1.141,-0.539 1.091,-0.624 1.034,-0.688 0.972,-0.731 0.908,-0.755 0.842,-0.765 0.775,-0.763 0.710,-0.752 0.645,-0.736 0.582,-0.715 0.521,-0.693 0.462,-0.671 0.405,-0.650 0.350,-0.630 0.296,-0.612 0.244,-0.597 0.193,-0.583 0.142,-0.572 0.093,-0.563 0.045,-0.556 -0.003,-0.551 -0.051,-0.547 -0.098,-0.544 -0.145,-0.542 -0.192,-0.540 -0.239,-0.539 -0.285,-0.538 -0.332,-0.537 -0.378,-0.534 -0.424,-0.531 -0.470,-0.525 -0.515,-0.518 -0.560,-0.509 -0.603,-0.496 -0.646,-0.480 -0.686,-0.461 -0.725,-0.438 -0.762,-0.411 -0.796,-0.380 -0.828,-0.345 -0.856,-0.308 -0.881,-0.267 -0.902,-0.225 -0.920,-0.182 -0.934,-0.140 -0.944,-0.099 -0.951,-0.061 -0.955,-0.026 -0.956,0.004 -0.954,0.029 -0.951,0.048 -0.946,0.060 -0.941,0.067 -0.935,0.068 -0.929,0.063 -0.924,0.053 -0.920,0.040 -0.917,0.022 -0.916,0.003 -0.917,-0.018 -0.919,-0.040 -0.924,-0.061 -0.930,-0.080 -0.938,-0.097 -0.947,-0.110 -0.957,-0.119 -0.967,-0.123 -0.978,-0.122 -0.988,-0.115 -0.998,-0.101 -1.006,-0.082 -1.012,-0.058 -1.015,-0.028 -1.016,0.005 -1.014,0.042 -1.009,0.081 -1.000,0.120 -0.988,0.159 -0.973,0.197 -0.954,0.232 -0.933,0.264 -0.909,0.292 -0.882,0.316 -0.854,0.336 -0.824,0.351 -0.793,0.362 -0.762,0.369 -0.729,0.372 -0.697,0.371 -0.665,0.367 -0.634,0.360 -0.603,0.349 -0.573,0.337 -0.545,0.321 -0.518,0.303 -0.492,0.282 -0.469,0.259 -0.448,0.233 -0.429,0.205 -0.412,0.173 -0.399,0.139 -0.388,0.103 -0.381,0.063 -0.377,0.021 -0.378,-0.025 -0.382,-0.073 -0.390,-0.124 -0.403,-0.178 -0.421,-0.234 -0.444,-0.292 -0.472,-0.352 -0.505,-0.412 -0.543,-0.472 -0.587,-0.530 -0.635,-0.586 -0.688,-0.636 -0.745,-0.679 -0.805,-0.712 -0.868,-0.731 -0.931,-0.733 -0.994,-0.714 -1.055,-0.673 -1.110,-0.607 -1.159,-0.517 -1.199,-0.403 -1.228,-0.269 -1.245,-0.123 -1.249,0.030 -1.240,0.181 -1.218,0.323 -1.185,0.450 -1.141,0.556 -1.089,0.641 -1.030,0.703 -0.968,0.745 -0.902,0.768 -0.835,0.776 -0.768,0.772 -0.701,0.760 -0.636,0.743 -0.573,0.722 -0.511,0.700 -0.452,0.677 -0.394,0.656 -0.338,0.636 -0.284,0.619 -0.231,0.604 -0.179,0.591 -0.128,0.581 -0.078,0.573 -0.029,0.567 0.020,0.563 0.069,0.560 0.117,0.558 0.166,0.558 0.214,0.557 0.262,0.557 0.310,0.557 0.359,0.556 0.407,0.555 0.455,0.551 0.502,0.545" />
</g>
</svg>