<svg xmlns="http://www.w3.org/2000/svg" width="102.1" height="100.0" viewBox="-4.0 -4.0 112.1 110.0">
<g fill="none" stroke="black" stroke-width="0.4800%" transform="translate(0, 102.0833) scale(1.0417, -1.0417)">
<polyline points="1.0,1.0 2.0,2.0 3.0,3.0 4.0,3.0 5.0,5.0 6.0,4.0 7.0,7.0 8.0,4.0 9.0,5.0 10.0,6.0 11.0,11.0 12.0,5.0 13.0,13.0 14.0,8.0 15.0,7.0 16.0,5.0 17.0,17.0 18.0,6.0 19.0,19.0 20.0,7.0 21.0,9.0 22.0,12.0 23.0,23.0 24.0,6.0 25.0,9.0 26.0,14.0 27.0,7.0 28.0,9.0 29.0,29.0 30.0,8.0 31.0,31.0 32.0,6.0 33.0,13.0 34.0,18.0 35.0,11.0 36.0,7.0 37.0,37.0 38.0,20.0 39.0,15.0 40.0,8.0 41.0,41.0 42.0,10.0 43.0,43.0 44.0,13.0 45.0,9.0 46.0,24.0 47.0,47.0 48.0,7.0 49.0,13.0 50.0,10.0 51.0,19.0 52.0,15.0 53.0,53.0 54.0,8.0 55.0,15.0 56.0,10.0 57.0,21.0 58.0,30.0 59.0,59.0 60.0,9.0 61.0,61.0 62.0,32.0 63.0,11.0 64.0,7.0 65.0,17.0 66.0,14.0 67.0,67.0 68.0,19.0 69.0,25.0 70.0,12.0 71.0,71.0 72.0,8.0 73.0,73.0 74.0,38.0 75.0,11.0 76.0,21.0 77.0,17.0 78.0,16.0 79.0,79.0 80.0,9.0 81.0,9.0 82.0,42.0 83.0,83.0 84.0,11.0 85.0,21.0 86.0,44.0 87.0,31.0 88.0,14.0 89.0,89.0 90.0,10.0 91.0,19.0 92.0,25.0 93.0,33.0 94.0,48.0 95.0,23.0 96.0,8.0 97.0,97.0 98.0,14.0 99.0,15.0" />
</g>
</svg>