<svg xmlns="http://www.w3.org/2000/svg" width="161.8" height="100.0" viewBox="-5.00 -4.98 171.80 110.00">
<g fill="none" stroke="black" stroke-width="0.0264%" transform="translate(0, 100.0363) scale(18.9509, -18.9509)">
<circle cx="0.00" cy="5.28" r="0.03" />
<polyline points="0.00,1.00 0.09,1.23 0.17,1.47 0.26,1.73 0.34,2.00 0.43,2.28 0.51,2.57 0.60,2.86 0.68,3.14 0.77,3.42 0.85,3.69 0.94,3.95 1.02,4.19 1.11,4.41 1.20,4.61 1.28,4.78 1.37,4.93 1.45,5.06 1.54,5.15 1.62,5.22 1.71,5.26 1.79,5.28 1.88,5.27 1.96,5.23 2.05,5.17 2.13,5.09 2.22,4.98 2.31,4.86 2.39,4.72 2.48,4.57 2.56,4.41 2.65,4.24 2.73,4.06 2.82,3.87 2.90,3.68 2.99,3.49 3.07,3.30 3.16,3.11 3.24,2.92 3.33,2.73 3.42,2.55 3.50,2.37 3.59,2.20 3.67,2.04 3.76,1.88 3.84,1.74 3.93,1.59 4.01,1.46 4.10,1.34 4.18,1.22 4.27,1.11 4.35,1.01 4.44,0.91 4.53,0.82 4.61,0.74 4.70,0.67 4.78,0.60 4.87,0.54 4.95,0.48 5.04,0.43 5.12,0.38 5.21,0.34 5.29,0.30 5.38,0.27 5.46,0.24 5.55,0.21 5.64,0.18 5.72,0.16 5.81,0.14 5.89,0.12 5.98,0.11 6.06,0.09 6.15,0.08 6.23,0.07 6.32,0.06 6.40,0.05 6.49,0.05 6.57,0.04 6.66,0.03 6.75,0.03 6.83,0.03 6.92,0.02 7.00,0.02 7.09,0.02 7.17,0.01 7.26,0.01 7.34,0.01 7.43,0.01 7.51,0.01 7.60,0.01 7.68,0.01 7.77,0.00 7.85,0.00 7.94,0.00 8.03,0.00 8.11,0.00 8.20,0.00 8.28,0.00 8.37,0.00 8.45,0.00 8.54,0.00" />
</g>
</svg>