<svg xmlns="http://www.w3.org/2000/svg" width="105.7" height="100.0" viewBox="-58.890 -55.000 115.665 110.000">
<g fill="none" stroke="black" stroke-width="0.0101%" transform="translate(0, -0.0000) scale(49.6987, -49.6987)">
<polyline points="0.000,1.000 0.026,0.997 0.035,0.989 0.022,0.977 -0.013,0.962 -0.068,0.949 -0.135,0.938 -0.205,0.932 -0.264,0.932 -0.303,0.939 -0.309,0.951 -0.277,0.967 -0.204,0.984 -0.094,0.998 0.044,1.006 0.197,1.005 0.347,0.991 0.478,0.964 0.570,0.923 0.610,0.871 0.588,0.809 0.501,0.743 0.353,0.677 0.157,0.616 -0.070,0.566 -0.306,0.530 -0.525,0.511 -0.704,0.510 -0.819,0.524 -0.857,0.552 -0.809,0.588 -0.676,0.626 -0.468,0.660 -0.204,0.683 0.090,0.690 0.386,0.677 0.652,0.641 0.861,0.583 0.989,0.505 1.021,0.411 0.951,0.309 0.785,0.205 0.537,0.106 0.232,0.021 -0.101,-0.046 -0.428,-0.090 -0.715,-0.111 -0.934,-0.107 -1.061,-0.084 -1.084,-0.046 -1.000,0.000 -0.817,0.046 -0.553,0.084 -0.236,0.107 0.102,0.111 0.428,0.090 0.708,0.046 0.916,-0.021 1.030,-0.106 1.042,-0.205 0.951,-0.309 0.769,-0.411 0.516,-0.505 0.218,-0.583 -0.093,-0.641 -0.386,-0.677 -0.632,-0.690 -0.807,-0.683 -0.898,-0.660 -0.897,-0.626 -0.809,-0.588 -0.646,-0.552 -0.427,-0.524 -0.178,-0.510 0.075,-0.511 0.306,-0.530 0.493,-0.566 0.620,-0.616 0.678,-0.677 0.665,-0.743 0.588,-0.809 0.459,-0.871 0.297,-0.923 0.121,-0.964 -0.050,-0.991 -0.197,-1.005 -0.307,-1.006 -0.373,-0.998 -0.392,-0.984 -0.367,-0.967 -0.309,-0.951 -0.228,-0.939 -0.138,-0.932 -0.052,-0.932 0.019,-0.938 0.068,-0.949 0.090,-0.962 0.088,-0.977 0.067,-0.989 0.034,-0.997" />
</g>
</svg>