<svg xmlns="http://www.w3.org/2000/svg" width="161.8" height="100.0" viewBox="-5.000 -55.000 171.803 110.000">
<g fill="none" stroke="black" stroke-width="0.0100%" transform="translate(0, 0.0000) scale(50.0933, -50.0933)">
<circle cx="0.000" cy="0.000" r="0.010" />
<circle cx="0.000" cy="0.998" r="0.010" />
<polyline points="0.000,0.000 0.033,0.809 0.065,0.953 0.098,0.325 0.131,-0.555 0.163,-0.997 0.196,-0.690 0.228,0.103 0.261,0.809 0.294,0.983 0.326,0.571 0.359,-0.136 0.392,-0.747 0.424,-0.998 0.457,-0.846 0.489,-0.418 0.522,0.098 0.555,0.547 0.587,0.845 0.620,0.982 0.653,0.992 0.685,0.924 0.718,0.827 0.750,0.735 0.783,0.672 0.816,0.650 0.848,0.672 0.881,0.735 0.914,0.827 0.946,0.924 0.979,0.992 1.011,0.982 1.044,0.845 1.077,0.547 1.109,0.098 1.142,-0.418 1.175,-0.846 1.207,-0.998 1.240,-0.747 1.272,-0.136 1.305,0.571 1.338,0.983 1.370,0.809 1.403,0.103 1.436,-0.690 1.468,-0.997 1.501,-0.555 1.533,0.325 1.566,0.953 1.599,0.809 1.631,-0.000 1.664,-0.809 1.697,-0.953 1.729,-0.325 1.762,0.555 1.794,0.997 1.827,0.690 1.860,-0.103 1.892,-0.809 1.925,-0.983 1.958,-0.571 1.990,0.136 2.023,0.747 2.055,0.998 2.088,0.846 2.121,0.418 2.153,-0.098 2.186,-0.547 2.219,-0.845 2.251,-0.982 2.284,-0.992 2.316,-0.924 2.349,-0.827 2.382,-0.735 2.414,-0.672 2.447,-0.650 2.480,-0.672 2.512,-0.735 2.545,-0.827 2.578,-0.924 2.610,-0.992 2.643,-0.982 2.675,-0.845 2.708,-0.547 2.741,-0.098 2.773,0.418 2.806,0.846 2.839,0.998 2.871,0.747 2.904,0.136 2.936,-0.571 2.969,-0.983 3.002,-0.809 3.034,-0.103 3.067,0.690 3.100,0.997 3.132,0.555 3.165,-0.325 3.197,-0.953 3.230,-0.809" />
</g>
</svg>