<svg xmlns="http://www.w3.org/2000/svg" width="161.8" height="100.0" viewBox="-85.902 -5.000 171.803 110.000">
<g fill="none" stroke="black" stroke-width="0.0050%" transform="translate(0, 100.0000) scale(100.0000, -100.0000)">
<circle cx="-0.809" cy="0.000" r="0.005" />
<circle cx="0.000" cy="1.000" r="0.005" />
<polyline points="-0.809,0.000 -0.793,0.000 -0.777,0.000 -0.760,0.000 -0.744,0.000 -0.728,0.000 -0.712,0.000 -0.696,0.000 -0.680,0.000 -0.663,0.000 -0.647,0.000 -0.631,0.000 -0.615,0.000 -0.599,0.000 -0.582,0.000 -0.566,0.000 -0.550,0.000 -0.534,0.000 -0.518,0.000 -0.502,0.000 -0.485,0.000 -0.469,0.000 -0.453,0.000 -0.437,0.000 -0.421,0.000 -0.405,0.249 -0.388,0.278 -0.372,0.309 -0.356,0.341 -0.340,0.375 -0.324,0.411 -0.307,0.448 -0.291,0.487 -0.275,0.526 -0.259,0.566 -0.243,0.607 -0.227,0.647 -0.210,0.687 -0.194,0.726 -0.178,0.764 -0.162,0.801 -0.146,0.835 -0.129,0.867 -0.113,0.897 -0.097,0.923 -0.081,0.946 -0.065,0.965 -0.049,0.980 -0.032,0.991 -0.016,0.998 0.000,1.000 0.016,0.998 0.032,0.991 0.049,0.980 0.065,0.965 0.081,0.946 0.097,0.923 0.113,0.897 0.129,0.867 0.146,0.835 0.162,0.801 0.178,0.764 0.194,0.726 0.210,0.687 0.227,0.647 0.243,0.607 0.259,0.566 0.275,0.526 0.291,0.487 0.307,0.448 0.324,0.411 0.340,0.375 0.356,0.341 0.372,0.309 0.388,0.278 0.405,0.000 0.421,0.000 0.437,0.000 0.453,0.000 0.469,0.000 0.485,0.000 0.502,0.000 0.518,0.000 0.534,0.000 0.550,0.000 0.566,0.000 0.582,0.000 0.599,0.000 0.615,0.000 0.631,0.000 0.647,0.000 0.663,0.000 0.680,0.000 0.696,0.000 0.712,0.000 0.728,0.000 0.744,0.000 0.760,0.000 0.777,0.000 0.793,0.000 0.809,0.000" />
</g>
</svg>