<svg xmlns="http://www.w3.org/2000/svg" width="100.0" height="100.0" viewBox="-55.000 -55.000 110.000 110.000">
<g fill="none" stroke="black" stroke-width="0.0100%" transform="translate(0, 0.0000) scale(50.0000, -50.0000)">
<circle cx="-1.000" cy="0.000" r="0.010" />
<circle cx="0.000" cy="1.000" r="0.010" />
<polyline points="-1.000,-1.000 -0.980,-0.825 -0.960,-0.659 -0.940,-0.502 -0.920,-0.355 -0.900,-0.216 -0.880,-0.086 -0.860,0.036 -0.840,0.149 -0.820,0.255 -0.800,0.352 -0.780,0.442 -0.760,0.524 -0.740,0.599 -0.720,0.667 -0.700,0.728 -0.680,0.782 -0.660,0.830 -0.640,0.871 -0.620,0.907 -0.600,0.936 -0.580,0.960 -0.560,0.978 -0.540,0.990 -0.520,0.998 -0.500,1.000 -0.480,0.998 -0.460,0.991 -0.440,0.979 -0.420,0.964 -0.400,0.944 -0.380,0.921 -0.360,0.893 -0.340,0.863 -0.320,0.829 -0.300,0.792 -0.280,0.752 -0.260,0.710 -0.240,0.665 -0.220,0.617 -0.200,0.568 -0.180,0.517 -0.160,0.464 -0.140,0.409 -0.120,0.353 -0.100,0.296 -0.080,0.238 -0.060,0.179 -0.040,0.120 -0.020,0.060 0.000,-0.000 0.020,-0.060 0.040,-0.120 0.060,-0.179 0.080,-0.238 0.100,-0.296 0.120,-0.353 0.140,-0.409 0.160,-0.464 0.180,-0.517 0.200,-0.568 0.220,-0.617 0.240,-0.665 0.260,-0.710 0.280,-0.752 0.300,-0.792 0.320,-0.829 0.340,-0.863 0.360,-0.893 0.380,-0.921 0.400,-0.944 0.420,-0.964 0.440,-0.979 0.460,-0.991 0.480,-0.998 0.500,-1.000 0.520,-0.998 0.540,-0.990 0.560,-0.978 0.580,-0.960 0.600,-0.936 0.620,-0.907 0.640,-0.871 0.660,-0.830 0.680,-0.782 0.700,-0.728 0.720,-0.667 0.740,-0.599 0.760,-0.524 0.780,-0.442 0.800,-0.352 0.820,-0.255 0.840,-0.149 0.860,-0.036 0.880,0.086 0.900,0.216 0.920,0.355 0.940,0.502 0.960,0.659 0.980,0.825 1.000,1.000" />
</g>
</svg>