<svg xmlns="http://www.w3.org/2000/svg" width="161.8" height="100.0" viewBox="-3.726 -55.000 171.803 110.000">
<g fill="none" stroke="black" stroke-width="0.0100%" transform="translate(0, -0.0000) scale(50.0000, -50.0000)">
<circle cx="0.025" cy="0.000" r="0.010" />
<polyline points="0.025,0.000 0.051,0.033 0.076,0.060 0.102,0.073 0.127,0.069 0.153,0.048 0.178,0.011 0.204,-0.036 0.229,-0.088 0.255,-0.140 0.280,-0.184 0.306,-0.219 0.331,-0.244 0.357,-0.261 0.382,-0.274 0.408,-0.290 0.433,-0.314 0.459,-0.351 0.484,-0.404 0.510,-0.474 0.535,-0.556 0.561,-0.647 0.586,-0.739 0.612,-0.824 0.637,-0.895 0.663,-0.949 0.688,-0.984 0.713,-0.999 0.739,-1.000 0.764,-0.991 0.790,-0.979 0.815,-0.969 0.841,-0.965 0.866,-0.969 0.892,-0.979 0.917,-0.991 0.943,-1.000 0.968,-0.999 0.994,-0.984 1.019,-0.949 1.045,-0.895 1.070,-0.824 1.096,-0.739 1.121,-0.647 1.147,-0.556 1.172,-0.474 1.198,-0.404 1.223,-0.351 1.249,-0.314 1.274,-0.290 1.300,-0.274 1.325,-0.261 1.350,-0.244 1.376,-0.219 1.401,-0.184 1.427,-0.140 1.452,-0.088 1.478,-0.036 1.503,0.011 1.529,0.048 1.554,0.069 1.580,0.073 1.605,0.060 1.631,0.033 1.656,-0.000 1.682,-0.033 1.707,-0.060 1.733,-0.073 1.758,-0.069 1.784,-0.048 1.809,-0.011 1.835,0.036 1.860,0.088 1.886,0.140 1.911,0.184 1.937,0.219 1.962,0.244 1.988,0.261 2.013,0.274 2.038,0.290 2.064,0.314 2.089,0.351 2.115,0.404 2.140,0.474 2.166,0.556 2.191,0.647 2.217,0.739 2.242,0.824 2.268,0.895 2.293,0.949 2.319,0.984 2.344,0.999 2.370,1.000 2.395,0.991 2.421,0.979 2.446,0.969 2.472,0.965 2.497,0.969 2.523,0.979 2.548,0.991 2.574,1.000 2.599,0.999 2.625,0.984 2.650,0.949 2.675,0.895 2.701,0.824 2.726,0.739 2.752,0.647 2.777,0.556 2.803,0.474 2.828,0.404 2.854,0.351 2.879,0.314 2.905,0.290 2.930,0.274 2.956,0.261 2.981,0.244 3.007,0.219 3.032,0.184 3.058,0.140 3.083,0.088 3.109,0.036 3.134,-0.011 3.160,-0.048 3.185,-0.069 3.211,-0.073 3.236,-0.060 3.262,-0.033" />
</g>
</svg>