<?xml version="1.0" encoding="UTF-8" standalone="no"?>
<!DOCTYPE svg PUBLIC "-//W3C//DTD SVG 1.1//EN"
 "http://www.w3.org/Graphics/SVG/1.1/DTD/svg11.dtd">
<!-- Generated by graphviz version 12.0.0 (0)
 -->
<!-- Pages: 1 -->
<svg width="50pt" height="54pt"
 viewBox="0.00 0.00 49.87 54.00" xmlns="http://www.w3.org/2000/svg" xmlns:xlink="http://www.w3.org/1999/xlink">
<g id="graph0" class="graph" transform="scale(0.0927747 0.0927747) rotate(0) translate(4 578.06)">
<!-- 1 -->
<g id="node1" class="node">
<title>1</title>
<ellipse fill="black" stroke="black" cx="320.57" cy="-385.02" rx="1.8" ry="1.8"/>
</g>
<!-- 13 -->
<g id="node2" class="node">
<title>13</title>
<ellipse fill="black" stroke="black" cx="387.48" cy="-328.71" rx="1.8" ry="1.8"/>
</g>
<!-- 1&#45;&#45;13 -->
<g id="edge1" class="edge">
<title>1&#45;&#45;13</title>
<path fill="none" stroke="black" stroke-width="0.75" d="M322.22,-383.63C331.56,-375.77 377.57,-337.06 386.11,-329.86"/>
</g>
<!-- 16 -->
<g id="node3" class="node">
<title>16</title>
<ellipse fill="black" stroke="black" cx="355.57" cy="-312.66" rx="1.8" ry="1.8"/>
</g>
<!-- 1&#45;&#45;16 -->
<g id="edge2" class="edge">
<title>1&#45;&#45;16</title>
<path fill="none" stroke="black" stroke-width="0.75" d="M321.43,-383.24C326.23,-373.31 349.56,-325.08 354.61,-314.65"/>
</g>
<!-- 37 -->
<g id="node4" class="node">
<title>37</title>
<ellipse fill="black" stroke="black" cx="348.4" cy="-450.93" rx="1.8" ry="1.8"/>
</g>
<!-- 1&#45;&#45;37 -->
<g id="edge3" class="edge">
<title>1&#45;&#45;37</title>
<path fill="none" stroke="black" stroke-width="0.75" d="M321.37,-386.93C325.43,-396.55 343.7,-439.8 347.64,-449.14"/>
</g>
<!-- 40 -->
<g id="node5" class="node">
<title>40</title>
<ellipse fill="black" stroke="black" cx="283.39" cy="-426.04" rx="1.8" ry="1.8"/>
</g>
<!-- 1&#45;&#45;40 -->
<g id="edge4" class="edge">
<title>1&#45;&#45;40</title>
<path fill="none" stroke="black" stroke-width="0.75" d="M319.33,-386.39C313.68,-392.62 290.4,-418.31 284.67,-424.63"/>
</g>
<!-- 52 -->
<g id="node6" class="node">
<title>52</title>
<ellipse fill="black" stroke="black" cx="233.57" cy="-427.3" rx="1.8" ry="1.8"/>
</g>
<!-- 1&#45;&#45;52 -->
<g id="edge5" class="edge">
<title>1&#45;&#45;52</title>
<path fill="none" stroke="black" stroke-width="0.75" d="M318.75,-385.91C307.43,-391.41 246.67,-420.94 235.37,-426.43"/>
</g>
<!-- 15 -->
<g id="node27" class="node">
<title>15</title>
<ellipse fill="black" stroke="black" cx="442.98" cy="-333.32" rx="1.8" ry="1.8"/>
</g>
<!-- 13&#45;&#45;15 -->
<g id="edge45" class="edge">
<title>13&#45;&#45;15</title>
<path fill="none" stroke="black" stroke-width="0.75" d="M389.32,-328.87C397.68,-329.56 431.89,-332.4 440.84,-333.15"/>
</g>
<!-- 39 -->
<g id="node48" class="node">
<title>39</title>
<ellipse fill="black" stroke="black" cx="302.91" cy="-514.77" rx="1.8" ry="1.8"/>
</g>
<!-- 37&#45;&#45;39 -->
<g id="edge103" class="edge">
<title>37&#45;&#45;39</title>
<path fill="none" stroke="black" stroke-width="0.75" d="M347.08,-452.77C340.44,-462.09 310.59,-503.99 304.14,-513.05"/>
</g>
<!-- 2 -->
<g id="node7" class="node">
<title>2</title>
<ellipse fill="black" stroke="black" cx="235.57" cy="-241.52" rx="1.8" ry="1.8"/>
</g>
<!-- 11 -->
<g id="node8" class="node">
<title>11</title>
<ellipse fill="black" stroke="black" cx="337.35" cy="-250.7" rx="1.8" ry="1.8"/>
</g>
<!-- 2&#45;&#45;11 -->
<g id="edge6" class="edge">
<title>2&#45;&#45;11</title>
<path fill="none" stroke="black" stroke-width="0.75" d="M237.69,-241.71C250.94,-242.91 322.02,-249.32 335.24,-250.51"/>
</g>
<!-- 23 -->
<g id="node9" class="node">
<title>23</title>
<ellipse fill="black" stroke="black" cx="273.12" cy="-166.92" rx="1.8" ry="1.8"/>
</g>
<!-- 2&#45;&#45;23 -->
<g id="edge7" class="edge">
<title>2&#45;&#45;23</title>
<path fill="none" stroke="black" stroke-width="0.75" d="M236.5,-239.68C241.65,-229.45 266.68,-179.73 272.09,-168.98"/>
</g>
<!-- 47 -->
<g id="node10" class="node">
<title>47</title>
<ellipse fill="black" stroke="black" cx="170.59" cy="-350.49" rx="1.8" ry="1.8"/>
</g>
<!-- 2&#45;&#45;47 -->
<g id="edge8" class="edge">
<title>2&#45;&#45;47</title>
<path fill="none" stroke="black" stroke-width="0.75" d="M234.44,-243.41C226.55,-256.64 179.74,-335.15 171.75,-348.55"/>
</g>
<!-- 71 -->
<g id="node11" class="node">
<title>71</title>
<ellipse fill="black" stroke="black" cx="170.75" cy="-157.49" rx="1.8" ry="1.8"/>
</g>
<!-- 2&#45;&#45;71 -->
<g id="edge9" class="edge">
<title>2&#45;&#45;71</title>
<path fill="none" stroke="black" stroke-width="0.75" d="M234.21,-239.77C225.78,-228.83 180.51,-170.15 172.1,-159.24"/>
</g>
<!-- 76 -->
<g id="node12" class="node">
<title>76</title>
<ellipse fill="black" stroke="black" cx="170.52" cy="-250.46" rx="1.8" ry="1.8"/>
</g>
<!-- 2&#45;&#45;76 -->
<g id="edge10" class="edge">
<title>2&#45;&#45;76</title>
<path fill="none" stroke="black" stroke-width="0.75" d="M233.4,-241.82C223.53,-243.18 182.79,-248.78 172.76,-250.16"/>
</g>
<!-- 11&#45;&#45;13 -->
<g id="edge42" class="edge">
<title>11&#45;&#45;13</title>
<path fill="none" stroke="black" stroke-width="0.75" d="M338.59,-252.63C345.52,-263.42 379.46,-316.24 386.28,-326.85"/>
</g>
<!-- 12 -->
<g id="node28" class="node">
<title>12</title>
<ellipse fill="black" stroke="black" cx="392.2" cy="-245.27" rx="1.8" ry="1.8"/>
</g>
<!-- 11&#45;&#45;12 -->
<g id="edge41" class="edge">
<title>11&#45;&#45;12</title>
<path fill="none" stroke="black" stroke-width="0.75" d="M339.18,-250.52C347.43,-249.7 381.24,-246.35 390.08,-245.48"/>
</g>
<!-- 25 -->
<g id="node14" class="node">
<title>25</title>
<ellipse fill="black" stroke="black" cx="314.68" cy="-192.09" rx="1.8" ry="1.8"/>
</g>
<!-- 23&#45;&#45;25 -->
<g id="edge70" class="edge">
<title>23&#45;&#45;25</title>
<path fill="none" stroke="black" stroke-width="0.75" d="M274.91,-168C281.75,-172.14 306.21,-186.96 312.95,-191.04"/>
</g>
<!-- 24 -->
<g id="node37" class="node">
<title>24</title>
<ellipse fill="black" stroke="black" cx="250.53" cy="-83.48" rx="1.8" ry="1.8"/>
</g>
<!-- 23&#45;&#45;24 -->
<g id="edge69" class="edge">
<title>23&#45;&#45;24</title>
<path fill="none" stroke="black" stroke-width="0.75" d="M272.56,-164.86C269.44,-153.32 254.15,-96.82 251.07,-85.47"/>
</g>
<!-- 49 -->
<g id="node19" class="node">
<title>49</title>
<ellipse fill="black" stroke="black" cx="150.71" cy="-411.27" rx="1.8" ry="1.8"/>
</g>
<!-- 47&#45;&#45;49 -->
<g id="edge128" class="edge">
<title>47&#45;&#45;49</title>
<path fill="none" stroke="black" stroke-width="0.75" d="M169.93,-352.52C166.91,-361.74 154.46,-399.81 151.39,-409.18"/>
</g>
<!-- 48 -->
<g id="node58" class="node">
<title>48</title>
<ellipse fill="black" stroke="black" cx="181.03" cy="-442.13" rx="1.8" ry="1.8"/>
</g>
<!-- 47&#45;&#45;48 -->
<g id="edge127" class="edge">
<title>47&#45;&#45;48</title>
<path fill="none" stroke="black" stroke-width="0.75" d="M170.85,-352.76C172.29,-365.44 179.36,-427.47 180.78,-439.94"/>
</g>
<!-- 73 -->
<g id="node40" class="node">
<title>73</title>
<ellipse fill="black" stroke="black" cx="150.95" cy="-96.43" rx="1.8" ry="1.8"/>
</g>
<!-- 71&#45;&#45;73 -->
<g id="edge184" class="edge">
<title>71&#45;&#45;73</title>
<path fill="none" stroke="black" stroke-width="0.75" d="M170.09,-155.46C167.09,-146.19 154.68,-107.95 151.63,-98.54"/>
</g>
<!-- 72 -->
<g id="node76" class="node">
<title>72</title>
<ellipse fill="black" stroke="black" cx="104.46" cy="-194.43" rx="1.8" ry="1.8"/>
</g>
<!-- 71&#45;&#45;72 -->
<g id="edge183" class="edge">
<title>71&#45;&#45;72</title>
<path fill="none" stroke="black" stroke-width="0.75" d="M168.84,-158.56C159.16,-163.95 115.66,-188.2 106.26,-193.43"/>
</g>
<!-- 3 -->
<g id="node13" class="node">
<title>3</title>
<ellipse fill="black" stroke="black" cx="287.96" cy="-291.35" rx="1.8" ry="1.8"/>
</g>
<!-- 3&#45;&#45;16 -->
<g id="edge11" class="edge">
<title>3&#45;&#45;16</title>
<path fill="none" stroke="black" stroke-width="0.75" d="M289.91,-291.96C299.78,-295.07 344.16,-309.06 353.74,-312.08"/>
</g>
<!-- 3&#45;&#45;25 -->
<g id="edge12" class="edge">
<title>3&#45;&#45;25</title>
<path fill="none" stroke="black" stroke-width="0.75" d="M288.52,-289.27C292,-276.36 310.66,-207.04 314.13,-194.15"/>
</g>
<!-- 35 -->
<g id="node15" class="node">
<title>35</title>
<ellipse fill="black" stroke="black" cx="356.79" cy="-378.04" rx="1.8" ry="1.8"/>
</g>
<!-- 3&#45;&#45;35 -->
<g id="edge13" class="edge">
<title>3&#45;&#45;35</title>
<path fill="none" stroke="black" stroke-width="0.75" d="M289.16,-292.85C297.51,-303.37 347.1,-365.83 355.56,-376.49"/>
</g>
<!-- 61 -->
<g id="node16" class="node">
<title>61</title>
<ellipse fill="black" stroke="black" cx="196.03" cy="-269.86" rx="1.8" ry="1.8"/>
</g>
<!-- 3&#45;&#45;61 -->
<g id="edge14" class="edge">
<title>3&#45;&#45;61</title>
<path fill="none" stroke="black" stroke-width="0.75" d="M286.04,-290.9C274.18,-288.13 210.97,-273.35 198.26,-270.38"/>
</g>
<!-- 64 -->
<g id="node17" class="node">
<title>64</title>
<ellipse fill="black" stroke="black" cx="200.2" cy="-317.4" rx="1.8" ry="1.8"/>
</g>
<!-- 3&#45;&#45;64 -->
<g id="edge15" class="edge">
<title>3&#45;&#45;64</title>
<path fill="none" stroke="black" stroke-width="0.75" d="M285.79,-291.99C273.65,-295.59 214.24,-313.23 202.29,-316.77"/>
</g>
<!-- 27 -->
<g id="node36" class="node">
<title>27</title>
<ellipse fill="black" stroke="black" cx="286.1" cy="-103.29" rx="1.8" ry="1.8"/>
</g>
<!-- 25&#45;&#45;27 -->
<g id="edge73" class="edge">
<title>25&#45;&#45;27</title>
<path fill="none" stroke="black" stroke-width="0.75" d="M314.09,-190.24C310.4,-178.78 290.74,-117.73 286.79,-105.44"/>
</g>
<!-- 35&#45;&#45;37 -->
<g id="edge100" class="edge">
<title>35&#45;&#45;37</title>
<path fill="none" stroke="black" stroke-width="0.75" d="M356.55,-380.14C355.33,-390.69 349.91,-437.78 348.66,-448.67"/>
</g>
<!-- 36 -->
<g id="node49" class="node">
<title>36</title>
<ellipse fill="black" stroke="black" cx="360.49" cy="-436.63" rx="1.8" ry="1.8"/>
</g>
<!-- 35&#45;&#45;36 -->
<g id="edge99" class="edge">
<title>35&#45;&#45;36</title>
<path fill="none" stroke="black" stroke-width="0.75" d="M356.93,-380.26C357.52,-389.54 359.76,-425.11 360.35,-434.4"/>
</g>
<!-- 63 -->
<g id="node66" class="node">
<title>63</title>
<ellipse fill="black" stroke="black" cx="125.16" cy="-333.27" rx="1.8" ry="1.8"/>
</g>
<!-- 61&#45;&#45;63 -->
<g id="edge159" class="edge">
<title>61&#45;&#45;63</title>
<path fill="none" stroke="black" stroke-width="0.75" d="M194.55,-271.18C185.32,-279.43 135.83,-323.72 126.64,-331.95"/>
</g>
<!-- 4 -->
<g id="node18" class="node">
<title>4</title>
<ellipse fill="black" stroke="black" cx="209.65" cy="-361.67" rx="1.8" ry="1.8"/>
</g>
<!-- 4&#45;&#45;40 -->
<g id="edge16" class="edge">
<title>4&#45;&#45;40</title>
<path fill="none" stroke="black" stroke-width="0.75" d="M211.19,-363.01C220.79,-371.39 272.29,-416.35 281.86,-424.71"/>
</g>
<!-- 4&#45;&#45;52 -->
<g id="edge18" class="edge">
<title>4&#45;&#45;52</title>
<path fill="none" stroke="black" stroke-width="0.75" d="M210.34,-363.56C213.83,-373.15 229.53,-416.22 232.92,-425.53"/>
</g>
<!-- 4&#45;&#45;76 -->
<g id="edge20" class="edge">
<title>4&#45;&#45;76</title>
<path fill="none" stroke="black" stroke-width="0.75" d="M208.97,-359.74C204.22,-346.24 176.03,-266.12 171.21,-252.45"/>
</g>
<!-- 4&#45;&#45;64 -->
<g id="edge19" class="edge">
<title>4&#45;&#45;64</title>
<path fill="none" stroke="black" stroke-width="0.75" d="M209.2,-359.53C207.6,-352.07 202.29,-327.2 200.67,-319.61"/>
</g>
<!-- 4&#45;&#45;49 -->
<g id="edge17" class="edge">
<title>4&#45;&#45;49</title>
<path fill="none" stroke="black" stroke-width="0.75" d="M207.95,-363.1C199.34,-370.34 160.66,-402.89 152.3,-409.93"/>
</g>
<!-- 51 -->
<g id="node57" class="node">
<title>51</title>
<ellipse fill="black" stroke="black" cx="171.08" cy="-489.92" rx="1.8" ry="1.8"/>
</g>
<!-- 49&#45;&#45;51 -->
<g id="edge131" class="edge">
<title>49&#45;&#45;51</title>
<path fill="none" stroke="black" stroke-width="0.75" d="M151.21,-413.21C154.01,-424 167.58,-476.41 170.52,-487.75"/>
</g>
<!-- 5 -->
<g id="node20" class="node">
<title>5</title>
<ellipse fill="black" stroke="black" cx="513.3" cy="-240.34" rx="1.8" ry="1.8"/>
</g>
<!-- 6 -->
<g id="node21" class="node">
<title>6</title>
<ellipse fill="black" stroke="black" cx="527.78" cy="-289.96" rx="1.8" ry="1.8"/>
</g>
<!-- 5&#45;&#45;6 -->
<g id="edge21" class="edge">
<title>5&#45;&#45;6</title>
<path fill="none" stroke="black" stroke-width="0.75" d="M513.93,-242.47C516.31,-250.63 524.83,-279.84 527.18,-287.89"/>
</g>
<!-- 7 -->
<g id="node22" class="node">
<title>7</title>
<ellipse fill="black" stroke="black" cx="483.9" cy="-214.72" rx="1.8" ry="1.8"/>
</g>
<!-- 5&#45;&#45;7 -->
<g id="edge22" class="edge">
<title>5&#45;&#45;7</title>
<path fill="none" stroke="black" stroke-width="0.75" d="M511.72,-238.96C506.57,-234.47 490.31,-220.3 485.35,-215.98"/>
</g>
<!-- 8 -->
<g id="node23" class="node">
<title>8</title>
<ellipse fill="black" stroke="black" cx="483.17" cy="-319.39" rx="1.8" ry="1.8"/>
</g>
<!-- 5&#45;&#45;8 -->
<g id="edge23" class="edge">
<title>5&#45;&#45;8</title>
<path fill="none" stroke="black" stroke-width="0.75" d="M512.56,-242.29C508.39,-253.23 487.99,-306.74 483.89,-317.5"/>
</g>
<!-- 9 -->
<g id="node24" class="node">
<title>9</title>
<ellipse fill="black" stroke="black" cx="425.94" cy="-201.45" rx="1.8" ry="1.8"/>
</g>
<!-- 5&#45;&#45;9 -->
<g id="edge24" class="edge">
<title>5&#45;&#45;9</title>
<path fill="none" stroke="black" stroke-width="0.75" d="M511.48,-239.53C500.11,-234.47 439.1,-207.3 427.76,-202.26"/>
</g>
<!-- 10 -->
<g id="node25" class="node">
<title>10</title>
<ellipse fill="black" stroke="black" cx="427.19" cy="-263.16" rx="1.8" ry="1.8"/>
</g>
<!-- 5&#45;&#45;10 -->
<g id="edge25" class="edge">
<title>5&#45;&#45;10</title>
<path fill="none" stroke="black" stroke-width="0.75" d="M511.18,-240.9C499.26,-244.06 440.97,-259.51 429.25,-262.61"/>
</g>
<!-- 6&#45;&#45;7 -->
<g id="edge26" class="edge">
<title>6&#45;&#45;7</title>
<path fill="none" stroke="black" stroke-width="0.75" d="M526.69,-288.1C520.62,-277.69 490.92,-226.75 484.95,-216.51"/>
</g>
<!-- 6&#45;&#45;8 -->
<g id="edge27" class="edge">
<title>6&#45;&#45;8</title>
<path fill="none" stroke="black" stroke-width="0.75" d="M525.86,-291.22C518.53,-296.06 492.27,-313.38 485.03,-318.16"/>
</g>
<!-- 14 -->
<g id="node26" class="node">
<title>14</title>
<ellipse fill="black" stroke="black" cx="444.67" cy="-282.9" rx="1.8" ry="1.8"/>
</g>
<!-- 6&#45;&#45;14 -->
<g id="edge28" class="edge">
<title>6&#45;&#45;14</title>
<path fill="none" stroke="black" stroke-width="0.75" d="M525.72,-289.78C514.33,-288.81 458.94,-284.11 446.96,-283.09"/>
</g>
<!-- 6&#45;&#45;15 -->
<g id="edge29" class="edge">
<title>6&#45;&#45;15</title>
<path fill="none" stroke="black" stroke-width="0.75" d="M526.01,-290.86C514.97,-296.51 455.75,-326.79 444.74,-332.42"/>
</g>
<!-- 7&#45;&#45;9 -->
<g id="edge30" class="edge">
<title>7&#45;&#45;9</title>
<path fill="none" stroke="black" stroke-width="0.75" d="M481.98,-214.28C473.25,-212.28 437.52,-204.1 428.18,-201.96"/>
</g>
<!-- 7&#45;&#45;14 -->
<g id="edge32" class="edge">
<title>7&#45;&#45;14</title>
<path fill="none" stroke="black" stroke-width="0.75" d="M482.77,-216.68C477.04,-226.64 451.3,-271.38 445.73,-281.05"/>
</g>
<!-- 7&#45;&#45;12 -->
<g id="edge31" class="edge">
<title>7&#45;&#45;12</title>
<path fill="none" stroke="black" stroke-width="0.75" d="M481.99,-215.36C470.05,-219.33 406.01,-240.67 394.11,-244.63"/>
</g>
<!-- 8&#45;&#45;13 -->
<g id="edge34" class="edge">
<title>8&#45;&#45;13</title>
<path fill="none" stroke="black" stroke-width="0.75" d="M481.17,-319.58C468.72,-320.79 401.89,-327.31 389.46,-328.52"/>
</g>
<!-- 8&#45;&#45;10 -->
<g id="edge33" class="edge">
<title>8&#45;&#45;10</title>
<path fill="none" stroke="black" stroke-width="0.75" d="M481.79,-318C474.11,-310.28 436.8,-272.81 428.73,-264.71"/>
</g>
<!-- 8&#45;&#45;15 -->
<g id="edge35" class="edge">
<title>8&#45;&#45;15</title>
<path fill="none" stroke="black" stroke-width="0.75" d="M481.01,-320.14C473.97,-322.58 451.74,-330.29 444.96,-332.64"/>
</g>
<!-- 9&#45;&#45;11 -->
<g id="edge37" class="edge">
<title>9&#45;&#45;11</title>
<path fill="none" stroke="black" stroke-width="0.75" d="M424.09,-202.48C412.56,-208.89 350.69,-243.29 339.19,-249.68"/>
</g>
<!-- 9&#45;&#45;10 -->
<g id="edge36" class="edge">
<title>9&#45;&#45;10</title>
<path fill="none" stroke="black" stroke-width="0.75" d="M425.98,-203.5C426.17,-212.87 426.96,-251.52 427.15,-261.03"/>
</g>
<!-- 9&#45;&#45;12 -->
<g id="edge38" class="edge">
<title>9&#45;&#45;12</title>
<path fill="none" stroke="black" stroke-width="0.75" d="M424.82,-202.91C419.7,-209.56 398.57,-237 393.36,-243.76"/>
</g>
<!-- 10&#45;&#45;13 -->
<g id="edge40" class="edge">
<title>10&#45;&#45;13</title>
<path fill="none" stroke="black" stroke-width="0.75" d="M426.05,-265.05C420.25,-274.62 394.18,-317.64 388.55,-326.94"/>
</g>
<!-- 10&#45;&#45;11 -->
<g id="edge39" class="edge">
<title>10&#45;&#45;11</title>
<path fill="none" stroke="black" stroke-width="0.75" d="M424.97,-262.85C412.54,-261.13 351.72,-252.69 339.49,-251"/>
</g>
<!-- 14&#45;&#45;16 -->
<g id="edge47" class="edge">
<title>14&#45;&#45;16</title>
<path fill="none" stroke="black" stroke-width="0.75" d="M442.81,-283.52C431.32,-287.36 370.06,-307.82 357.74,-311.94"/>
</g>
<!-- 14&#45;&#45;15 -->
<g id="edge46" class="edge">
<title>14&#45;&#45;15</title>
<path fill="none" stroke="black" stroke-width="0.75" d="M444.6,-285.06C444.32,-293.36 443.33,-323.04 443.05,-331.22"/>
</g>
<!-- 15&#45;&#45;16 -->
<g id="edge48" class="edge">
<title>15&#45;&#45;16</title>
<path fill="none" stroke="black" stroke-width="0.75" d="M440.82,-332.81C428.73,-329.95 369.55,-315.96 357.66,-313.15"/>
</g>
<!-- 12&#45;&#45;16 -->
<g id="edge44" class="edge">
<title>12&#45;&#45;16</title>
<path fill="none" stroke="black" stroke-width="0.75" d="M391.14,-247.21C385.8,-257.05 361.76,-301.28 356.57,-310.83"/>
</g>
<!-- 12&#45;&#45;14 -->
<g id="edge43" class="edge">
<title>12&#45;&#45;14</title>
<path fill="none" stroke="black" stroke-width="0.75" d="M393.95,-246.52C401.91,-252.23 434.78,-275.8 442.87,-281.6"/>
</g>
<!-- 17 -->
<g id="node29" class="node">
<title>17</title>
<ellipse fill="black" stroke="black" cx="374.19" cy="-46.37" rx="1.8" ry="1.8"/>
</g>
<!-- 18 -->
<g id="node30" class="node">
<title>18</title>
<ellipse fill="black" stroke="black" cx="330.26" cy="-21.09" rx="1.8" ry="1.8"/>
</g>
<!-- 17&#45;&#45;18 -->
<g id="edge49" class="edge">
<title>17&#45;&#45;18</title>
<path fill="none" stroke="black" stroke-width="0.75" d="M372.3,-45.28C365.08,-41.13 339.22,-26.25 332.09,-22.15"/>
</g>
<!-- 19 -->
<g id="node31" class="node">
<title>19</title>
<ellipse fill="black" stroke="black" cx="291.36" cy="-1.8" rx="1.8" ry="1.8"/>
</g>
<!-- 17&#45;&#45;19 -->
<g id="edge50" class="edge">
<title>17&#45;&#45;19</title>
<path fill="none" stroke="black" stroke-width="0.75" d="M372.46,-45.44C361.77,-39.69 304.83,-9.05 293.37,-2.88"/>
</g>
<!-- 20 -->
<g id="node32" class="node">
<title>20</title>
<ellipse fill="black" stroke="black" cx="360.74" cy="-104.02" rx="1.8" ry="1.8"/>
</g>
<!-- 17&#45;&#45;20 -->
<g id="edge51" class="edge">
<title>17&#45;&#45;20</title>
<path fill="none" stroke="black" stroke-width="0.75" d="M373.74,-48.29C371.72,-56.96 363.43,-92.51 361.26,-101.79"/>
</g>
<!-- 21 -->
<g id="node33" class="node">
<title>21</title>
<ellipse fill="black" stroke="black" cx="311.43" cy="-80.82" rx="1.8" ry="1.8"/>
</g>
<!-- 17&#45;&#45;21 -->
<g id="edge52" class="edge">
<title>17&#45;&#45;21</title>
<path fill="none" stroke="black" stroke-width="0.75" d="M372.38,-47.36C363.21,-52.39 322.03,-75 313.13,-79.89"/>
</g>
<!-- 22 -->
<g id="node34" class="node">
<title>22</title>
<ellipse fill="black" stroke="black" cx="345.98" cy="-139.01" rx="1.8" ry="1.8"/>
</g>
<!-- 17&#45;&#45;22 -->
<g id="edge53" class="edge">
<title>17&#45;&#45;22</title>
<path fill="none" stroke="black" stroke-width="0.75" d="M373.6,-48.3C369.93,-60.36 350.23,-125.06 346.57,-137.09"/>
</g>
<!-- 18&#45;&#45;19 -->
<g id="edge54" class="edge">
<title>18&#45;&#45;19</title>
<path fill="none" stroke="black" stroke-width="0.75" d="M328.59,-20.26C322.3,-17.15 300.12,-6.15 293.35,-2.78"/>
</g>
<!-- 18&#45;&#45;20 -->
<g id="edge55" class="edge">
<title>18&#45;&#45;20</title>
<path fill="none" stroke="black" stroke-width="0.75" d="M331.01,-23.14C335.23,-34.62 355.87,-90.76 360.01,-102.05"/>
</g>
<!-- 26 -->
<g id="node35" class="node">
<title>26</title>
<ellipse fill="black" stroke="black" cx="243.57" cy="-36.18" rx="1.8" ry="1.8"/>
</g>
<!-- 18&#45;&#45;26 -->
<g id="edge56" class="edge">
<title>18&#45;&#45;26</title>
<path fill="none" stroke="black" stroke-width="0.75" d="M328.11,-21.46C316.12,-23.55 257.44,-33.77 245.64,-35.82"/>
</g>
<!-- 18&#45;&#45;27 -->
<g id="edge57" class="edge">
<title>18&#45;&#45;27</title>
<path fill="none" stroke="black" stroke-width="0.75" d="M329.33,-22.81C323.64,-33.41 293.28,-89.93 287.17,-101.29"/>
</g>
<!-- 19&#45;&#45;21 -->
<g id="edge58" class="edge">
<title>19&#45;&#45;21</title>
<path fill="none" stroke="black" stroke-width="0.75" d="M291.86,-3.75C294.61,-14.59 307.98,-67.25 310.88,-78.64"/>
</g>
<!-- 19&#45;&#45;26 -->
<g id="edge60" class="edge">
<title>19&#45;&#45;26</title>
<path fill="none" stroke="black" stroke-width="0.75" d="M289.77,-2.94C282.52,-8.16 252.59,-29.7 245.22,-35"/>
</g>
<!-- 19&#45;&#45;24 -->
<g id="edge59" class="edge">
<title>19&#45;&#45;24</title>
<path fill="none" stroke="black" stroke-width="0.75" d="M290.35,-3.82C284.71,-15.12 257.06,-70.41 251.51,-81.53"/>
</g>
<!-- 20&#45;&#45;25 -->
<g id="edge62" class="edge">
<title>20&#45;&#45;25</title>
<path fill="none" stroke="black" stroke-width="0.75" d="M359.78,-105.86C353.79,-117.32 321.62,-178.83 315.64,-190.26"/>
</g>
<!-- 20&#45;&#45;22 -->
<g id="edge61" class="edge">
<title>20&#45;&#45;22</title>
<path fill="none" stroke="black" stroke-width="0.75" d="M359.95,-105.9C357.41,-111.92 349.5,-130.68 346.85,-136.95"/>
</g>
<!-- 20&#45;&#45;27 -->
<g id="edge63" class="edge">
<title>20&#45;&#45;27</title>
<path fill="none" stroke="black" stroke-width="0.75" d="M358.59,-104C347.69,-103.9 298.7,-103.41 288.12,-103.31"/>
</g>
<!-- 21&#45;&#45;23 -->
<g id="edge65" class="edge">
<title>21&#45;&#45;23</title>
<path fill="none" stroke="black" stroke-width="0.75" d="M310.63,-82.62C305.69,-93.73 279.35,-152.92 274.05,-164.84"/>
</g>
<!-- 21&#45;&#45;22 -->
<g id="edge64" class="edge">
<title>21&#45;&#45;22</title>
<path fill="none" stroke="black" stroke-width="0.75" d="M312.58,-82.75C317.92,-91.75 340.24,-129.34 345.06,-137.46"/>
</g>
<!-- 21&#45;&#45;24 -->
<g id="edge66" class="edge">
<title>21&#45;&#45;24</title>
<path fill="none" stroke="black" stroke-width="0.75" d="M309.4,-80.91C300.16,-81.31 262.02,-82.98 252.63,-83.38"/>
</g>
<!-- 22&#45;&#45;23 -->
<g id="edge67" class="edge">
<title>22&#45;&#45;23</title>
<path fill="none" stroke="black" stroke-width="0.75" d="M343.88,-139.82C333.24,-143.89 285.43,-162.21 275.1,-166.17"/>
</g>
<!-- 22&#45;&#45;25 -->
<g id="edge68" class="edge">
<title>22&#45;&#45;25</title>
<path fill="none" stroke="black" stroke-width="0.75" d="M344.94,-140.78C340.19,-148.84 320.59,-182.08 315.76,-190.26"/>
</g>
<!-- 26&#45;&#45;27 -->
<g id="edge74" class="edge">
<title>26&#45;&#45;27</title>
<path fill="none" stroke="black" stroke-width="0.75" d="M244.8,-38.12C251.01,-47.92 278.91,-91.96 284.95,-101.47"/>
</g>
<!-- 28 -->
<g id="node38" class="node">
<title>28</title>
<ellipse fill="black" stroke="black" cx="200.9" cy="-100.2" rx="1.8" ry="1.8"/>
</g>
<!-- 26&#45;&#45;28 -->
<g id="edge75" class="edge">
<title>26&#45;&#45;28</title>
<path fill="none" stroke="black" stroke-width="0.75" d="M242.34,-38.03C236.11,-47.38 208.11,-89.39 202.06,-98.47"/>
</g>
<!-- 27&#45;&#45;28 -->
<g id="edge76" class="edge">
<title>27&#45;&#45;28</title>
<path fill="none" stroke="black" stroke-width="0.75" d="M283.99,-103.21C272.2,-102.79 214.53,-100.7 202.93,-100.28"/>
</g>
<!-- 24&#45;&#45;26 -->
<g id="edge71" class="edge">
<title>24&#45;&#45;26</title>
<path fill="none" stroke="black" stroke-width="0.75" d="M250.23,-81.44C249.09,-73.67 244.99,-45.83 243.86,-38.16"/>
</g>
<!-- 24&#45;&#45;28 -->
<g id="edge72" class="edge">
<title>24&#45;&#45;28</title>
<path fill="none" stroke="black" stroke-width="0.75" d="M248.4,-84.2C240.24,-86.95 211.02,-96.79 202.97,-99.5"/>
</g>
<!-- 59 -->
<g id="node39" class="node">
<title>59</title>
<ellipse fill="black" stroke="black" cx="162.7" cy="-197.5" rx="1.8" ry="1.8"/>
</g>
<!-- 28&#45;&#45;59 -->
<g id="edge77" class="edge">
<title>28&#45;&#45;59</title>
<path fill="none" stroke="black" stroke-width="0.75" d="M200.1,-102.23C195.13,-114.9 168.45,-182.85 163.49,-195.48"/>
</g>
<!-- 28&#45;&#45;73 -->
<g id="edge78" class="edge">
<title>28&#45;&#45;73</title>
<path fill="none" stroke="black" stroke-width="0.75" d="M198.75,-100.04C190.54,-99.42 161.14,-97.2 153.03,-96.59"/>
</g>
<!-- 59&#45;&#45;61 -->
<g id="edge156" class="edge">
<title>59&#45;&#45;61</title>
<path fill="none" stroke="black" stroke-width="0.75" d="M163.66,-199.59C168.53,-210.15 190.4,-257.64 195.12,-267.9"/>
</g>
<!-- 60 -->
<g id="node67" class="node">
<title>60</title>
<ellipse fill="black" stroke="black" cx="118.85" cy="-274.95" rx="1.8" ry="1.8"/>
</g>
<!-- 59&#45;&#45;60 -->
<g id="edge155" class="edge">
<title>59&#45;&#45;60</title>
<path fill="none" stroke="black" stroke-width="0.75" d="M161.61,-199.41C155.55,-210.13 125.87,-262.56 119.9,-273.1"/>
</g>
<!-- 75 -->
<g id="node75" class="node">
<title>75</title>
<ellipse fill="black" stroke="black" cx="115.66" cy="-159.74" rx="1.8" ry="1.8"/>
</g>
<!-- 73&#45;&#45;75 -->
<g id="edge187" class="edge">
<title>73&#45;&#45;75</title>
<path fill="none" stroke="black" stroke-width="0.75" d="M149.93,-98.26C144.78,-107.5 121.62,-149.05 116.61,-158.02"/>
</g>
<!-- 29 -->
<g id="node41" class="node">
<title>29</title>
<ellipse fill="black" stroke="black" cx="453.15" cy="-522.36" rx="1.8" ry="1.8"/>
</g>
<!-- 30 -->
<g id="node42" class="node">
<title>30</title>
<ellipse fill="black" stroke="black" cx="372.61" cy="-572.26" rx="1.8" ry="1.8"/>
</g>
<!-- 29&#45;&#45;30 -->
<g id="edge79" class="edge">
<title>29&#45;&#45;30</title>
<path fill="none" stroke="black" stroke-width="0.75" d="M451.47,-523.41C441.08,-529.84 385.7,-564.14 374.56,-571.05"/>
</g>
<!-- 31 -->
<g id="node43" class="node">
<title>31</title>
<ellipse fill="black" stroke="black" cx="410.68" cy="-513.69" rx="1.8" ry="1.8"/>
</g>
<!-- 29&#45;&#45;31 -->
<g id="edge80" class="edge">
<title>29&#45;&#45;31</title>
<path fill="none" stroke="black" stroke-width="0.75" d="M451.1,-521.95C443.94,-520.49 420.09,-515.62 412.81,-514.13"/>
</g>
<!-- 32 -->
<g id="node44" class="node">
<title>32</title>
<ellipse fill="black" stroke="black" cx="380.44" cy="-523.16" rx="1.8" ry="1.8"/>
</g>
<!-- 29&#45;&#45;32 -->
<g id="edge81" class="edge">
<title>29&#45;&#45;32</title>
<path fill="none" stroke="black" stroke-width="0.75" d="M451.05,-522.39C440.53,-522.5 393.56,-523.01 382.69,-523.13"/>
</g>
<!-- 33 -->
<g id="node45" class="node">
<title>33</title>
<ellipse fill="black" stroke="black" cx="432.37" cy="-431.24" rx="1.8" ry="1.8"/>
</g>
<!-- 29&#45;&#45;33 -->
<g id="edge82" class="edge">
<title>29&#45;&#45;33</title>
<path fill="none" stroke="black" stroke-width="0.75" d="M452.72,-520.46C450.03,-508.71 435.75,-446.06 432.88,-433.45"/>
</g>
<!-- 34 -->
<g id="node46" class="node">
<title>34</title>
<ellipse fill="black" stroke="black" cx="412.64" cy="-457.91" rx="1.8" ry="1.8"/>
</g>
<!-- 29&#45;&#45;34 -->
<g id="edge83" class="edge">
<title>29&#45;&#45;34</title>
<path fill="none" stroke="black" stroke-width="0.75" d="M451.98,-520.51C446.07,-511.09 419.49,-468.79 413.74,-459.65"/>
</g>
<!-- 30&#45;&#45;31 -->
<g id="edge84" class="edge">
<title>30&#45;&#45;31</title>
<path fill="none" stroke="black" stroke-width="0.75" d="M373.71,-570.57C379.27,-562.01 404.25,-523.58 409.65,-515.28"/>
</g>
<!-- 30&#45;&#45;32 -->
<g id="edge85" class="edge">
<title>30&#45;&#45;32</title>
<path fill="none" stroke="black" stroke-width="0.75" d="M372.95,-570.15C374.24,-562.07 378.85,-533.17 380.12,-525.2"/>
</g>
<!-- 38 -->
<g id="node47" class="node">
<title>38</title>
<ellipse fill="black" stroke="black" cx="331.93" cy="-499.73" rx="1.8" ry="1.8"/>
</g>
<!-- 30&#45;&#45;38 -->
<g id="edge86" class="edge">
<title>30&#45;&#45;38</title>
<path fill="none" stroke="black" stroke-width="0.75" d="M371.61,-570.46C366.03,-560.51 338.92,-512.18 333.05,-501.72"/>
</g>
<!-- 30&#45;&#45;39 -->
<g id="edge87" class="edge">
<title>30&#45;&#45;39</title>
<path fill="none" stroke="black" stroke-width="0.75" d="M370.89,-570.83C361.16,-562.81 313.24,-523.29 304.34,-515.95"/>
</g>
<!-- 31&#45;&#45;33 -->
<g id="edge88" class="edge">
<title>31&#45;&#45;33</title>
<path fill="none" stroke="black" stroke-width="0.75" d="M411.22,-511.66C414.22,-500.25 428.9,-444.43 431.85,-433.21"/>
</g>
<!-- 31&#45;&#45;38 -->
<g id="edge90" class="edge">
<title>31&#45;&#45;38</title>
<path fill="none" stroke="black" stroke-width="0.75" d="M408.74,-513.35C397.94,-511.43 345.45,-502.12 334.1,-500.11"/>
</g>
<!-- 31&#45;&#45;36 -->
<g id="edge89" class="edge">
<title>31&#45;&#45;36</title>
<path fill="none" stroke="black" stroke-width="0.75" d="M409.44,-511.79C402.5,-501.13 368.51,-448.95 361.68,-438.46"/>
</g>
<!-- 32&#45;&#45;37 -->
<g id="edge92" class="edge">
<title>32&#45;&#45;37</title>
<path fill="none" stroke="black" stroke-width="0.75" d="M379.52,-521.07C374.84,-510.53 353.81,-463.12 349.26,-452.88"/>
</g>
<!-- 32&#45;&#45;34 -->
<g id="edge91" class="edge">
<title>32&#45;&#45;34</title>
<path fill="none" stroke="black" stroke-width="0.75" d="M381.37,-521.27C386.07,-511.75 407.21,-468.93 411.77,-459.67"/>
</g>
<!-- 32&#45;&#45;39 -->
<g id="edge93" class="edge">
<title>32&#45;&#45;39</title>
<path fill="none" stroke="black" stroke-width="0.75" d="M378.21,-522.91C366.88,-521.69 316.01,-516.19 305.01,-515"/>
</g>
<!-- 33&#45;&#45;35 -->
<g id="edge95" class="edge">
<title>33&#45;&#45;35</title>
<path fill="none" stroke="black" stroke-width="0.75" d="M430.5,-429.93C420.05,-422.57 368.88,-386.55 358.59,-379.31"/>
</g>
<!-- 33&#45;&#45;34 -->
<g id="edge94" class="edge">
<title>33&#45;&#45;34</title>
<path fill="none" stroke="black" stroke-width="0.75" d="M431.08,-432.99C427.51,-437.81 417.57,-451.25 413.97,-456.12"/>
</g>
<!-- 33&#45;&#45;36 -->
<g id="edge96" class="edge">
<title>33&#45;&#45;36</title>
<path fill="none" stroke="black" stroke-width="0.75" d="M430.3,-431.4C419.89,-432.18 373.45,-435.66 362.71,-436.46"/>
</g>
<!-- 34&#45;&#45;37 -->
<g id="edge98" class="edge">
<title>34&#45;&#45;37</title>
<path fill="none" stroke="black" stroke-width="0.75" d="M410.51,-457.67C400.75,-456.61 360.51,-452.24 350.61,-451.17"/>
</g>
<!-- 34&#45;&#45;35 -->
<g id="edge97" class="edge">
<title>34&#45;&#45;35</title>
<path fill="none" stroke="black" stroke-width="0.75" d="M411.48,-456.24C404.21,-445.84 365.2,-390.06 357.95,-379.7"/>
</g>
<!-- 38&#45;&#45;40 -->
<g id="edge105" class="edge">
<title>38&#45;&#45;40</title>
<path fill="none" stroke="black" stroke-width="0.75" d="M330.73,-497.9C324.02,-487.71 291.15,-437.83 284.55,-427.8"/>
</g>
<!-- 38&#45;&#45;39 -->
<g id="edge104" class="edge">
<title>38&#45;&#45;39</title>
<path fill="none" stroke="black" stroke-width="0.75" d="M330.03,-500.71C324.78,-503.43 310.16,-511.02 304.86,-513.76"/>
</g>
<!-- 39&#45;&#45;40 -->
<g id="edge106" class="edge">
<title>39&#45;&#45;40</title>
<path fill="none" stroke="black" stroke-width="0.75" d="M302.43,-512.58C299.73,-500.3 286.51,-440.24 283.86,-428.16"/>
</g>
<!-- 36&#45;&#45;40 -->
<g id="edge102" class="edge">
<title>36&#45;&#45;40</title>
<path fill="none" stroke="black" stroke-width="0.75" d="M358.26,-436.32C347,-434.78 296.41,-427.83 285.48,-426.33"/>
</g>
<!-- 36&#45;&#45;38 -->
<g id="edge101" class="edge">
<title>36&#45;&#45;38</title>
<path fill="none" stroke="black" stroke-width="0.75" d="M359.66,-438.45C355.49,-447.66 336.76,-489.07 332.71,-498.02"/>
</g>
<!-- 41 -->
<g id="node50" class="node">
<title>41</title>
<ellipse fill="black" stroke="black" cx="55.23" cy="-499.14" rx="1.8" ry="1.8"/>
</g>
<!-- 42 -->
<g id="node51" class="node">
<title>42</title>
<ellipse fill="black" stroke="black" cx="121.94" cy="-560.43" rx="1.8" ry="1.8"/>
</g>
<!-- 41&#45;&#45;42 -->
<g id="edge107" class="edge">
<title>41&#45;&#45;42</title>
<path fill="none" stroke="black" stroke-width="0.75" d="M56.88,-500.65C66.19,-509.21 112.06,-551.35 120.58,-559.18"/>
</g>
<!-- 43 -->
<g id="node52" class="node">
<title>43</title>
<ellipse fill="black" stroke="black" cx="123.35" cy="-518.06" rx="1.8" ry="1.8"/>
</g>
<!-- 41&#45;&#45;43 -->
<g id="edge108" class="edge">
<title>41&#45;&#45;43</title>
<path fill="none" stroke="black" stroke-width="0.75" d="M57.2,-499.68C67.15,-502.45 111.85,-514.87 121.5,-517.55"/>
</g>
<!-- 44 -->
<g id="node53" class="node">
<title>44</title>
<ellipse fill="black" stroke="black" cx="100.38" cy="-483.96" rx="1.8" ry="1.8"/>
</g>
<!-- 41&#45;&#45;44 -->
<g id="edge109" class="edge">
<title>41&#45;&#45;44</title>
<path fill="none" stroke="black" stroke-width="0.75" d="M57.41,-498.41C65.16,-495.8 91.32,-487 98.53,-484.58"/>
</g>
<!-- 45 -->
<g id="node54" class="node">
<title>45</title>
<ellipse fill="black" stroke="black" cx="113.51" cy="-434.28" rx="1.8" ry="1.8"/>
</g>
<!-- 41&#45;&#45;45 -->
<g id="edge110" class="edge">
<title>41&#45;&#45;45</title>
<path fill="none" stroke="black" stroke-width="0.75" d="M56.67,-497.53C64.81,-488.48 104.88,-443.88 112.32,-435.6"/>
</g>
<!-- 46 -->
<g id="node55" class="node">
<title>46</title>
<ellipse fill="black" stroke="black" cx="83.39" cy="-411.31" rx="1.8" ry="1.8"/>
</g>
<!-- 41&#45;&#45;46 -->
<g id="edge111" class="edge">
<title>41&#45;&#45;46</title>
<path fill="none" stroke="black" stroke-width="0.75" d="M55.93,-496.97C59.83,-484.82 78.89,-425.36 82.72,-413.41"/>
</g>
<!-- 42&#45;&#45;43 -->
<g id="edge112" class="edge">
<title>42&#45;&#45;43</title>
<path fill="none" stroke="black" stroke-width="0.75" d="M122.02,-558.15C122.26,-550.73 123.04,-527.29 123.28,-520.15"/>
</g>
<!-- 42&#45;&#45;44 -->
<g id="edge113" class="edge">
<title>42&#45;&#45;44</title>
<path fill="none" stroke="black" stroke-width="0.75" d="M121.32,-558.22C118.17,-547.06 104.02,-496.87 100.96,-486.03"/>
</g>
<!-- 50 -->
<g id="node56" class="node">
<title>50</title>
<ellipse fill="black" stroke="black" cx="199" cy="-512.18" rx="1.8" ry="1.8"/>
</g>
<!-- 42&#45;&#45;50 -->
<g id="edge114" class="edge">
<title>42&#45;&#45;50</title>
<path fill="none" stroke="black" stroke-width="0.75" d="M123.84,-559.24C134.51,-552.56 186.67,-519.9 197.16,-513.33"/>
</g>
<!-- 42&#45;&#45;51 -->
<g id="edge115" class="edge">
<title>42&#45;&#45;51</title>
<path fill="none" stroke="black" stroke-width="0.75" d="M123.15,-558.69C129.95,-548.93 163.22,-501.19 169.91,-491.6"/>
</g>
<!-- 43&#45;&#45;45 -->
<g id="edge116" class="edge">
<title>43&#45;&#45;45</title>
<path fill="none" stroke="black" stroke-width="0.75" d="M123.11,-515.99C121.74,-504.4 115.08,-447.68 113.74,-436.28"/>
</g>
<!-- 43&#45;&#45;50 -->
<g id="edge118" class="edge">
<title>43&#45;&#45;50</title>
<path fill="none" stroke="black" stroke-width="0.75" d="M125.53,-517.89C136.58,-517.03 186.22,-513.17 196.95,-512.34"/>
</g>
<!-- 43&#45;&#45;48 -->
<g id="edge117" class="edge">
<title>43&#45;&#45;48</title>
<path fill="none" stroke="black" stroke-width="0.75" d="M124.55,-516.48C132.06,-506.6 172.34,-453.56 179.83,-443.7"/>
</g>
<!-- 44&#45;&#45;49 -->
<g id="edge120" class="edge">
<title>44&#45;&#45;49</title>
<path fill="none" stroke="black" stroke-width="0.75" d="M101.62,-482.16C108.59,-472.11 142.66,-422.9 149.51,-413"/>
</g>
<!-- 44&#45;&#45;46 -->
<g id="edge119" class="edge">
<title>44&#45;&#45;46</title>
<path fill="none" stroke="black" stroke-width="0.75" d="M99.89,-481.86C97.41,-471.26 86.26,-423.58 83.85,-413.28"/>
</g>
<!-- 44&#45;&#45;51 -->
<g id="edge121" class="edge">
<title>44&#45;&#45;51</title>
<path fill="none" stroke="black" stroke-width="0.75" d="M102.42,-484.13C112.74,-485 159.14,-488.91 169.16,-489.75"/>
</g>
<!-- 45&#45;&#45;47 -->
<g id="edge123" class="edge">
<title>45&#45;&#45;47</title>
<path fill="none" stroke="black" stroke-width="0.75" d="M114.7,-432.53C122.13,-421.62 162,-363.11 169.41,-352.23"/>
</g>
<!-- 45&#45;&#45;46 -->
<g id="edge122" class="edge">
<title>45&#45;&#45;46</title>
<path fill="none" stroke="black" stroke-width="0.75" d="M111.89,-433.04C106.71,-429.09 90.56,-416.78 85.17,-412.67"/>
</g>
<!-- 45&#45;&#45;48 -->
<g id="edge124" class="edge">
<title>45&#45;&#45;48</title>
<path fill="none" stroke="black" stroke-width="0.75" d="M115.75,-434.54C126.19,-435.75 169.81,-440.82 179.23,-441.92"/>
</g>
<!-- 46&#45;&#45;47 -->
<g id="edge125" class="edge">
<title>46&#45;&#45;47</title>
<path fill="none" stroke="black" stroke-width="0.75" d="M85.21,-410.04C96.56,-402.13 157.46,-359.65 168.78,-351.76"/>
</g>
<!-- 46&#45;&#45;49 -->
<g id="edge126" class="edge">
<title>46&#45;&#45;49</title>
<path fill="none" stroke="black" stroke-width="0.75" d="M85.63,-411.31C96.03,-411.3 139.53,-411.28 148.92,-411.27"/>
</g>
<!-- 50&#45;&#45;52 -->
<g id="edge133" class="edge">
<title>50&#45;&#45;52</title>
<path fill="none" stroke="black" stroke-width="0.75" d="M199.85,-510.08C204.64,-498.34 228.04,-440.88 232.74,-429.33"/>
</g>
<!-- 50&#45;&#45;51 -->
<g id="edge132" class="edge">
<title>50&#45;&#45;51</title>
<path fill="none" stroke="black" stroke-width="0.75" d="M197.5,-510.98C192.7,-507.15 177.73,-495.22 172.73,-491.23"/>
</g>
<!-- 51&#45;&#45;52 -->
<g id="edge134" class="edge">
<title>51&#45;&#45;52</title>
<path fill="none" stroke="black" stroke-width="0.75" d="M172.62,-488.37C181.34,-479.63 224.31,-436.58 232.29,-428.58"/>
</g>
<!-- 48&#45;&#45;52 -->
<g id="edge130" class="edge">
<title>48&#45;&#45;52</title>
<path fill="none" stroke="black" stroke-width="0.75" d="M182.77,-441.63C190.68,-439.4 223.07,-430.27 231.53,-427.88"/>
</g>
<!-- 48&#45;&#45;50 -->
<g id="edge129" class="edge">
<title>48&#45;&#45;50</title>
<path fill="none" stroke="black" stroke-width="0.75" d="M181.54,-444.15C184.17,-454.38 195.96,-500.35 198.51,-510.28"/>
</g>
<!-- 53 -->
<g id="node59" class="node">
<title>53</title>
<ellipse fill="black" stroke="black" cx="1.8" cy="-257.48" rx="1.8" ry="1.8"/>
</g>
<!-- 54 -->
<g id="node60" class="node">
<title>54</title>
<ellipse fill="black" stroke="black" cx="15.69" cy="-344.51" rx="1.8" ry="1.8"/>
</g>
<!-- 53&#45;&#45;54 -->
<g id="edge135" class="edge">
<title>53&#45;&#45;54</title>
<path fill="none" stroke="black" stroke-width="0.75" d="M2.14,-259.63C4.06,-271.67 13.47,-330.59 15.36,-342.43"/>
</g>
<!-- 55 -->
<g id="node61" class="node">
<title>55</title>
<ellipse fill="black" stroke="black" cx="14.9" cy="-297.33" rx="1.8" ry="1.8"/>
</g>
<!-- 53&#45;&#45;55 -->
<g id="edge136" class="edge">
<title>53&#45;&#45;55</title>
<path fill="none" stroke="black" stroke-width="0.75" d="M2.5,-259.62C4.8,-266.61 12.04,-288.65 14.25,-295.37"/>
</g>
<!-- 56 -->
<g id="node62" class="node">
<title>56</title>
<ellipse fill="black" stroke="black" cx="82.4" cy="-293.56" rx="1.8" ry="1.8"/>
</g>
<!-- 53&#45;&#45;56 -->
<g id="edge137" class="edge">
<title>53&#45;&#45;56</title>
<path fill="none" stroke="black" stroke-width="0.75" d="M3.79,-258.37C14.94,-263.36 69.51,-287.79 80.47,-292.7"/>
</g>
<!-- 57 -->
<g id="node63" class="node">
<title>57</title>
<ellipse fill="black" stroke="black" cx="51.52" cy="-223.2" rx="1.8" ry="1.8"/>
</g>
<!-- 53&#45;&#45;57 -->
<g id="edge138" class="edge">
<title>53&#45;&#45;57</title>
<path fill="none" stroke="black" stroke-width="0.75" d="M3.45,-256.34C11,-251.13 42.14,-229.67 49.81,-224.38"/>
</g>
<!-- 58 -->
<g id="node64" class="node">
<title>58</title>
<ellipse fill="black" stroke="black" cx="108.73" cy="-231.94" rx="1.8" ry="1.8"/>
</g>
<!-- 53&#45;&#45;58 -->
<g id="edge139" class="edge">
<title>53&#45;&#45;58</title>
<path fill="none" stroke="black" stroke-width="0.75" d="M4.03,-256.95C17.95,-253.62 92.63,-235.79 106.51,-232.47"/>
</g>
<!-- 54&#45;&#45;55 -->
<g id="edge140" class="edge">
<title>54&#45;&#45;55</title>
<path fill="none" stroke="black" stroke-width="0.75" d="M15.65,-342.23C15.51,-334.13 15.06,-306.79 14.93,-299.26"/>
</g>
<!-- 54&#45;&#45;56 -->
<g id="edge141" class="edge">
<title>54&#45;&#45;56</title>
<path fill="none" stroke="black" stroke-width="0.75" d="M17.34,-343.25C26.65,-336.14 72.52,-301.11 81.03,-294.6"/>
</g>
<!-- 62 -->
<g id="node65" class="node">
<title>62</title>
<ellipse fill="black" stroke="black" cx="88.6" cy="-339.89" rx="1.8" ry="1.8"/>
</g>
<!-- 54&#45;&#45;62 -->
<g id="edge142" class="edge">
<title>54&#45;&#45;62</title>
<path fill="none" stroke="black" stroke-width="0.75" d="M17.79,-344.37C28.35,-343.71 75.45,-340.73 86.35,-340.04"/>
</g>
<!-- 54&#45;&#45;63 -->
<g id="edge143" class="edge">
<title>54&#45;&#45;63</title>
<path fill="none" stroke="black" stroke-width="0.75" d="M17.98,-344.27C32.22,-342.81 108.68,-334.96 122.89,-333.5"/>
</g>
<!-- 55&#45;&#45;57 -->
<g id="edge144" class="edge">
<title>55&#45;&#45;57</title>
<path fill="none" stroke="black" stroke-width="0.75" d="M15.8,-295.5C20.82,-285.33 45.23,-235.93 50.51,-225.24"/>
</g>
<!-- 55&#45;&#45;62 -->
<g id="edge146" class="edge">
<title>55&#45;&#45;62</title>
<path fill="none" stroke="black" stroke-width="0.75" d="M16.72,-298.38C26.92,-304.27 76.81,-333.09 86.84,-338.88"/>
</g>
<!-- 55&#45;&#45;60 -->
<g id="edge145" class="edge">
<title>55&#45;&#45;60</title>
<path fill="none" stroke="black" stroke-width="0.75" d="M17.07,-296.86C30.6,-293.95 103.2,-278.32 116.69,-275.41"/>
</g>
<!-- 56&#45;&#45;61 -->
<g id="edge148" class="edge">
<title>56&#45;&#45;61</title>
<path fill="none" stroke="black" stroke-width="0.75" d="M84.37,-293.15C98.16,-290.27 180.03,-273.19 194,-270.28"/>
</g>
<!-- 56&#45;&#45;58 -->
<g id="edge147" class="edge">
<title>56&#45;&#45;58</title>
<path fill="none" stroke="black" stroke-width="0.75" d="M83.27,-291.51C87.34,-281.99 104.36,-242.18 108.03,-233.58"/>
</g>
<!-- 56&#45;&#45;63 -->
<g id="edge149" class="edge">
<title>56&#45;&#45;63</title>
<path fill="none" stroke="black" stroke-width="0.75" d="M83.82,-294.88C90.31,-300.91 117.1,-325.78 123.69,-331.9"/>
</g>
<!-- 57&#45;&#45;59 -->
<g id="edge151" class="edge">
<title>57&#45;&#45;59</title>
<path fill="none" stroke="black" stroke-width="0.75" d="M53.45,-222.75C66.94,-219.63 147.05,-201.12 160.71,-197.96"/>
</g>
<!-- 57&#45;&#45;58 -->
<g id="edge150" class="edge">
<title>57&#45;&#45;58</title>
<path fill="none" stroke="black" stroke-width="0.75" d="M53.42,-223.49C62.03,-224.81 97.3,-230.2 106.52,-231.61"/>
</g>
<!-- 57&#45;&#45;60 -->
<g id="edge152" class="edge">
<title>57&#45;&#45;60</title>
<path fill="none" stroke="black" stroke-width="0.75" d="M53.18,-224.48C62.58,-231.7 108.88,-267.28 117.48,-273.89"/>
</g>
<!-- 58&#45;&#45;61 -->
<g id="edge154" class="edge">
<title>58&#45;&#45;61</title>
<path fill="none" stroke="black" stroke-width="0.75" d="M110.56,-232.74C121.92,-237.67 182.88,-264.15 194.21,-269.07"/>
</g>
<!-- 58&#45;&#45;59 -->
<g id="edge153" class="edge">
<title>58&#45;&#45;59</title>
<path fill="none" stroke="black" stroke-width="0.75" d="M110.53,-230.8C118.72,-225.57 152.52,-204 160.84,-198.68"/>
</g>
<!-- 62&#45;&#45;64 -->
<g id="edge161" class="edge">
<title>62&#45;&#45;64</title>
<path fill="none" stroke="black" stroke-width="0.75" d="M90.54,-339.5C104.08,-336.77 184.49,-320.56 198.21,-317.8"/>
</g>
<!-- 62&#45;&#45;63 -->
<g id="edge160" class="edge">
<title>62&#45;&#45;63</title>
<path fill="none" stroke="black" stroke-width="0.75" d="M90.57,-339.54C96.86,-338.4 116.46,-334.85 123.01,-333.66"/>
</g>
<!-- 63&#45;&#45;64 -->
<g id="edge162" class="edge">
<title>63&#45;&#45;64</title>
<path fill="none" stroke="black" stroke-width="0.75" d="M127.33,-332.81C138.29,-330.49 187.53,-320.08 198.17,-317.82"/>
</g>
<!-- 60&#45;&#45;64 -->
<g id="edge158" class="edge">
<title>60&#45;&#45;64</title>
<path fill="none" stroke="black" stroke-width="0.75" d="M120.86,-275.99C132.12,-281.87 187.19,-310.61 198.26,-316.38"/>
</g>
<!-- 60&#45;&#45;62 -->
<g id="edge157" class="edge">
<title>60&#45;&#45;62</title>
<path fill="none" stroke="black" stroke-width="0.75" d="M117.98,-276.82C113.56,-286.3 93.71,-328.93 89.42,-338.14"/>
</g>
<!-- 65 -->
<g id="node68" class="node">
<title>65</title>
<ellipse fill="black" stroke="black" cx="25.94" cy="-64.73" rx="1.8" ry="1.8"/>
</g>
<!-- 66 -->
<g id="node69" class="node">
<title>66</title>
<ellipse fill="black" stroke="black" cx="26.33" cy="-123.07" rx="1.8" ry="1.8"/>
</g>
<!-- 65&#45;&#45;66 -->
<g id="edge163" class="edge">
<title>65&#45;&#45;66</title>
<path fill="none" stroke="black" stroke-width="0.75" d="M25.96,-66.68C26.01,-75.45 26.25,-111.42 26.31,-120.82"/>
</g>
<!-- 67 -->
<g id="node70" class="node">
<title>67</title>
<ellipse fill="black" stroke="black" cx="7.72" cy="-157.77" rx="1.8" ry="1.8"/>
</g>
<!-- 65&#45;&#45;67 -->
<g id="edge164" class="edge">
<title>65&#45;&#45;67</title>
<path fill="none" stroke="black" stroke-width="0.75" d="M25.56,-66.68C23.21,-78.68 10.68,-142.64 8.16,-155.51"/>
</g>
<!-- 68 -->
<g id="node71" class="node">
<title>68</title>
<ellipse fill="black" stroke="black" cx="78.15" cy="-74.7" rx="1.8" ry="1.8"/>
</g>
<!-- 65&#45;&#45;68 -->
<g id="edge165" class="edge">
<title>65&#45;&#45;68</title>
<path fill="none" stroke="black" stroke-width="0.75" d="M28.19,-65.16C36.77,-66.8 67.5,-72.67 75.98,-74.28"/>
</g>
<!-- 69 -->
<g id="node72" class="node">
<title>69</title>
<ellipse fill="black" stroke="black" cx="82.91" cy="-123.76" rx="1.8" ry="1.8"/>
</g>
<!-- 65&#45;&#45;69 -->
<g id="edge166" class="edge">
<title>65&#45;&#45;69</title>
<path fill="none" stroke="black" stroke-width="0.75" d="M27.35,-66.19C35.16,-74.29 73.13,-113.62 81.34,-122.13"/>
</g>
<!-- 70 -->
<g id="node73" class="node">
<title>70</title>
<ellipse fill="black" stroke="black" cx="117.81" cy="-62.46" rx="1.8" ry="1.8"/>
</g>
<!-- 65&#45;&#45;70 -->
<g id="edge167" class="edge">
<title>65&#45;&#45;70</title>
<path fill="none" stroke="black" stroke-width="0.75" d="M28.21,-64.68C40.92,-64.36 103.12,-62.82 115.62,-62.51"/>
</g>
<!-- 66&#45;&#45;67 -->
<g id="edge168" class="edge">
<title>66&#45;&#45;67</title>
<path fill="none" stroke="black" stroke-width="0.75" d="M25.33,-124.94C22.07,-131.02 11.77,-150.21 8.64,-156.06"/>
</g>
<!-- 66&#45;&#45;68 -->
<g id="edge169" class="edge">
<title>66&#45;&#45;68</title>
<path fill="none" stroke="black" stroke-width="0.75" d="M27.61,-121.88C34.72,-115.24 69.26,-83 76.73,-76.03"/>
</g>
<!-- 74 -->
<g id="node74" class="node">
<title>74</title>
<ellipse fill="black" stroke="black" cx="69.29" cy="-208.21" rx="1.8" ry="1.8"/>
</g>
<!-- 66&#45;&#45;74 -->
<g id="edge170" class="edge">
<title>66&#45;&#45;74</title>
<path fill="none" stroke="black" stroke-width="0.75" d="M27.23,-124.85C32.82,-135.93 62.82,-195.39 68.39,-206.44"/>
</g>
<!-- 66&#45;&#45;75 -->
<g id="edge171" class="edge">
<title>66&#45;&#45;75</title>
<path fill="none" stroke="black" stroke-width="0.75" d="M28.2,-123.84C39.82,-128.61 102.21,-154.22 113.8,-158.97"/>
</g>
<!-- 67&#45;&#45;69 -->
<g id="edge172" class="edge">
<title>67&#45;&#45;69</title>
<path fill="none" stroke="black" stroke-width="0.75" d="M9.58,-156.93C19.89,-152.26 70,-129.6 80.84,-124.69"/>
</g>
<!-- 67&#45;&#45;74 -->
<g id="edge174" class="edge">
<title>67&#45;&#45;74</title>
<path fill="none" stroke="black" stroke-width="0.75" d="M9.5,-159.22C18.49,-166.59 58.89,-199.69 67.62,-206.84"/>
</g>
<!-- 67&#45;&#45;72 -->
<g id="edge173" class="edge">
<title>67&#45;&#45;72</title>
<path fill="none" stroke="black" stroke-width="0.75" d="M9.74,-158.54C22.33,-163.31 89.89,-188.91 102.45,-193.67"/>
</g>
<!-- 68&#45;&#45;73 -->
<g id="edge176" class="edge">
<title>68&#45;&#45;73</title>
<path fill="none" stroke="black" stroke-width="0.75" d="M80.25,-75.33C90.88,-78.5 138.65,-92.76 148.98,-95.85"/>
</g>
<!-- 68&#45;&#45;70 -->
<g id="edge175" class="edge">
<title>68&#45;&#45;70</title>
<path fill="none" stroke="black" stroke-width="0.75" d="M80.29,-74.04C87.24,-71.9 109.17,-65.12 115.86,-63.06"/>
</g>
<!-- 68&#45;&#45;75 -->
<g id="edge177" class="edge">
<title>68&#45;&#45;75</title>
<path fill="none" stroke="black" stroke-width="0.75" d="M79.08,-76.8C84.27,-88.57 109.66,-146.14 114.76,-157.71"/>
</g>
<!-- 69&#45;&#45;71 -->
<g id="edge179" class="edge">
<title>69&#45;&#45;71</title>
<path fill="none" stroke="black" stroke-width="0.75" d="M84.74,-124.46C96.08,-128.81 156.47,-152.01 168.62,-156.68"/>
</g>
<!-- 69&#45;&#45;70 -->
<g id="edge178" class="edge">
<title>69&#45;&#45;70</title>
<path fill="none" stroke="black" stroke-width="0.75" d="M83.91,-121.99C89.01,-113.04 111.92,-72.81 116.87,-64.12"/>
</g>
<!-- 69&#45;&#45;72 -->
<g id="edge180" class="edge">
<title>69&#45;&#45;72</title>
<path fill="none" stroke="black" stroke-width="0.75" d="M83.53,-125.8C86.68,-136.12 100.82,-182.5 103.88,-192.52"/>
</g>
<!-- 70&#45;&#45;71 -->
<g id="edge181" class="edge">
<title>70&#45;&#45;71</title>
<path fill="none" stroke="black" stroke-width="0.75" d="M118.92,-64.44C125.81,-76.81 162.78,-143.18 169.65,-155.52"/>
</g>
<!-- 70&#45;&#45;73 -->
<g id="edge182" class="edge">
<title>70&#45;&#45;73</title>
<path fill="none" stroke="black" stroke-width="0.75" d="M119.23,-63.92C124.68,-69.5 144.19,-89.5 149.56,-95.02"/>
</g>
<!-- 74&#45;&#45;76 -->
<g id="edge189" class="edge">
<title>74&#45;&#45;76</title>
<path fill="none" stroke="black" stroke-width="0.75" d="M71.4,-209.09C84.57,-214.59 155.27,-244.1 168.41,-249.59"/>
</g>
<!-- 74&#45;&#45;75 -->
<g id="edge188" class="edge">
<title>74&#45;&#45;75</title>
<path fill="none" stroke="black" stroke-width="0.75" d="M70.83,-206.6C78,-199.1 107.96,-167.79 114.42,-161.03"/>
</g>
<!-- 75&#45;&#45;76 -->
<g id="edge190" class="edge">
<title>75&#45;&#45;76</title>
<path fill="none" stroke="black" stroke-width="0.75" d="M116.8,-161.63C123.94,-173.44 162.26,-236.8 169.38,-248.58"/>
</g>
<!-- 72&#45;&#45;76 -->
<g id="edge186" class="edge">
<title>72&#45;&#45;76</title>
<path fill="none" stroke="black" stroke-width="0.75" d="M106.1,-195.82C115.31,-203.64 160.73,-242.16 169.17,-249.32"/>
</g>
<!-- 72&#45;&#45;74 -->
<g id="edge185" class="edge">
<title>72&#45;&#45;74</title>
<path fill="none" stroke="black" stroke-width="0.75" d="M102.57,-195.17C96.52,-197.54 77.66,-204.93 71.36,-207.4"/>
</g>
</g>
</svg>
