<svg xmlns="http://www.w3.org/2000/svg" width="161.8" height="100.0" viewBox="35.451 -23.046 171.803 110.000">
<g fill="none" stroke="black" stroke-width="0.0068%" transform="translate(0, 63.9088) scale(73.1736, -73.1736)">
<circle cx="0.553" cy="0.000" r="0.007" />
<polyline points="0.553,0.000 0.575,-0.001 0.597,-0.002 0.619,-0.004 0.641,-0.007 0.663,-0.011 0.685,-0.015 0.708,-0.019 0.730,-0.023 0.752,-0.028 0.774,-0.032 0.796,-0.036 0.818,-0.040 0.840,-0.043 0.862,-0.046 0.884,-0.048 0.907,-0.049 0.929,-0.049 0.951,-0.048 0.973,-0.046 0.995,-0.043 1.017,-0.038 1.039,-0.031 1.061,-0.023 1.084,-0.012 1.106,0.000 1.128,0.015 1.150,0.033 1.172,0.054 1.194,0.078 1.216,0.104 1.238,0.133 1.260,0.164 1.283,0.198 1.305,0.234 1.327,0.272 1.349,0.312 1.371,0.354 1.393,0.397 1.415,0.442 1.437,0.488 1.459,0.536 1.482,0.584 1.504,0.634 1.526,0.685 1.548,0.736 1.570,0.788 1.592,0.841 1.614,0.894 1.636,0.947 1.658,1.000 1.681,1.047 1.703,1.082 1.725,1.105 1.747,1.118 1.769,1.120 1.791,1.113 1.813,1.096 1.835,1.072 1.857,1.039 1.880,1.000 1.902,0.954 1.924,0.903 1.946,0.846 1.968,0.785 1.990,0.720 2.012,0.652 2.034,0.581 2.056,0.508 2.079,0.435 2.101,0.360 2.123,0.285 2.145,0.212 2.167,0.139 2.189,0.068 2.211,-0.000 2.233,-0.061 2.255,-0.113 2.278,-0.155 2.300,-0.188 2.322,-0.213 2.344,-0.231 2.366,-0.242 2.388,-0.247 2.410,-0.246 2.432,-0.240 2.454,-0.230 2.477,-0.216 2.499,-0.200 2.521,-0.181 2.543,-0.160 2.565,-0.138 2.587,-0.116 2.609,-0.094 2.631,-0.073 2.653,-0.053 2.676,-0.036 2.698,-0.021 2.720,-0.010 2.742,-0.003 2.764,0.000" />
</g>
</svg>