<svg xmlns="http://www.w3.org/2000/svg" width="161.8" height="100.0" viewBox="-3.72 -5.00 171.80 110.00">
<g fill="none" stroke="black" stroke-width="0.0300%" transform="translate(0, 100.0000) scale(16.6667, -16.6667)">
<circle cx="0.08" cy="0.00" r="0.03" />
<polyline points="0.08,0.00 0.15,1.00 0.23,0.00 0.31,2.00 0.39,0.00 0.46,1.00 0.54,0.00 0.62,3.00 0.69,0.00 0.77,1.00 0.85,0.00 0.92,2.00 1.00,0.00 1.08,1.00 1.16,0.00 1.23,4.00 1.31,0.00 1.39,1.00 1.46,0.00 1.54,2.00 1.62,0.00 1.70,1.00 1.77,0.00 1.85,3.00 1.93,0.00 2.00,1.00 2.08,0.00 2.16,2.00 2.23,0.00 2.31,1.00 2.39,0.00 2.47,5.00 2.54,0.00 2.62,1.00 2.70,0.00 2.77,2.00 2.85,0.00 2.93,1.00 3.00,0.00 3.08,3.00 3.16,0.00 3.24,1.00 3.31,0.00 3.39,2.00 3.47,0.00 3.54,1.00 3.62,0.00 3.70,4.00 3.78,0.00 3.85,1.00 3.93,0.00 4.01,2.00 4.08,0.00 4.16,1.00 4.24,0.00 4.31,3.00 4.39,0.00 4.47,1.00 4.55,0.00 4.62,2.00 4.70,0.00 4.78,1.00 4.85,0.00 4.93,6.00 5.01,0.00 5.09,1.00 5.16,0.00 5.24,2.00 5.32,0.00 5.39,1.00 5.47,0.00 5.55,3.00 5.62,0.00 5.70,1.00 5.78,0.00 5.86,2.00 5.93,0.00 6.01,1.00 6.09,0.00 6.16,4.00 6.24,0.00 6.32,1.00 6.40,0.00 6.47,2.00 6.55,0.00 6.63,1.00 6.70,0.00 6.78,3.00 6.86,0.00 6.93,1.00 7.01,0.00 7.09,2.00 7.17,0.00 7.24,1.00 7.32,0.00 7.40,5.00 7.47,0.00 7.55,1.00 7.63,0.00 7.70,2.00 7.78,0.00 7.86,1.00 7.94,0.00 8.01,3.00 8.09,0.00 8.17,1.00 8.24,0.00 8.32,2.00 8.40,0.00 8.48,1.00 8.55,0.00 8.63,4.00 8.71,0.00 8.78,1.00 8.86,0.00 8.94,2.00 9.01,0.00 9.09,1.00 9.17,0.00 9.25,3.00 9.32,0.00 9.40,1.00 9.48,0.00 9.55,2.00 9.63,0.00 9.71,1.00 9.79,0.00" />
</g>
</svg>