<svg xmlns="http://www.w3.org/2000/svg" width="346.4" height="100.0" viewBox="-5.0 -5.0 356.4 110.0">
<g fill="none" stroke="black" stroke-width="0.3507%" transform="translate(0, 100.0000) scale(1.4256, -1.4256)">
<polyline points="0.0,0.0 1.0,0.0 1.5,0.9 2.0,0.0 3.0,0.0 3.5,0.9 3.0,1.7 4.0,1.7 4.5,2.6 5.0,1.7 6.0,1.7 5.5,0.9 6.0,0.0 7.0,0.0 7.5,0.9 8.0,0.0 9.0,0.0 9.5,0.9 9.0,1.7 10.0,1.7 10.5,2.6 10.0,3.5 9.0,3.5 9.5,4.3 9.0,5.2 10.0,5.2 10.5,6.1 11.0,5.2 12.0,5.2 12.5,6.1 12.0,6.9 13.0,6.9 13.5,7.8 14.0,6.9 15.0,6.9 14.5,6.1 15.0,5.2 16.0,5.2 16.5,6.1 17.0,5.2 18.0,5.2 17.5,4.3 18.0,3.5 17.0,3.5 16.5,2.6 17.0,1.7 18.0,1.7 17.5,0.9 18.0,0.0 19.0,0.0 19.5,0.9 20.0,0.0 21.0,0.0 21.5,0.9 21.0,1.7 22.0,1.7 22.5,2.6 23.0,1.7 24.0,1.7 23.5,0.9 24.0,0.0 25.0,0.0 25.5,0.9 26.0,0.0 27.0,0.0 27.5,0.9 27.0,1.7 28.0,1.7 28.5,2.6 28.0,3.5 27.0,3.5 27.5,4.3 27.0,5.2 28.0,5.2 28.5,6.1 29.0,5.2 30.0,5.2 30.5,6.1 30.0,6.9 31.0,6.9 31.5,7.8 31.0,8.7 30.0,8.7 30.5,9.5 30.0,10.4 29.0,10.4 28.5,9.5 28.0,10.4 27.0,10.4 27.5,11.3 27.0,12.1 28.0,12.1 28.5,13.0 28.0,13.9 27.0,13.9 27.5,14.7 27.0,15.6 28.0,15.6 28.5,16.5 29.0,15.6 30.0,15.6 30.5,16.5 30.0,17.3 31.0,17.3 31.5,18.2 32.0,17.3 33.0,17.3 32.5,16.5 33.0,15.6 34.0,15.6 34.5,16.5 35.0,15.6 36.0,15.6 36.5,16.5 36.0,17.3 37.0,17.3 37.5,18.2 37.0,19.1 36.0,19.1 36.5,19.9 36.0,20.8 37.0,20.8 37.5,21.7 38.0,20.8 39.0,20.8 39.5,21.7 39.0,22.5 40.0,22.5 40.5,23.4 41.0,22.5 42.0,22.5 41.5,21.7 42.0,20.8 43.0,20.8 43.5,21.7 44.0,20.8 45.0,20.8 44.5,19.9 45.0,19.1 44.0,19.1 43.5,18.2 44.0,17.3 45.0,17.3 44.5,16.5 45.0,15.6 46.0,15.6 46.5,16.5 47.0,15.6 48.0,15.6 48.5,16.5 48.0,17.3 49.0,17.3 49.5,18.2 50.0,17.3 51.0,17.3 50.5,16.5 51.0,15.6 52.0,15.6 52.5,16.5 53.0,15.6 54.0,15.6 53.5,14.7 54.0,13.9 53.0,13.9 52.5,13.0 53.0,12.1 54.0,12.1 53.5,11.3 54.0,10.4 53.0,10.4 52.5,9.5 52.0,10.4 51.0,10.4 50.5,9.5 51.0,8.7 50.0,8.7 49.5,7.8 50.0,6.9 51.0,6.9 50.5,6.1 51.0,5.2 52.0,5.2 52.5,6.1 53.0,5.2 54.0,5.2 53.5,4.3 54.0,3.5 53.0,3.5 52.5,2.6 53.0,1.7 54.0,1.7 53.5,0.9 54.0,0.0 55.0,0.0 55.5,0.9 56.0,0.0 57.0,0.0 57.5,0.9 57.0,1.7 58.0,1.7 58.5,2.6 59.0,1.7 60.0,1.7 59.5,0.9 60.0,0.0 61.0,0.0 61.5,0.9 62.0,0.0 63.0,0.0 63.5,0.9 63.0,1.7 64.0,1.7 64.5,2.6 64.0,3.5 63.0,3.5 63.5,4.3 63.0,5.2 64.0,5.2 64.5,6.1 65.0,5.2 66.0,5.2 66.5,6.1 66.0,6.9 67.0,6.9 67.5,7.8 68.0,6.9 69.0,6.9 68.5,6.1 69.0,5.2 70.0,5.2 70.5,6.1 71.0,5.2 72.0,5.2 71.5,4.3 72.0,3.5 71.0,3.5 70.5,2.6 71.0,1.7 72.0,1.7 71.5,0.9 72.0,0.0 73.0,0.0 73.5,0.9 74.0,0.0 75.0,0.0 75.5,0.9 75.0,1.7 76.0,1.7 76.5,2.6 77.0,1.7 78.0,1.7 77.5,0.9 78.0,0.0 79.0,0.0 79.5,0.9 80.0,0.0 81.0,0.0 81.5,0.9 81.0,1.7 82.0,1.7 82.5,2.6 82.0,3.5 81.0,3.5 81.5,4.3 81.0,5.2 82.0,5.2 82.5,6.1 83.0,5.2 84.0,5.2 84.5,6.1 84.0,6.9 85.0,6.9 85.5,7.8 85.0,8.7 84.0,8.7 84.5,9.5 84.0,10.4 83.0,10.4 82.5,9.5 82.0,10.4 81.0,10.4 81.5,11.3 81.0,12.1 82.0,12.1 82.5,13.0 82.0,13.9 81.0,13.9 81.5,14.7 81.0,15.6 82.0,15.6 82.5,16.5 83.0,15.6 84.0,15.6 84.5,16.5 84.0,17.3 85.0,17.3 85.5,18.2 86.0,17.3 87.0,17.3 86.5,16.5 87.0,15.6 88.0,15.6 88.5,16.5 89.0,15.6 90.0,15.6 90.5,16.5 90.0,17.3 91.0,17.3 91.5,18.2 91.0,19.1 90.0,19.1 90.5,19.9 90.0,20.8 91.0,20.8 91.5,21.7 92.0,20.8 93.0,20.8 93.5,21.7 93.0,22.5 94.0,22.5 94.5,23.4 94.0,24.2 93.0,24.2 93.5,25.1 93.0,26.0 92.0,26.0 91.5,25.1 91.0,26.0 90.0,26.0 90.5,26.8 90.0,27.7 91.0,27.7 91.5,28.6 91.0,29.4 90.0,29.4 90.5,30.3 90.0,31.2 89.0,31.2 88.5,30.3 88.0,31.2 87.0,31.2 86.5,30.3 87.0,29.4 86.0,29.4 85.5,28.6 85.0,29.4 84.0,29.4 84.5,30.3 84.0,31.2 83.0,31.2 82.5,30.3 82.0,31.2 81.0,31.2 81.5,32.0 81.0,32.9 82.0,32.9 82.5,33.8 82.0,34.6 81.0,34.6 81.5,35.5 81.0,36.4 82.0,36.4 82.5,37.2 83.0,36.4 84.0,36.4 84.5,37.2 84.0,38.1 85.0,38.1 85.5,39.0 85.0,39.8 84.0,39.8 84.5,40.7 84.0,41.6 83.0,41.6 82.5,40.7 82.0,41.6 81.0,41.6 81.5,42.4 81.0,43.3 82.0,43.3 82.5,44.2 82.0,45.0 81.0,45.0 81.5,45.9 81.0,46.8 82.0,46.8 82.5,47.6 83.0,46.8 84.0,46.8 84.5,47.6 84.0,48.5 85.0,48.5 85.5,49.4 86.0,48.5 87.0,48.5 86.5,47.6 87.0,46.8 88.0,46.8 88.5,47.6 89.0,46.8 90.0,46.8 90.5,47.6 90.0,48.5 91.0,48.5 91.5,49.4 91.0,50.2 90.0,50.2 90.5,51.1 90.0,52.0 91.0,52.0 91.5,52.8 92.0,52.0 93.0,52.0 93.5,52.8 93.0,53.7 94.0,53.7 94.5,54.6 95.0,53.7 96.0,53.7 95.5,52.8 96.0,52.0 97.0,52.0 97.5,52.8 98.0,52.0 99.0,52.0 98.5,51.1 99.0,50.2 98.0,50.2 97.5,49.4 98.0,48.5 99.0,48.5 98.5,47.6 99.0,46.8 100.0,46.8 100.5,47.6 101.0,46.8 102.0,46.8 102.5,47.6 102.0,48.5 103.0,48.5 103.5,49.4 104.0,48.5 105.0,48.5 104.5,47.6 105.0,46.8 106.0,46.8 106.5,47.6 107.0,46.8 108.0,46.8 108.5,47.6 108.0,48.5 109.0,48.5 109.5,49.4 109.0,50.2 108.0,50.2 108.5,51.1 108.0,52.0 109.0,52.0 109.5,52.8 110.0,52.0 111.0,52.0 111.5,52.8 111.0,53.7 112.0,53.7 112.5,54.6 112.0,55.4 111.0,55.4 111.5,56.3 111.0,57.2 110.0,57.2 109.5,56.3 109.0,57.2 108.0,57.2 108.5,58.0 108.0,58.9 109.0,58.9 109.5,59.8 109.0,60.6 108.0,60.6 108.5,61.5 108.0,62.4 109.0,62.4 109.5,63.2 110.0,62.4 111.0,62.4 111.5,63.2 111.0,64.1 112.0,64.1 112.5,65.0 113.0,64.1 114.0,64.1 113.5,63.2 114.0,62.4 115.0,62.4 115.5,63.2 116.0,62.4 117.0,62.4 117.5,63.2 117.0,64.1 118.0,64.1 118.5,65.0 118.0,65.8 117.0,65.8 117.5,66.7 117.0,67.5 118.0,67.5 118.5,68.4 119.0,67.5 120.0,67.5 120.5,68.4 120.0,69.3 121.0,69.3 121.5,70.1 122.0,69.3 123.0,69.3 122.5,68.4 123.0,67.5 124.0,67.5 124.5,68.4 125.0,67.5 126.0,67.5 125.5,66.7 126.0,65.8 125.0,65.8 124.5,65.0 125.0,64.1 126.0,64.1 125.5,63.2 126.0,62.4 127.0,62.4 127.5,63.2 128.0,62.4 129.0,62.4 129.5,63.2 129.0,64.1 130.0,64.1 130.5,65.0 131.0,64.1 132.0,64.1 131.5,63.2 132.0,62.4 133.0,62.4 133.5,63.2 134.0,62.4 135.0,62.4 134.5,61.5 135.0,60.6 134.0,60.6 133.5,59.8 134.0,58.9 135.0,58.9 134.5,58.0 135.0,57.2 134.0,57.2 133.5,56.3 133.0,57.2 132.0,57.2 131.5,56.3 132.0,55.4 131.0,55.4 130.5,54.6 131.0,53.7 132.0,53.7 131.5,52.8 132.0,52.0 133.0,52.0 133.5,52.8 134.0,52.0 135.0,52.0 134.5,51.1 135.0,50.2 134.0,50.2 133.5,49.4 134.0,48.5 135.0,48.5 134.5,47.6 135.0,46.8 136.0,46.8 136.5,47.6 137.0,46.8 138.0,46.8 138.5,47.6 138.0,48.5 139.0,48.5 139.5,49.4 140.0,48.5 141.0,48.5 140.5,47.6 141.0,46.8 142.0,46.8 142.5,47.6 143.0,46.8 144.0,46.8 144.5,47.6 144.0,48.5 145.0,48.5 145.5,49.4 145.0,50.2 144.0,50.2 144.5,51.1 144.0,52.0 145.0,52.0 145.5,52.8 146.0,52.0 147.0,52.0 147.5,52.8 147.0,53.7 148.0,53.7 148.5,54.6 149.0,53.7 150.0,53.7 149.5,52.8 150.0,52.0 151.0,52.0 151.5,52.8 152.0,52.0 153.0,52.0 152.5,51.1 153.0,50.2 152.0,50.2 151.5,49.4 152.0,48.5 153.0,48.5 152.5,47.6 153.0,46.8 154.0,46.8 154.5,47.6 155.0,46.8 156.0,46.8 156.5,47.6 156.0,48.5 157.0,48.5 157.5,49.4 158.0,48.5 159.0,48.5 158.5,47.6 159.0,46.8 160.0,46.8 160.5,47.6 161.0,46.8 162.0,46.8 161.5,45.9 162.0,45.0 161.0,45.0 160.5,44.2 161.0,43.3 162.0,43.3 161.5,42.4 162.0,41.6 161.0,41.6 160.5,40.7 160.0,41.6 159.0,41.6 158.5,40.7 159.0,39.8 158.0,39.8 157.5,39.0 158.0,38.1 159.0,38.1 158.5,37.2 159.0,36.4 160.0,36.4 160.5,37.2 161.0,36.4 162.0,36.4 161.5,35.5 162.0,34.6 161.0,34.6 160.5,33.8 161.0,32.9 162.0,32.9 161.5,32.0 162.0,31.2 161.0,31.2 160.5,30.3 160.0,31.2 159.0,31.2 158.5,30.3 159.0,29.4 158.0,29.4 157.5,28.6 157.0,29.4 156.0,29.4 156.5,30.3 156.0,31.2 155.0,31.2 154.5,30.3 154.0,31.2 153.0,31.2 152.5,30.3 153.0,29.4 152.0,29.4 151.5,28.6 152.0,27.7 153.0,27.7 152.5,26.8 153.0,26.0 152.0,26.0 151.5,25.1 151.0,26.0 150.0,26.0 149.5,25.1 150.0,24.2 149.0,24.2 148.5,23.4 149.0,22.5 150.0,22.5 149.5,21.7 150.0,20.8 151.0,20.8 151.5,21.7 152.0,20.8 153.0,20.8 152.5,19.9 153.0,19.1 152.0,19.1 151.5,18.2 152.0,17.3 153.0,17.3 152.5,16.5 153.0,15.6 154.0,15.6 154.5,16.5 155.0,15.6 156.0,15.6 156.5,16.5 156.0,17.3 157.0,17.3 157.5,18.2 158.0,17.3 159.0,17.3 158.5,16.5 159.0,15.6 160.0,15.6 160.5,16.5 161.0,15.6 162.0,15.6 161.5,14.7 162.0,13.9 161.0,13.9 160.5,13.0 161.0,12.1 162.0,12.1 161.5,11.3 162.0,10.4 161.0,10.4 160.5,9.5 160.0,10.4 159.0,10.4 158.5,9.5 159.0,8.7 158.0,8.7 157.5,7.8 158.0,6.9 159.0,6.9 158.5,6.1 159.0,5.2 160.0,5.2 160.5,6.1 161.0,5.2 162.0,5.2 161.5,4.3 162.0,3.5 161.0,3.5 160.5,2.6 161.0,1.7 162.0,1.7 161.5,0.9 162.0,0.0 163.0,0.0 163.5,0.9 164.0,0.0 165.0,0.0 165.5,0.9 165.0,1.7 166.0,1.7 166.5,2.6 167.0,1.7 168.0,1.7 167.5,0.9 168.0,0.0 169.0,0.0 169.5,0.9 170.0,0.0 171.0,0.0 171.5,0.9 171.0,1.7 172.0,1.7 172.5,2.6 172.0,3.5 171.0,3.5 171.5,4.3 171.0,5.2 172.0,5.2 172.5,6.1 173.0,5.2 174.0,5.2 174.5,6.1 174.0,6.9 175.0,6.9 175.5,7.8 176.0,6.9 177.0,6.9 176.5,6.1 177.0,5.2 178.0,5.2 178.5,6.1 179.0,5.2 180.0,5.2 179.5,4.3 180.0,3.5 179.0,3.5 178.5,2.6 179.0,1.7 180.0,1.7 179.5,0.9 180.0,0.0 181.0,0.0 181.5,0.9 182.0,0.0 183.0,0.0 183.5,0.9 183.0,1.7 184.0,1.7 184.5,2.6 185.0,1.7 186.0,1.7 185.5,0.9 186.0,0.0 187.0,0.0 187.5,0.9 188.0,0.0 189.0,0.0 189.5,0.9 189.0,1.7 190.0,1.7 190.5,2.6 190.0,3.5 189.0,3.5 189.5,4.3 189.0,5.2 190.0,5.2 190.5,6.1 191.0,5.2 192.0,5.2 192.5,6.1 192.0,6.9 193.0,6.9 193.5,7.8 193.0,8.7 192.0,8.7 192.5,9.5 192.0,10.4 191.0,10.4 190.5,9.5 190.0,10.4 189.0,10.4 189.5,11.3 189.0,12.1 190.0,12.1 190.5,13.0 190.0,13.9 189.0,13.9 189.5,14.7 189.0,15.6 190.0,15.6 190.5,16.5 191.0,15.6 192.0,15.6 192.5,16.5 192.0,17.3 193.0,17.3 193.5,18.2 194.0,17.3 195.0,17.3 194.5,16.5 195.0,15.6 196.0,15.6 196.5,16.5 197.0,15.6 198.0,15.6 198.5,16.5 198.0,17.3 199.0,17.3 199.5,18.2 199.0,19.1 198.0,19.1 198.5,19.9 198.0,20.8 199.0,20.8 199.5,21.7 200.0,20.8 201.0,20.8 201.5,21.7 201.0,22.5 202.0,22.5 202.5,23.4 203.0,22.5 204.0,22.5 203.5,21.7 204.0,20.8 205.0,20.8 205.5,21.7 206.0,20.8 207.0,20.8 206.5,19.9 207.0,19.1 206.0,19.1 205.5,18.2 206.0,17.3 207.0,17.3 206.5,16.5 207.0,15.6 208.0,15.6 208.5,16.5 209.0,15.6 210.0,15.6 210.5,16.5 210.0,17.3 211.0,17.3 211.5,18.2 212.0,17.3 213.0,17.3 212.5,16.5 213.0,15.6 214.0,15.6 214.5,16.5 215.0,15.6 216.0,15.6 215.5,14.7 216.0,13.9 215.0,13.9 214.5,13.0 215.0,12.1 216.0,12.1 215.5,11.3 216.0,10.4 215.0,10.4 214.5,9.5 214.0,10.4 213.0,10.4 212.5,9.5 213.0,8.7 212.0,8.7 211.5,7.8 212.0,6.9 213.0,6.9 212.5,6.1 213.0,5.2 214.0,5.2 214.5,6.1 215.0,5.2 216.0,5.2 215.5,4.3 216.0,3.5 215.0,3.5 214.5,2.6 215.0,1.7 216.0,1.7 215.5,0.9 216.0,0.0 217.0,0.0 217.5,0.9 218.0,0.0 219.0,0.0 219.5,0.9 219.0,1.7 220.0,1.7 220.5,2.6 221.0,1.7 222.0,1.7 221.5,0.9 222.0,0.0 223.0,0.0 223.5,0.9 224.0,0.0 225.0,0.0 225.5,0.9 225.0,1.7 226.0,1.7 226.5,2.6 226.0,3.5 225.0,3.5 225.5,4.3 225.0,5.2 226.0,5.2 226.5,6.1 227.0,5.2 228.0,5.2 228.5,6.1 228.0,6.9 229.0,6.9 229.5,7.8 230.0,6.9 231.0,6.9 230.5,6.1 231.0,5.2 232.0,5.2 232.5,6.1 233.0,5.2 234.0,5.2 233.5,4.3 234.0,3.5 233.0,3.5 232.5,2.6 233.0,1.7 234.0,1.7 233.5,0.9 234.0,0.0 235.0,0.0 235.5,0.9 236.0,0.0 237.0,0.0 237.5,0.9 237.0,1.7 238.0,1.7 238.5,2.6 239.0,1.7 240.0,1.7 239.5,0.9 240.0,0.0 241.0,0.0 241.5,0.9 242.0,0.0 243.0,0.0" />
</g>
</svg>