<svg xmlns="http://www.w3.org/2000/svg" width="133.3" height="100.0" viewBox="-38.333 -38.333 143.333 110.000">
<g fill="none" stroke="black" stroke-width="0.0150%" transform="translate(0, 33.3333) scale(33.3333, -33.3333)">
<circle cx="-0.200" cy="1.100" r="0.015" />
<circle cx="0.325" cy="1.275" r="0.015" />
<circle cx="2.000" cy="0.000" r="0.015" />
<circle cx="-0.675" cy="0.275" r="0.015" />
<circle cx="1.000" cy="-1.000" r="0.015" />
<circle cx="0.800" cy="0.100" r="0.015" />
<circle cx="0.000" cy="1.000" r="0.015" />
<circle cx="1.325" cy="0.275" r="0.015" />
<circle cx="-1.000" cy="0.000" r="0.015" />
<circle cx="1.000" cy="0.000" r="0.015" />
<circle cx="0.000" cy="2.000" r="0.015" />
<circle cx="-0.200" cy="0.100" r="0.015" />
<circle cx="-1.000" cy="1.000" r="0.015" />
<circle cx="3.000" cy="0.000" r="0.015" />
<circle cx="0.325" cy="0.275" r="0.015" />
<circle cx="1.000" cy="1.000" r="0.015" />
<circle cx="0.000" cy="0.000" r="0.015" />
<line x1="-0.200" y1="1.100" x2="0.000" y2="1.000" />
<line x1="-0.200" y1="1.100" x2="-0.200" y2="0.100" />
<line x1="0.325" y1="1.275" x2="0.000" y2="1.000" />
<line x1="0.325" y1="1.275" x2="0.325" y2="0.275" />
<line x1="2.000" y1="0.000" x2="1.000" y2="0.000" />
<line x1="2.000" y1="0.000" x2="3.000" y2="0.000" />
<line x1="-0.675" y1="0.275" x2="-1.000" y2="0.000" />
<line x1="-0.675" y1="0.275" x2="0.325" y2="0.275" />
<line x1="1.000" y1="-1.000" x2="1.000" y2="0.000" />
<line x1="0.800" y1="0.100" x2="1.000" y2="0.000" />
<line x1="0.800" y1="0.100" x2="-0.200" y2="0.100" />
<line x1="0.000" y1="1.000" x2="0.000" y2="2.000" />
<line x1="0.000" y1="1.000" x2="-1.000" y2="1.000" />
<line x1="0.000" y1="1.000" x2="1.000" y2="1.000" />
<line x1="0.000" y1="1.000" x2="0.000" y2="0.000" />
<line x1="1.325" y1="0.275" x2="1.000" y2="0.000" />
<line x1="1.325" y1="0.275" x2="0.325" y2="0.275" />
<line x1="-1.000" y1="0.000" x2="-1.000" y2="1.000" />
<line x1="-1.000" y1="0.000" x2="0.000" y2="0.000" />
<line x1="1.000" y1="0.000" x2="1.000" y2="1.000" />
<line x1="1.000" y1="0.000" x2="0.000" y2="0.000" />
<line x1="-0.200" y1="0.100" x2="0.000" y2="0.000" />
<line x1="0.325" y1="0.275" x2="0.000" y2="0.000" />
</g>
</svg>