<svg xmlns="http://www.w3.org/2000/svg" width="161.8" height="100.0" viewBox="-5.00 -11.25 171.80 110.00">
<g fill="none" stroke="black" stroke-width="0.0160%" transform="translate(0, 87.5000) scale(31.2500, -31.2500)">
<circle cx="0.00" cy="0.00" r="0.02" />
<circle cx="0.00" cy="3.00" r="0.02" />
<polyline points="0.00,0.00 0.05,0.06 0.10,0.12 0.16,0.18 0.21,0.24 0.26,0.30 0.31,0.32 0.36,0.33 0.41,0.34 0.47,0.36 0.52,0.37 0.57,0.39 0.62,0.40 0.67,0.42 0.72,0.43 0.78,0.45 0.83,0.46 0.88,0.48 0.93,0.49 0.98,0.51 1.04,0.53 1.09,0.54 1.14,0.55 1.19,0.57 1.24,0.58 1.29,0.60 1.35,0.57 1.40,0.54 1.45,0.50 1.50,0.47 1.55,0.44 1.61,0.41 1.66,0.38 1.71,0.34 1.76,0.31 1.81,0.28 1.86,0.25 1.92,0.22 1.97,0.18 2.02,0.15 2.07,0.12 2.12,0.09 2.17,0.06 2.23,0.02 2.28,-0.01 2.33,-0.04 2.38,-0.07 2.43,-0.10 2.49,-0.14 2.54,-0.17 2.59,-0.20 2.64,-0.14 2.69,-0.07 2.74,-0.01 2.80,0.06 2.85,0.12 2.90,0.18 2.95,0.25 3.00,0.31 3.05,0.38 3.11,0.44 3.16,0.50 3.21,0.57 3.26,0.63 3.31,0.70 3.37,0.76 3.42,0.82 3.47,0.89 3.52,0.95 3.57,1.02 3.62,1.08 3.68,1.14 3.73,1.21 3.78,1.27 3.83,1.34 3.88,1.40 3.94,1.46 3.99,1.53 4.04,1.59 4.09,1.66 4.14,1.72 4.19,1.78 4.25,1.85 4.30,1.91 4.35,1.98 4.40,2.04 4.45,2.10 4.50,2.17 4.56,2.23 4.61,2.30 4.66,2.36 4.71,2.42 4.76,2.49 4.82,2.55 4.87,2.62 4.92,2.68 4.97,2.74 5.02,2.81 5.07,2.87 5.13,2.94 5.18,3.00" />
</g>
</svg>