<svg xmlns="http://www.w3.org/2000/svg" width="100.0" height="100.0" viewBox="-55.00 -55.00 110.00 110.00">
<g fill="none" stroke="black" stroke-width="0.0200%" transform="translate(0, 0.0000) scale(25.0000, -25.0000)">
<circle cx="-2.00" cy="0.00" r="0.02" />
<circle cx="0.00" cy="2.00" r="0.02" />
<polyline points="-2.00,-2.00 -1.96,-2.00 -1.92,-2.00 -1.88,-1.99 -1.84,-1.97 -1.80,-1.94 -1.76,-1.88 -1.72,-1.82 -1.68,-1.75 -1.64,-1.73 -1.60,-1.63 -1.56,-1.54 -1.52,-1.50 -1.48,-1.50 -1.44,-1.46 -1.40,-1.38 -1.36,-1.27 -1.32,-1.25 -1.28,-1.18 -1.24,-1.12 -1.20,-1.06 -1.16,-1.03 -1.12,-1.01 -1.08,-1.00 -1.04,-1.00 -1.00,-1.00 -0.96,-1.00 -0.92,-1.00 -0.88,-0.99 -0.84,-0.97 -0.80,-0.94 -0.76,-0.88 -0.72,-0.82 -0.68,-0.75 -0.64,-0.73 -0.60,-0.63 -0.56,-0.54 -0.52,-0.50 -0.48,-0.50 -0.44,-0.46 -0.40,-0.38 -0.36,-0.27 -0.32,-0.25 -0.28,-0.18 -0.24,-0.12 -0.20,-0.06 -0.16,-0.03 -0.12,-0.01 -0.08,-0.00 -0.04,-0.00 0.00,0.00 0.04,0.00 0.08,0.00 0.12,0.01 0.16,0.03 0.20,0.06 0.24,0.12 0.28,0.18 0.32,0.25 0.36,0.27 0.40,0.38 0.44,0.46 0.48,0.50 0.52,0.50 0.56,0.54 0.60,0.63 0.64,0.73 0.68,0.75 0.72,0.82 0.76,0.88 0.80,0.94 0.84,0.97 0.88,0.99 0.92,1.00 0.96,1.00 1.00,1.00 1.04,1.00 1.08,1.00 1.12,1.01 1.16,1.03 1.20,1.06 1.24,1.12 1.28,1.18 1.32,1.25 1.36,1.27 1.40,1.38 1.44,1.46 1.48,1.50 1.52,1.50 1.56,1.54 1.60,1.63 1.64,1.73 1.68,1.75 1.72,1.82 1.76,1.88 1.80,1.94 1.84,1.97 1.88,1.99 1.92,2.00 1.96,2.00 2.00,2.00" />
</g>
</svg>