<svg xmlns="http://www.w3.org/2000/svg" width="161.8" height="100.0" viewBox="-5.0000 -55.0000 171.8034 110.0000">
<g fill="none" stroke="black" stroke-width="0.0014%" transform="translate(0, -0.0000) scale(363.9900, -363.9900)">
<circle cx="0.0000" cy="0.0000" r="0.0014" />
<circle cx="0.0000" cy="0.1374" r="0.0014" />
<polyline points="0.0000,0.0000 0.0044,0.1306 0.0089,0.1374 0.0133,0.1317 0.0178,0.1356 0.0222,0.1265 0.0267,0.1172 0.0311,0.1258 0.0356,0.1149 0.0400,0.1003 0.0445,0.0929 0.0489,0.0820 0.0533,0.0710 0.0578,0.0943 0.0622,0.0820 0.0667,0.0694 0.0711,0.0591 0.0756,0.0431 0.0800,0.0295 0.0845,0.0279 0.0889,0.0142 0.0934,0.0003 0.0978,-0.0073 0.1022,-0.0204 0.1067,-0.0287 0.1111,-0.0000 0.1156,0.0287 0.1200,0.0204 0.1245,0.0073 0.1289,-0.0003 0.1334,-0.0142 0.1378,-0.0279 0.1422,-0.0295 0.1467,-0.0431 0.1511,-0.0591 0.1556,-0.0694 0.1600,-0.0820 0.1645,-0.0943 0.1689,-0.0710 0.1734,-0.0820 0.1778,-0.0929 0.1823,-0.1003 0.1867,-0.1149 0.1911,-0.1258 0.1956,-0.1172 0.2000,-0.1265 0.2045,-0.1356 0.2089,-0.1317 0.2134,-0.1374 0.2178,-0.1306 0.2223,0.0192 0.2267,0.1306 0.2312,0.1374 0.2356,0.1317 0.2400,0.1356 0.2445,0.1265 0.2489,0.1172 0.2534,0.1258 0.2578,0.1149 0.2623,0.1003 0.2667,0.0929 0.2712,0.0820 0.2756,0.0710 0.2801,0.0943 0.2845,0.0820 0.2889,0.0694 0.2934,0.0591 0.2978,0.0431 0.3023,0.0295 0.3067,0.0279 0.3112,0.0142 0.3156,0.0003 0.3201,-0.0073 0.3245,-0.0204 0.3289,-0.0287 0.3334,0.0051 0.3378,0.0287 0.3423,0.0204 0.3467,0.0073 0.3512,-0.0003 0.3556,-0.0142 0.3601,-0.0279 0.3645,-0.0295 0.3690,-0.0431 0.3734,-0.0591 0.3778,-0.0694 0.3823,-0.0820 0.3867,-0.0943 0.3912,-0.0710 0.3956,-0.0820 0.4001,-0.0929 0.4045,-0.1003 0.4090,-0.1149 0.4134,-0.1258 0.4179,-0.1172 0.4223,-0.1265 0.4267,-0.1356 0.4312,-0.1317 0.4356,-0.1374 0.4401,-0.1306 0.4445,0.0000" />
</g>
</svg>