<svg xmlns="http://www.w3.org/2000/svg" width="161.8" height="100.0" viewBox="-1.70 -5.00 171.80 110.00">
<g fill="none" stroke="black" stroke-width="0.0300%" transform="translate(0, 100.0000) scale(16.6667, -16.6667)">
<circle cx="0.20" cy="0.00" r="0.03" />
<polyline points="0.20,1.00 0.40,3.00 0.59,6.00 0.79,3.00 0.99,6.00 1.19,2.00 1.39,0.00 1.59,1.00 1.78,3.00 1.98,6.00 2.18,3.00 2.38,6.00 2.58,2.00 2.77,0.00 2.97,1.00 3.17,3.00 3.37,6.00 3.57,3.00 3.76,6.00 3.96,2.00 4.16,0.00 4.36,1.00 4.56,3.00 4.76,6.00 4.95,3.00 5.15,6.00 5.35,2.00 5.55,0.00 5.75,1.00 5.94,3.00 6.14,6.00 6.34,3.00 6.54,6.00 6.74,2.00 6.93,0.00 7.13,1.00 7.33,3.00 7.53,6.00 7.73,3.00 7.93,6.00 8.12,2.00 8.32,0.00 8.52,1.00 8.72,3.00 8.92,6.00 9.11,3.00 9.31,6.00 9.51,2.00 9.71,0.00 9.91,1.00" />
</g>
</svg>