<svg xmlns="http://www.w3.org/2000/svg" width="161.8" height="100.0" viewBox="-3.35 -4.97 171.80 110.00">
<g fill="none" stroke="black" stroke-width="0.0377%" transform="translate(0, 100.0501) scale(13.2592, -13.2592)">
<polyline points="0.12,7.54 0.25,2.28 0.37,2.16 0.50,4.42 0.62,1.14 0.75,0.60 0.87,0.27 1.00,0.22 1.12,0.46 1.25,0.34 1.37,0.50 1.49,1.29 1.62,1.44 1.74,1.08 1.87,0.09 1.99,3.57 2.12,0.18 2.24,1.69 2.37,1.66 2.49,3.20 2.61,0.02 2.74,1.08 2.86,4.30 2.99,0.07 3.11,0.23 3.24,0.49 3.36,1.18 3.49,0.29 3.61,0.00 3.74,0.14 3.86,1.37 3.98,3.97 4.11,1.13 4.23,0.00 4.36,0.54 4.48,0.27 4.61,1.38 4.73,0.97 4.86,0.73 4.98,0.52 5.11,2.65 5.23,0.13 5.35,4.84 5.48,3.30 5.60,0.81 5.73,0.13 5.85,3.04 5.98,2.54 6.10,0.73 6.23,0.02 6.35,0.78 6.48,3.31 6.60,0.67 6.72,0.10 6.85,0.67 6.97,1.14 7.10,0.41 7.22,0.83 7.35,1.10 7.47,0.05 7.60,0.39 7.72,0.41 7.84,0.28 7.97,0.05 8.09,1.22 8.22,0.98 8.34,4.61 8.47,0.89 8.59,4.31 8.72,0.63 8.84,0.05 8.97,0.86 9.09,1.45 9.21,0.76 9.34,0.11 9.46,3.73 9.59,1.35 9.71,2.98 9.84,0.49 9.96,2.61 10.09,1.61 10.21,1.32 10.34,0.78 10.46,1.04 10.58,0.63 10.71,0.16 10.83,0.41 10.96,1.64 11.08,2.34 11.21,0.18 11.33,0.00 11.46,0.09 11.58,2.19 11.70,1.27 11.83,0.02 11.95,0.06 12.08,2.22 12.20,0.94 12.33,0.40" />
</g>
</svg>