<svg xmlns="http://www.w3.org/2000/svg" width="100.0" height="100.0" viewBox="-55.000 -55.000 110.000 110.000">
<g fill="none" stroke="black" stroke-width="0.0100%" transform="translate(0, 0.0000) scale(50.0000, -50.0000)">
<circle cx="-1.000" cy="0.000" r="0.010" />
<circle cx="0.000" cy="1.000" r="0.010" />
<polyline points="-1.000,-1.000 -0.980,-0.993 -0.960,-0.986 -0.940,-0.980 -0.920,-0.973 -0.900,-0.965 -0.880,-0.958 -0.860,-0.951 -0.840,-0.944 -0.820,-0.936 -0.800,-0.928 -0.780,-0.921 -0.760,-0.913 -0.740,-0.905 -0.720,-0.896 -0.700,-0.888 -0.680,-0.879 -0.660,-0.871 -0.640,-0.862 -0.620,-0.853 -0.600,-0.843 -0.580,-0.834 -0.560,-0.824 -0.540,-0.814 -0.520,-0.804 -0.500,-0.794 -0.480,-0.783 -0.460,-0.772 -0.440,-0.761 -0.420,-0.749 -0.400,-0.737 -0.380,-0.724 -0.360,-0.711 -0.340,-0.698 -0.320,-0.684 -0.300,-0.669 -0.280,-0.654 -0.260,-0.638 -0.240,-0.621 -0.220,-0.604 -0.200,-0.585 -0.180,-0.565 -0.160,-0.543 -0.140,-0.519 -0.120,-0.493 -0.100,-0.464 -0.080,-0.431 -0.060,-0.391 -0.040,-0.342 -0.020,-0.271 0.000,0.000 0.020,0.271 0.040,0.342 0.060,0.391 0.080,0.431 0.100,0.464 0.120,0.493 0.140,0.519 0.160,0.543 0.180,0.565 0.200,0.585 0.220,0.604 0.240,0.621 0.260,0.638 0.280,0.654 0.300,0.669 0.320,0.684 0.340,0.698 0.360,0.711 0.380,0.724 0.400,0.737 0.420,0.749 0.440,0.761 0.460,0.772 0.480,0.783 0.500,0.794 0.520,0.804 0.540,0.814 0.560,0.824 0.580,0.834 0.600,0.843 0.620,0.853 0.640,0.862 0.660,0.871 0.680,0.879 0.700,0.888 0.720,0.896 0.740,0.905 0.760,0.913 0.780,0.921 0.800,0.928 0.820,0.936 0.840,0.944 0.860,0.951 0.880,0.958 0.900,0.965 0.920,0.973 0.940,0.980 0.960,0.986 0.980,0.993 1.000,1.000" />
</g>
</svg>