<svg xmlns="http://www.w3.org/2000/svg" width="161.8" height="100.0" viewBox="-85.902 -5.000 171.803 110.000">
<g fill="none" stroke="black" stroke-width="0.0071%" transform="translate(0, 100.0000) scale(70.7107, -70.7107)">
<circle cx="0.000" cy="1.414" r="0.007" />
<polyline points="-1.144,1.000 -1.121,1.000 -1.098,1.000 -1.075,1.000 -1.053,1.000 -1.030,1.000 -1.007,1.000 -0.984,1.000 -0.961,1.000 -0.938,1.000 -0.915,1.000 -0.892,1.000 -0.870,1.000 -0.847,1.000 -0.824,1.000 -0.801,1.000 -0.778,1.000 -0.755,1.000 -0.732,1.000 -0.709,1.000 -0.686,1.000 -0.664,1.000 -0.641,1.000 -0.618,1.000 -0.595,1.000 -0.572,1.000 -0.549,1.000 -0.526,1.000 -0.503,1.000 -0.481,1.000 -0.458,1.000 -0.435,1.000 -0.412,1.000 -0.389,1.000 -0.366,1.000 -0.343,1.000 -0.320,1.000 -0.297,1.000 -0.275,1.000 -0.252,1.000 -0.229,1.000 -0.206,1.000 -0.183,1.000 -0.160,1.000 -0.137,1.000 -0.114,1.000 -0.092,1.000 -0.069,1.000 -0.046,1.000 -0.023,1.000 0.000,0.000 0.023,0.200 0.046,0.283 0.069,0.346 0.092,0.400 0.114,0.447 0.137,0.490 0.160,0.529 0.183,0.566 0.206,0.600 0.229,0.632 0.252,0.663 0.275,0.693 0.297,0.721 0.320,0.748 0.343,0.775 0.366,0.800 0.389,0.825 0.412,0.849 0.435,0.872 0.458,0.894 0.481,0.917 0.503,0.938 0.526,0.959 0.549,0.980 0.572,1.000 0.595,1.020 0.618,1.039 0.641,1.058 0.664,1.077 0.686,1.095 0.709,1.114 0.732,1.131 0.755,1.149 0.778,1.166 0.801,1.183 0.824,1.200 0.847,1.217 0.870,1.233 0.892,1.249 0.915,1.265 0.938,1.281 0.961,1.296 0.984,1.311 1.007,1.327 1.030,1.342 1.053,1.356 1.075,1.371 1.098,1.386 1.121,1.400 1.144,1.414" />
</g>
</svg>