<svg xmlns="http://www.w3.org/2000/svg" width="161.8" height="100.0" viewBox="-85.902 -22.782 171.803 110.000">
<g fill="none" stroke="black" stroke-width="0.0061%" transform="translate(0, 64.4367) scale(82.2184, -82.2184)">
<circle cx="-0.984" cy="0.000" r="0.006" />
<circle cx="0.000" cy="1.000" r="0.006" />
<polyline points="-0.984,-0.054 -0.964,-0.037 -0.945,-0.018 -0.925,0.003 -0.905,0.024 -0.886,0.046 -0.866,0.066 -0.846,0.085 -0.827,0.102 -0.807,0.115 -0.787,0.124 -0.768,0.128 -0.748,0.127 -0.728,0.121 -0.708,0.110 -0.689,0.094 -0.669,0.073 -0.649,0.047 -0.630,0.018 -0.610,-0.013 -0.590,-0.047 -0.571,-0.080 -0.551,-0.113 -0.531,-0.143 -0.512,-0.170 -0.492,-0.192 -0.472,-0.208 -0.453,-0.216 -0.433,-0.216 -0.413,-0.208 -0.394,-0.189 -0.374,-0.161 -0.354,-0.123 -0.335,-0.075 -0.315,-0.018 -0.295,0.047 -0.276,0.120 -0.256,0.198 -0.236,0.281 -0.216,0.367 -0.197,0.455 -0.177,0.541 -0.157,0.625 -0.138,0.704 -0.118,0.777 -0.098,0.841 -0.079,0.897 -0.059,0.941 -0.039,0.974 -0.020,0.993 -0.000,1.000 0.020,1.000 0.039,0.998 0.059,0.996 0.079,0.994 0.098,0.990 0.118,0.986 0.138,0.980 0.157,0.974 0.177,0.968 0.197,0.960 0.216,0.952 0.236,0.942 0.256,0.932 0.276,0.922 0.295,0.910 0.315,0.898 0.335,0.884 0.354,0.870 0.374,0.856 0.394,0.840 0.413,0.824 0.433,0.806 0.453,0.788 0.472,0.770 0.492,0.750 0.512,0.730 0.531,0.708 0.551,0.686 0.571,0.664 0.590,0.640 0.610,0.616 0.630,0.590 0.649,0.564 0.669,0.538 0.689,0.510 0.708,0.482 0.728,0.452 0.748,0.422 0.768,0.392 0.787,0.360 0.807,0.328 0.827,0.294 0.846,0.260 0.866,0.226 0.886,0.190 0.905,0.154 0.925,0.116 0.945,0.078 0.964,0.040 0.984,0.000" />
</g>
</svg>