<svg xmlns="http://www.w3.org/2000/svg" width="104.3" height="100.0" viewBox="-57.136 -55.000 114.272 110.000">
<g fill="none" stroke="black" stroke-width="0.0140%" transform="translate(0, -0.0000) scale(35.7143, -35.7143)">
<circle cx="-1.313" cy="0.050" r="0.014" />
<circle cx="-1.400" cy="0.200" r="0.014" />
<circle cx="-1.113" cy="-0.550" r="0.014" />
<circle cx="-1.027" cy="-0.500" r="0.014" />
<circle cx="-1.113" cy="-0.350" r="0.014" />
<circle cx="-1.027" cy="-0.300" r="0.014" />
<circle cx="-0.940" cy="-0.250" r="0.014" />
<circle cx="-1.113" cy="-0.150" r="0.014" />
<circle cx="-1.027" cy="-0.100" r="0.014" />
<circle cx="-0.940" cy="-0.050" r="0.014" />
<circle cx="-1.113" cy="0.050" r="0.014" />
<circle cx="-1.027" cy="0.100" r="0.014" />
<circle cx="-0.940" cy="0.150" r="0.014" />
<circle cx="-1.460" cy="0.050" r="0.014" />
<circle cx="-1.373" cy="0.100" r="0.014" />
<circle cx="-1.287" cy="0.150" r="0.014" />
<circle cx="-1.200" cy="0.200" r="0.014" />
<circle cx="-1.460" cy="0.250" r="0.014" />
<circle cx="-1.373" cy="0.300" r="0.014" />
<circle cx="-1.287" cy="0.350" r="0.014" />
<circle cx="-1.200" cy="0.400" r="0.014" />
<circle cx="-1.373" cy="0.500" r="0.014" />
<circle cx="-1.287" cy="0.550" r="0.014" />
<circle cx="-1.200" cy="0.600" r="0.014" />
<circle cx="-0.913" cy="-0.750" r="0.014" />
<circle cx="-0.827" cy="-0.700" r="0.014" />
<circle cx="-0.913" cy="-0.550" r="0.014" />
<circle cx="-0.827" cy="-0.500" r="0.014" />
<circle cx="-0.740" cy="-0.450" r="0.014" />
<circle cx="-0.654" cy="-0.400" r="0.014" />
<circle cx="-0.913" cy="-0.350" r="0.014" />
<circle cx="-0.827" cy="-0.300" r="0.014" />
<circle cx="-0.740" cy="-0.250" r="0.014" />
<circle cx="-0.654" cy="-0.200" r="0.014" />
<circle cx="-0.913" cy="-0.150" r="0.014" />
<circle cx="-0.827" cy="-0.100" r="0.014" />
<circle cx="-0.740" cy="-0.050" r="0.014" />
<circle cx="-0.654" cy="-0.000" r="0.014" />
<circle cx="-0.913" cy="0.050" r="0.014" />
<circle cx="-0.827" cy="0.100" r="0.014" />
<circle cx="-0.740" cy="0.150" r="0.014" />
<circle cx="-0.654" cy="0.200" r="0.014" />
<circle cx="-0.567" cy="0.250" r="0.014" />
<circle cx="-1.346" cy="-0.000" r="0.014" />
<circle cx="-1.260" cy="0.050" r="0.014" />
<circle cx="-1.173" cy="0.100" r="0.014" />
<circle cx="-1.087" cy="0.150" r="0.014" />
<circle cx="-1.000" cy="0.200" r="0.014" />
<circle cx="-1.346" cy="0.200" r="0.014" />
<circle cx="-1.260" cy="0.250" r="0.014" />
<circle cx="-1.173" cy="0.300" r="0.014" />
<circle cx="-1.087" cy="0.350" r="0.014" />
<circle cx="-1.000" cy="0.400" r="0.014" />
<circle cx="-1.260" cy="0.450" r="0.014" />
<circle cx="-1.173" cy="0.500" r="0.014" />
<circle cx="-1.087" cy="0.550" r="0.014" />
<circle cx="-1.000" cy="0.600" r="0.014" />
<circle cx="-1.260" cy="0.650" r="0.014" />
<circle cx="-1.173" cy="0.700" r="0.014" />
<circle cx="-1.087" cy="0.750" r="0.014" />
<circle cx="-1.000" cy="0.800" r="0.014" />
<circle cx="-1.000" cy="1.000" r="0.014" />
<circle cx="-0.713" cy="-0.950" r="0.014" />
<circle cx="-0.627" cy="-0.900" r="0.014" />
<circle cx="-0.713" cy="-0.750" r="0.014" />
<circle cx="-0.627" cy="-0.700" r="0.014" />
<circle cx="-0.540" cy="-0.650" r="0.014" />
<circle cx="-0.454" cy="-0.600" r="0.014" />
<circle cx="-0.713" cy="-0.550" r="0.014" />
<circle cx="-0.627" cy="-0.500" r="0.014" />
<circle cx="-0.540" cy="-0.450" r="0.014" />
<circle cx="-0.454" cy="-0.400" r="0.014" />
<circle cx="-0.367" cy="-0.350" r="0.014" />
<circle cx="-0.540" cy="-0.250" r="0.014" />
<circle cx="-0.454" cy="-0.200" r="0.014" />
<circle cx="-0.367" cy="-0.150" r="0.014" />
<circle cx="-0.540" cy="-0.050" r="0.014" />
<circle cx="-0.454" cy="-0.000" r="0.014" />
<circle cx="-0.367" cy="0.050" r="0.014" />
<circle cx="-0.540" cy="0.150" r="0.014" />
<circle cx="-0.454" cy="0.200" r="0.014" />
<circle cx="-0.367" cy="0.250" r="0.014" />
<circle cx="-1.233" cy="-0.050" r="0.014" />
<circle cx="-1.146" cy="-0.000" r="0.014" />
<circle cx="-1.060" cy="0.050" r="0.014" />
<circle cx="-1.233" cy="0.150" r="0.014" />
<circle cx="-1.146" cy="0.200" r="0.014" />
<circle cx="-1.060" cy="0.250" r="0.014" />
<circle cx="-1.146" cy="0.400" r="0.014" />
<circle cx="-1.060" cy="0.450" r="0.014" />
<circle cx="-0.973" cy="0.500" r="0.014" />
<circle cx="-0.887" cy="0.550" r="0.014" />
<circle cx="-0.800" cy="0.600" r="0.014" />
<circle cx="-1.146" cy="0.600" r="0.014" />
<circle cx="-1.060" cy="0.650" r="0.014" />
<circle cx="-0.973" cy="0.700" r="0.014" />
<circle cx="-0.887" cy="0.750" r="0.014" />
<circle cx="-0.800" cy="0.800" r="0.014" />
<circle cx="-1.060" cy="0.850" r="0.014" />
<circle cx="-0.973" cy="0.900" r="0.014" />
<circle cx="-0.887" cy="0.950" r="0.014" />
<circle cx="-0.800" cy="1.000" r="0.014" />
<circle cx="-0.513" cy="-1.150" r="0.014" />
<circle cx="-0.427" cy="-1.100" r="0.014" />
<circle cx="-0.513" cy="-0.950" r="0.014" />
<circle cx="-0.427" cy="-0.900" r="0.014" />
<circle cx="-0.340" cy="-0.850" r="0.014" />
<circle cx="-0.254" cy="-0.800" r="0.014" />
<circle cx="-0.513" cy="-0.750" r="0.014" />
<circle cx="-0.427" cy="-0.700" r="0.014" />
<circle cx="-0.340" cy="-0.650" r="0.014" />
<circle cx="-0.254" cy="-0.600" r="0.014" />
<circle cx="-0.167" cy="-0.550" r="0.014" />
<circle cx="-0.340" cy="-0.450" r="0.014" />
<circle cx="-0.254" cy="-0.400" r="0.014" />
<circle cx="-0.167" cy="-0.350" r="0.014" />
<circle cx="-0.254" cy="-0.200" r="0.014" />
<circle cx="-0.167" cy="-0.150" r="0.014" />
<circle cx="-0.080" cy="-0.100" r="0.014" />
<circle cx="-0.254" cy="-0.000" r="0.014" />
<circle cx="-0.167" cy="0.050" r="0.014" />
<circle cx="-0.080" cy="0.100" r="0.014" />
<circle cx="-0.167" cy="0.250" r="0.014" />
<circle cx="-0.080" cy="0.300" r="0.014" />
<circle cx="-1.120" cy="-0.100" r="0.014" />
<circle cx="-1.033" cy="-0.050" r="0.014" />
<circle cx="-0.946" cy="-0.000" r="0.014" />
<circle cx="-1.120" cy="0.100" r="0.014" />
<circle cx="-1.033" cy="0.150" r="0.014" />
<circle cx="-0.946" cy="0.200" r="0.014" />
<circle cx="-1.033" cy="0.350" r="0.014" />
<circle cx="-0.946" cy="0.400" r="0.014" />
<circle cx="-0.860" cy="0.450" r="0.014" />
<circle cx="-1.033" cy="0.550" r="0.014" />
<circle cx="-0.946" cy="0.600" r="0.014" />
<circle cx="-0.860" cy="0.650" r="0.014" />
<circle cx="-0.773" cy="0.700" r="0.014" />
<circle cx="-0.687" cy="0.750" r="0.014" />
<circle cx="-0.946" cy="0.800" r="0.014" />
<circle cx="-0.860" cy="0.850" r="0.014" />
<circle cx="-0.773" cy="0.900" r="0.014" />
<circle cx="-0.687" cy="0.950" r="0.014" />
<circle cx="-0.600" cy="1.000" r="0.014" />
<circle cx="-0.773" cy="1.100" r="0.014" />
<circle cx="-0.687" cy="1.150" r="0.014" />
<circle cx="-0.600" cy="1.200" r="0.014" />
<circle cx="-0.313" cy="-1.150" r="0.014" />
<circle cx="-0.227" cy="-1.100" r="0.014" />
<circle cx="-0.140" cy="-1.050" r="0.014" />
<circle cx="-0.313" cy="-0.950" r="0.014" />
<circle cx="-0.227" cy="-0.900" r="0.014" />
<circle cx="-0.140" cy="-0.850" r="0.014" />
<circle cx="-0.054" cy="-0.800" r="0.014" />
<circle cx="-0.140" cy="-0.650" r="0.014" />
<circle cx="-0.054" cy="-0.600" r="0.014" />
<circle cx="0.033" cy="-0.550" r="0.014" />
<circle cx="-0.054" cy="-0.400" r="0.014" />
<circle cx="0.033" cy="-0.350" r="0.014" />
<circle cx="0.120" cy="-0.300" r="0.014" />
<circle cx="0.033" cy="-0.150" r="0.014" />
<circle cx="0.120" cy="-0.100" r="0.014" />
<circle cx="0.033" cy="0.050" r="0.014" />
<circle cx="0.120" cy="0.100" r="0.014" />
<circle cx="0.033" cy="0.250" r="0.014" />
<circle cx="0.120" cy="0.300" r="0.014" />
<circle cx="-0.920" cy="-0.100" r="0.014" />
<circle cx="-0.833" cy="-0.050" r="0.014" />
<circle cx="-0.920" cy="0.100" r="0.014" />
<circle cx="-0.833" cy="0.150" r="0.014" />
<circle cx="-0.920" cy="0.300" r="0.014" />
<circle cx="-0.833" cy="0.350" r="0.014" />
<circle cx="-0.746" cy="0.400" r="0.014" />
<circle cx="-0.833" cy="0.550" r="0.014" />
<circle cx="-0.746" cy="0.600" r="0.014" />
<circle cx="-0.660" cy="0.650" r="0.014" />
<circle cx="-0.746" cy="0.800" r="0.014" />
<circle cx="-0.660" cy="0.850" r="0.014" />
<circle cx="-0.573" cy="0.900" r="0.014" />
<circle cx="-0.487" cy="0.950" r="0.014" />
<circle cx="-0.400" cy="1.000" r="0.014" />
<circle cx="-0.660" cy="1.050" r="0.014" />
<circle cx="-0.573" cy="1.100" r="0.014" />
<circle cx="-0.487" cy="1.150" r="0.014" />
<circle cx="-0.400" cy="1.200" r="0.014" />
<circle cx="-0.113" cy="-1.150" r="0.014" />
<circle cx="-0.027" cy="-1.100" r="0.014" />
<circle cx="0.060" cy="-1.050" r="0.014" />
<circle cx="-0.113" cy="-0.950" r="0.014" />
<circle cx="-0.027" cy="-0.900" r="0.014" />
<circle cx="0.060" cy="-0.850" r="0.014" />
<circle cx="0.146" cy="-0.800" r="0.014" />
<circle cx="0.060" cy="-0.650" r="0.014" />
<circle cx="0.146" cy="-0.600" r="0.014" />
<circle cx="0.233" cy="-0.550" r="0.014" />
<circle cx="0.146" cy="-0.400" r="0.014" />
<circle cx="0.233" cy="-0.350" r="0.014" />
<circle cx="0.320" cy="-0.300" r="0.014" />
<circle cx="0.233" cy="-0.150" r="0.014" />
<circle cx="0.320" cy="-0.100" r="0.014" />
<circle cx="0.233" cy="0.050" r="0.014" />
<circle cx="0.320" cy="0.100" r="0.014" />
<circle cx="0.233" cy="0.250" r="0.014" />
<circle cx="0.320" cy="0.300" r="0.014" />
<circle cx="0.406" cy="0.350" r="0.014" />
<circle cx="-0.720" cy="-0.100" r="0.014" />
<circle cx="-0.633" cy="-0.050" r="0.014" />
<circle cx="-0.720" cy="0.100" r="0.014" />
<circle cx="-0.633" cy="0.150" r="0.014" />
<circle cx="-0.720" cy="0.300" r="0.014" />
<circle cx="-0.633" cy="0.350" r="0.014" />
<circle cx="-0.546" cy="0.400" r="0.014" />
<circle cx="-0.633" cy="0.550" r="0.014" />
<circle cx="-0.546" cy="0.600" r="0.014" />
<circle cx="-0.460" cy="0.650" r="0.014" />
<circle cx="-0.546" cy="0.800" r="0.014" />
<circle cx="-0.460" cy="0.850" r="0.014" />
<circle cx="-0.373" cy="0.900" r="0.014" />
<circle cx="-0.287" cy="0.950" r="0.014" />
<circle cx="-0.200" cy="1.000" r="0.014" />
<circle cx="-0.460" cy="1.050" r="0.014" />
<circle cx="-0.373" cy="1.100" r="0.014" />
<circle cx="-0.287" cy="1.150" r="0.014" />
<circle cx="-0.200" cy="1.200" r="0.014" />
<circle cx="-0.200" cy="1.400" r="0.014" />
<circle cx="0.087" cy="-1.350" r="0.014" />
<circle cx="0.087" cy="-1.150" r="0.014" />
<circle cx="0.173" cy="-1.100" r="0.014" />
<circle cx="0.260" cy="-1.050" r="0.014" />
<circle cx="0.087" cy="-0.950" r="0.014" />
<circle cx="0.173" cy="-0.900" r="0.014" />
<circle cx="0.260" cy="-0.850" r="0.014" />
<circle cx="0.346" cy="-0.800" r="0.014" />
<circle cx="0.433" cy="-0.750" r="0.014" />
<circle cx="0.260" cy="-0.650" r="0.014" />
<circle cx="0.346" cy="-0.600" r="0.014" />
<circle cx="0.433" cy="-0.550" r="0.014" />
<circle cx="0.433" cy="-0.350" r="0.014" />
<circle cx="0.520" cy="-0.300" r="0.014" />
<circle cx="0.433" cy="-0.150" r="0.014" />
<circle cx="0.520" cy="-0.100" r="0.014" />
<circle cx="0.433" cy="0.050" r="0.014" />
<circle cx="0.520" cy="0.100" r="0.014" />
<circle cx="0.606" cy="0.150" r="0.014" />
<circle cx="0.520" cy="0.300" r="0.014" />
<circle cx="0.606" cy="0.350" r="0.014" />
<circle cx="-0.606" cy="-0.150" r="0.014" />
<circle cx="-0.520" cy="-0.100" r="0.014" />
<circle cx="-0.433" cy="-0.050" r="0.014" />
<circle cx="-0.520" cy="0.100" r="0.014" />
<circle cx="-0.433" cy="0.150" r="0.014" />
<circle cx="-0.520" cy="0.300" r="0.014" />
<circle cx="-0.433" cy="0.350" r="0.014" />
<circle cx="-0.346" cy="0.400" r="0.014" />
<circle cx="-0.433" cy="0.550" r="0.014" />
<circle cx="-0.346" cy="0.600" r="0.014" />
<circle cx="-0.433" cy="0.750" r="0.014" />
<circle cx="-0.346" cy="0.800" r="0.014" />
<circle cx="-0.260" cy="0.850" r="0.014" />
<circle cx="-0.173" cy="0.900" r="0.014" />
<circle cx="-0.087" cy="0.950" r="0.014" />
<circle cx="-0.260" cy="1.050" r="0.014" />
<circle cx="-0.173" cy="1.100" r="0.014" />
<circle cx="-0.087" cy="1.150" r="0.014" />
<circle cx="-0.000" cy="1.200" r="0.014" />
<circle cx="-0.087" cy="1.350" r="0.014" />
<circle cx="-0.000" cy="1.400" r="0.014" />
<circle cx="0.200" cy="-1.400" r="0.014" />
<circle cx="-0.060" cy="-1.350" r="0.014" />
<circle cx="0.027" cy="-1.300" r="0.014" />
<circle cx="0.113" cy="-1.250" r="0.014" />
<circle cx="0.200" cy="-1.200" r="0.014" />
<circle cx="-0.146" cy="-1.200" r="0.014" />
<circle cx="-0.060" cy="-1.150" r="0.014" />
<circle cx="0.027" cy="-1.100" r="0.014" />
<circle cx="0.113" cy="-1.050" r="0.014" />
<circle cx="0.200" cy="-1.000" r="0.014" />
<circle cx="-0.233" cy="-1.050" r="0.014" />
<circle cx="-0.146" cy="-1.000" r="0.014" />
<circle cx="-0.060" cy="-0.950" r="0.014" />
<circle cx="-0.320" cy="-0.900" r="0.014" />
<circle cx="-0.233" cy="-0.850" r="0.014" />
<circle cx="-0.146" cy="-0.800" r="0.014" />
<circle cx="-0.320" cy="-0.700" r="0.014" />
<circle cx="-0.233" cy="-0.650" r="0.014" />
<circle cx="-0.320" cy="-0.500" r="0.014" />
<circle cx="-0.233" cy="-0.450" r="0.014" />
<circle cx="-0.406" cy="-0.350" r="0.014" />
<circle cx="-0.320" cy="-0.300" r="0.014" />
<circle cx="-0.233" cy="-0.250" r="0.014" />
<circle cx="0.633" cy="0.450" r="0.014" />
<circle cx="0.720" cy="0.500" r="0.014" />
<circle cx="0.633" cy="0.650" r="0.014" />
<circle cx="0.720" cy="0.700" r="0.014" />
<circle cx="0.546" cy="0.800" r="0.014" />
<circle cx="0.633" cy="0.850" r="0.014" />
<circle cx="0.720" cy="0.900" r="0.014" />
<circle cx="0.460" cy="0.950" r="0.014" />
<circle cx="0.546" cy="1.000" r="0.014" />
<circle cx="0.633" cy="1.050" r="0.014" />
<circle cx="0.287" cy="1.050" r="0.014" />
<circle cx="0.373" cy="1.100" r="0.014" />
<circle cx="0.460" cy="1.150" r="0.014" />
<circle cx="0.546" cy="1.200" r="0.014" />
<circle cx="0.287" cy="1.250" r="0.014" />
<circle cx="0.373" cy="1.300" r="0.014" />
<circle cx="0.460" cy="1.350" r="0.014" />
<circle cx="0.140" cy="-1.350" r="0.014" />
<circle cx="0.227" cy="-1.300" r="0.014" />
<circle cx="0.313" cy="-1.250" r="0.014" />
<circle cx="0.400" cy="-1.200" r="0.014" />
<circle cx="0.054" cy="-1.200" r="0.014" />
<circle cx="0.140" cy="-1.150" r="0.014" />
<circle cx="0.227" cy="-1.100" r="0.014" />
<circle cx="0.313" cy="-1.050" r="0.014" />
<circle cx="0.400" cy="-1.000" r="0.014" />
<circle cx="-0.033" cy="-1.050" r="0.014" />
<circle cx="0.054" cy="-1.000" r="0.014" />
<circle cx="0.140" cy="-0.950" r="0.014" />
<circle cx="-0.120" cy="-0.900" r="0.014" />
<circle cx="-0.033" cy="-0.850" r="0.014" />
<circle cx="0.054" cy="-0.800" r="0.014" />
<circle cx="-0.120" cy="-0.700" r="0.014" />
<circle cx="-0.033" cy="-0.650" r="0.014" />
<circle cx="-0.120" cy="-0.500" r="0.014" />
<circle cx="-0.033" cy="-0.450" r="0.014" />
<circle cx="-0.120" cy="-0.300" r="0.014" />
<circle cx="-0.033" cy="-0.250" r="0.014" />
<circle cx="0.833" cy="0.450" r="0.014" />
<circle cx="0.920" cy="0.500" r="0.014" />
<circle cx="0.833" cy="0.650" r="0.014" />
<circle cx="0.920" cy="0.700" r="0.014" />
<circle cx="0.746" cy="0.800" r="0.014" />
<circle cx="0.833" cy="0.850" r="0.014" />
<circle cx="0.920" cy="0.900" r="0.014" />
<circle cx="0.660" cy="0.950" r="0.014" />
<circle cx="0.746" cy="1.000" r="0.014" />
<circle cx="0.833" cy="1.050" r="0.014" />
<circle cx="0.487" cy="1.050" r="0.014" />
<circle cx="0.573" cy="1.100" r="0.014" />
<circle cx="0.660" cy="1.150" r="0.014" />
<circle cx="0.746" cy="1.200" r="0.014" />
<circle cx="0.487" cy="1.250" r="0.014" />
<circle cx="0.573" cy="1.300" r="0.014" />
<circle cx="0.660" cy="1.350" r="0.014" />
<circle cx="0.427" cy="-1.300" r="0.014" />
<circle cx="0.513" cy="-1.250" r="0.014" />
<circle cx="0.600" cy="-1.200" r="0.014" />
<circle cx="0.340" cy="-1.150" r="0.014" />
<circle cx="0.427" cy="-1.100" r="0.014" />
<circle cx="0.513" cy="-1.050" r="0.014" />
<circle cx="0.600" cy="-1.000" r="0.014" />
<circle cx="0.254" cy="-1.000" r="0.014" />
<circle cx="0.340" cy="-0.950" r="0.014" />
<circle cx="0.427" cy="-0.900" r="0.014" />
<circle cx="0.513" cy="-0.850" r="0.014" />
<circle cx="0.600" cy="-0.800" r="0.014" />
<circle cx="0.167" cy="-0.850" r="0.014" />
<circle cx="0.254" cy="-0.800" r="0.014" />
<circle cx="0.340" cy="-0.750" r="0.014" />
<circle cx="0.080" cy="-0.700" r="0.014" />
<circle cx="0.167" cy="-0.650" r="0.014" />
<circle cx="0.254" cy="-0.600" r="0.014" />
<circle cx="0.080" cy="-0.500" r="0.014" />
<circle cx="0.167" cy="-0.450" r="0.014" />
<circle cx="0.254" cy="-0.400" r="0.014" />
<circle cx="0.080" cy="-0.300" r="0.014" />
<circle cx="0.167" cy="-0.250" r="0.014" />
<circle cx="0.254" cy="-0.200" r="0.014" />
<circle cx="0.946" cy="0.400" r="0.014" />
<circle cx="1.033" cy="0.450" r="0.014" />
<circle cx="1.120" cy="0.500" r="0.014" />
<circle cx="0.946" cy="0.600" r="0.014" />
<circle cx="1.033" cy="0.650" r="0.014" />
<circle cx="1.120" cy="0.700" r="0.014" />
<circle cx="0.860" cy="0.750" r="0.014" />
<circle cx="0.946" cy="0.800" r="0.014" />
<circle cx="1.033" cy="0.850" r="0.014" />
<circle cx="0.687" cy="0.850" r="0.014" />
<circle cx="0.773" cy="0.900" r="0.014" />
<circle cx="0.860" cy="0.950" r="0.014" />
<circle cx="0.946" cy="1.000" r="0.014" />
<circle cx="1.033" cy="1.050" r="0.014" />
<circle cx="0.687" cy="1.050" r="0.014" />
<circle cx="0.773" cy="1.100" r="0.014" />
<circle cx="0.860" cy="1.150" r="0.014" />
<circle cx="0.946" cy="1.200" r="0.014" />
<circle cx="0.687" cy="1.250" r="0.014" />
<circle cx="0.773" cy="1.300" r="0.014" />
<circle cx="0.540" cy="-1.150" r="0.014" />
<circle cx="0.627" cy="-1.100" r="0.014" />
<circle cx="0.713" cy="-1.050" r="0.014" />
<circle cx="0.800" cy="-1.000" r="0.014" />
<circle cx="0.454" cy="-1.000" r="0.014" />
<circle cx="0.540" cy="-0.950" r="0.014" />
<circle cx="0.627" cy="-0.900" r="0.014" />
<circle cx="0.713" cy="-0.850" r="0.014" />
<circle cx="0.800" cy="-0.800" r="0.014" />
<circle cx="0.367" cy="-0.850" r="0.014" />
<circle cx="0.454" cy="-0.800" r="0.014" />
<circle cx="0.540" cy="-0.750" r="0.014" />
<circle cx="0.627" cy="-0.700" r="0.014" />
<circle cx="0.713" cy="-0.650" r="0.014" />
<circle cx="0.367" cy="-0.650" r="0.014" />
<circle cx="0.454" cy="-0.600" r="0.014" />
<circle cx="0.540" cy="-0.550" r="0.014" />
<circle cx="0.367" cy="-0.450" r="0.014" />
<circle cx="0.454" cy="-0.400" r="0.014" />
<circle cx="0.540" cy="-0.350" r="0.014" />
<circle cx="0.367" cy="-0.250" r="0.014" />
<circle cx="0.454" cy="-0.200" r="0.014" />
<circle cx="1.060" cy="0.350" r="0.014" />
<circle cx="1.146" cy="0.400" r="0.014" />
<circle cx="1.233" cy="0.450" r="0.014" />
<circle cx="1.060" cy="0.550" r="0.014" />
<circle cx="1.146" cy="0.600" r="0.014" />
<circle cx="1.233" cy="0.650" r="0.014" />
<circle cx="0.887" cy="0.650" r="0.014" />
<circle cx="0.973" cy="0.700" r="0.014" />
<circle cx="1.060" cy="0.750" r="0.014" />
<circle cx="1.146" cy="0.800" r="0.014" />
<circle cx="1.233" cy="0.850" r="0.014" />
<circle cx="0.887" cy="0.850" r="0.014" />
<circle cx="0.973" cy="0.900" r="0.014" />
<circle cx="1.060" cy="0.950" r="0.014" />
<circle cx="1.146" cy="1.000" r="0.014" />
<circle cx="0.887" cy="1.050" r="0.014" />
<circle cx="0.973" cy="1.100" r="0.014" />
<circle cx="1.060" cy="1.150" r="0.014" />
<circle cx="1.000" cy="-1.000" r="0.014" />
<circle cx="0.740" cy="-0.950" r="0.014" />
<circle cx="0.827" cy="-0.900" r="0.014" />
<circle cx="0.913" cy="-0.850" r="0.014" />
<circle cx="1.000" cy="-0.800" r="0.014" />
<circle cx="0.654" cy="-0.800" r="0.014" />
<circle cx="0.740" cy="-0.750" r="0.014" />
<circle cx="0.827" cy="-0.700" r="0.014" />
<circle cx="0.913" cy="-0.650" r="0.014" />
<circle cx="1.000" cy="-0.600" r="0.014" />
<circle cx="0.654" cy="-0.600" r="0.014" />
<circle cx="0.740" cy="-0.550" r="0.014" />
<circle cx="0.827" cy="-0.500" r="0.014" />
<circle cx="0.913" cy="-0.450" r="0.014" />
<circle cx="1.000" cy="-0.400" r="0.014" />
<circle cx="0.654" cy="-0.400" r="0.014" />
<circle cx="0.740" cy="-0.350" r="0.014" />
<circle cx="0.827" cy="-0.300" r="0.014" />
<circle cx="0.913" cy="-0.250" r="0.014" />
<circle cx="1.000" cy="-0.200" r="0.014" />
<circle cx="0.567" cy="-0.250" r="0.014" />
<circle cx="0.654" cy="-0.200" r="0.014" />
<circle cx="0.740" cy="-0.150" r="0.014" />
<circle cx="0.827" cy="-0.100" r="0.014" />
<circle cx="0.913" cy="-0.050" r="0.014" />
<circle cx="1.087" cy="0.250" r="0.014" />
<circle cx="1.173" cy="0.300" r="0.014" />
<circle cx="1.260" cy="0.350" r="0.014" />
<circle cx="1.346" cy="0.400" r="0.014" />
<circle cx="1.087" cy="0.450" r="0.014" />
<circle cx="1.173" cy="0.500" r="0.014" />
<circle cx="1.260" cy="0.550" r="0.014" />
<circle cx="1.346" cy="0.600" r="0.014" />
<circle cx="1.087" cy="0.650" r="0.014" />
<circle cx="1.173" cy="0.700" r="0.014" />
<circle cx="1.260" cy="0.750" r="0.014" />
<circle cx="1.346" cy="0.800" r="0.014" />
<circle cx="1.087" cy="0.850" r="0.014" />
<circle cx="1.173" cy="0.900" r="0.014" />
<circle cx="1.260" cy="0.950" r="0.014" />
<circle cx="1.027" cy="-0.700" r="0.014" />
<circle cx="1.113" cy="-0.650" r="0.014" />
<circle cx="1.200" cy="-0.600" r="0.014" />
<circle cx="0.940" cy="-0.550" r="0.014" />
<circle cx="1.027" cy="-0.500" r="0.014" />
<circle cx="1.113" cy="-0.450" r="0.014" />
<circle cx="1.200" cy="-0.400" r="0.014" />
<circle cx="0.940" cy="-0.350" r="0.014" />
<circle cx="1.027" cy="-0.300" r="0.014" />
<circle cx="1.113" cy="-0.250" r="0.014" />
<circle cx="1.200" cy="-0.200" r="0.014" />
<circle cx="0.940" cy="-0.150" r="0.014" />
<circle cx="1.027" cy="-0.100" r="0.014" />
<circle cx="1.113" cy="-0.050" r="0.014" />
<circle cx="1.200" cy="-0.000" r="0.014" />
<circle cx="1.287" cy="0.250" r="0.014" />
<circle cx="1.373" cy="0.300" r="0.014" />
<circle cx="1.460" cy="0.350" r="0.014" />
<circle cx="1.287" cy="0.450" r="0.014" />
<circle cx="1.373" cy="0.500" r="0.014" />
<circle cx="1.460" cy="0.550" r="0.014" />
<circle cx="1.287" cy="0.650" r="0.014" />
<circle cx="1.373" cy="0.700" r="0.014" />
<circle cx="1.400" cy="-0.200" r="0.014" />
<circle cx="1.313" cy="-0.050" r="0.014" />
<circle cx="1.400" cy="-0.000" r="0.014" />
</g>
</svg>