<svg xmlns="http://www.w3.org/2000/svg" width="161.8" height="100.0" viewBox="-1.70 6.11 171.80 110.00">
<g fill="none" stroke="black" stroke-width="0.0450%" transform="translate(0, 122.2222) scale(11.1111, -11.1111)">
<polyline points="0.30,2.00 0.59,4.00 0.89,8.00 1.19,5.00 1.49,10.00 1.78,9.00 2.08,7.00 2.38,3.00 2.67,6.00 2.97,1.00 3.27,2.00 3.57,4.00 3.86,8.00 4.16,5.00 4.46,10.00 4.76,9.00 5.05,7.00 5.35,3.00 5.65,6.00 5.94,1.00 6.24,2.00 6.54,4.00 6.84,8.00 7.13,5.00 7.43,10.00 7.73,9.00 8.02,7.00 8.32,3.00 8.62,6.00 8.92,1.00 9.21,2.00 9.51,4.00 9.81,8.00 10.10,5.00 10.40,10.00 10.70,9.00 11.00,7.00 11.29,3.00 11.59,6.00 11.89,1.00 12.18,2.00 12.48,4.00 12.78,8.00 13.08,5.00 13.37,10.00 13.67,9.00 13.97,7.00 14.27,3.00 14.56,6.00 14.86,1.00" />
</g>
</svg>