<svg xmlns="http://www.w3.org/2000/svg" width="161.8" height="100.0" viewBox="-3.366 45.000 171.803 110.000">
<g fill="none" stroke="black" stroke-width="0.0100%" transform="translate(0, 200.0000) scale(50.0000, -50.0000)">
<polyline points="0.033,3.000 0.065,3.000 0.098,2.000 0.131,3.000 0.163,2.000 0.196,1.000 0.229,3.000 0.262,2.000 0.294,2.000 0.327,2.000 0.360,2.000 0.392,2.000 0.425,2.000 0.458,2.000 0.490,2.000 0.523,2.000 0.556,2.000 0.588,2.000 0.621,3.000 0.654,2.000 0.686,3.000 0.719,2.000 0.752,1.000 0.785,2.000 0.817,3.000 0.850,2.000 0.883,3.000 0.915,3.000 0.948,2.000 0.981,2.000 1.013,2.000 1.046,2.000 1.079,3.000 1.111,2.000 1.144,2.000 1.177,2.000 1.209,3.000 1.242,2.000 1.275,3.000 1.308,3.000 1.340,2.000 1.373,1.000 1.406,2.000 1.438,3.000 1.471,3.000 1.504,2.000 1.536,2.000 1.569,2.000 1.602,2.000 1.634,3.000 1.667,3.000 1.700,3.000 1.732,2.000 1.765,3.000 1.798,2.000 1.831,2.000 1.863,2.000 1.896,2.000 1.929,1.000 1.961,1.000 1.994,3.000 2.027,1.000 2.059,2.000 2.092,2.000 2.125,2.000 2.157,3.000 2.190,3.000 2.223,2.000 2.255,2.000 2.288,2.000 2.321,2.000 2.354,2.000 2.386,2.000 2.419,3.000 2.452,2.000 2.484,2.000 2.517,2.000 2.550,1.000 2.582,2.000 2.615,2.000 2.648,1.000 2.680,3.000 2.713,1.000 2.746,2.000 2.778,3.000 2.811,3.000 2.844,3.000 2.877,2.000 2.909,2.000 2.942,3.000 2.975,3.000 3.007,3.000 3.040,2.000 3.073,3.000 3.105,3.000 3.138,2.000 3.171,1.000 3.203,2.000 3.236,1.000 3.269,2.000" />
</g>
</svg>