<svg xmlns="http://www.w3.org/2000/svg" width="323.6" height="100.0" viewBox="-5.0 -5.0 333.6 110.0">
<g fill="none" stroke="black" stroke-width="0.2500%" transform="translate(0, 100.0000) scale(2.0000, -2.0000)">
<line x1="0.0" y1="0.0" x2="161.8" y2="0.0" />
<line x1="0.0" y1="10.0" x2="161.8" y2="10.0" />
<line x1="0.0" y1="20.0" x2="161.8" y2="20.0" />
<line x1="0.0" y1="30.0" x2="161.8" y2="30.0" />
<line x1="0.0" y1="40.0" x2="161.8" y2="40.0" />
<line x1="0.0" y1="50.0" x2="161.8" y2="50.0" />
<line x1="0.0" y1="0.0" x2="0.0" y2="50.0" />
<line x1="67.4" y1="40.0" x2="67.4" y2="50.0" />
<line x1="161.8" y1="40.0" x2="161.8" y2="50.0" />
<line x1="67.4" y1="30.0" x2="67.4" y2="40.0" />
<line x1="134.8" y1="30.0" x2="134.8" y2="40.0" />
<line x1="161.8" y1="30.0" x2="161.8" y2="40.0" />
<line x1="40.5" y1="20.0" x2="40.5" y2="30.0" />
<line x1="67.4" y1="20.0" x2="67.4" y2="30.0" />
<line x1="107.9" y1="20.0" x2="107.9" y2="30.0" />
<line x1="134.8" y1="20.0" x2="134.8" y2="30.0" />
<line x1="161.8" y1="20.0" x2="161.8" y2="30.0" />
<line x1="13.5" y1="10.0" x2="13.5" y2="20.0" />
<line x1="40.5" y1="10.0" x2="40.5" y2="20.0" />
<line x1="67.4" y1="10.0" x2="67.4" y2="20.0" />
<line x1="80.9" y1="10.0" x2="80.9" y2="20.0" />
<line x1="107.9" y1="10.0" x2="107.9" y2="20.0" />
<line x1="134.8" y1="10.0" x2="134.8" y2="20.0" />
<line x1="161.8" y1="10.0" x2="161.8" y2="20.0" />
</g>
</svg>