<svg xmlns="http://www.w3.org/2000/svg" width="323.6" height="100.0" viewBox="-5.0 -5.0 333.6 110.0">
<g fill="none" stroke="black" stroke-width="0.5500%" transform="translate(0, 100.0000) scale(0.9091, -0.9091)">
<line x1="0.0" y1="0.0" x2="356.0" y2="0.0" />
<line x1="0.0" y1="10.0" x2="356.0" y2="10.0" />
<line x1="0.0" y1="20.0" x2="356.0" y2="20.0" />
<line x1="0.0" y1="30.0" x2="356.0" y2="30.0" />
<line x1="0.0" y1="40.0" x2="356.0" y2="40.0" />
<line x1="0.0" y1="50.0" x2="356.0" y2="50.0" />
<line x1="0.0" y1="60.0" x2="356.0" y2="60.0" />
<line x1="0.0" y1="70.0" x2="356.0" y2="70.0" />
<line x1="0.0" y1="80.0" x2="356.0" y2="80.0" />
<line x1="0.0" y1="90.0" x2="356.0" y2="90.0" />
<line x1="0.0" y1="100.0" x2="356.0" y2="100.0" />
<line x1="0.0" y1="110.0" x2="356.0" y2="110.0" />
<line x1="0.0" y1="0.0" x2="0.0" y2="110.0" />
<line x1="149.7" y1="100.0" x2="149.7" y2="110.0" />
<line x1="356.0" y1="100.0" x2="356.0" y2="110.0" />
<line x1="149.7" y1="90.0" x2="149.7" y2="100.0" />
<line x1="299.3" y1="90.0" x2="299.3" y2="100.0" />
<line x1="356.0" y1="90.0" x2="356.0" y2="100.0" />
<line x1="93.0" y1="80.0" x2="93.0" y2="90.0" />
<line x1="149.7" y1="80.0" x2="149.7" y2="90.0" />
<line x1="242.7" y1="80.0" x2="242.7" y2="90.0" />
<line x1="299.3" y1="80.0" x2="299.3" y2="90.0" />
<line x1="356.0" y1="80.0" x2="356.0" y2="90.0" />
<line x1="36.3" y1="70.0" x2="36.3" y2="80.0" />
<line x1="93.0" y1="70.0" x2="93.0" y2="80.0" />
<line x1="149.7" y1="70.0" x2="149.7" y2="80.0" />
<line x1="186.0" y1="70.0" x2="186.0" y2="80.0" />
<line x1="242.7" y1="70.0" x2="242.7" y2="80.0" />
<line x1="299.3" y1="70.0" x2="299.3" y2="80.0" />
<line x1="356.0" y1="70.0" x2="356.0" y2="80.0" />
<line x1="36.3" y1="60.0" x2="36.3" y2="70.0" />
<line x1="72.7" y1="60.0" x2="72.7" y2="70.0" />
<line x1="93.0" y1="60.0" x2="93.0" y2="70.0" />
<line x1="129.4" y1="60.0" x2="129.4" y2="70.0" />
<line x1="149.7" y1="60.0" x2="149.7" y2="70.0" />
<line x1="186.0" y1="60.0" x2="186.0" y2="70.0" />
<line x1="222.4" y1="60.0" x2="222.4" y2="70.0" />
<line x1="242.7" y1="60.0" x2="242.7" y2="70.0" />
<line x1="279.0" y1="60.0" x2="279.0" y2="70.0" />
<line x1="299.3" y1="60.0" x2="299.3" y2="70.0" />
<line x1="335.7" y1="60.0" x2="335.7" y2="70.0" />
<line x1="356.0" y1="60.0" x2="356.0" y2="70.0" />
<line x1="16.0" y1="50.0" x2="16.0" y2="60.0" />
<line x1="36.3" y1="50.0" x2="36.3" y2="60.0" />
<line x1="52.4" y1="50.0" x2="52.4" y2="60.0" />
<line x1="72.7" y1="50.0" x2="72.7" y2="60.0" />
<line x1="93.0" y1="50.0" x2="93.0" y2="60.0" />
<line x1="109.0" y1="50.0" x2="109.0" y2="60.0" />
<line x1="129.4" y1="50.0" x2="129.4" y2="60.0" />
<line x1="149.7" y1="50.0" x2="149.7" y2="60.0" />
<line x1="165.7" y1="50.0" x2="165.7" y2="60.0" />
<line x1="186.0" y1="50.0" x2="186.0" y2="60.0" />
<line x1="202.0" y1="50.0" x2="202.0" y2="60.0" />
<line x1="222.4" y1="50.0" x2="222.4" y2="60.0" />
<line x1="242.7" y1="50.0" x2="242.7" y2="60.0" />
<line x1="258.7" y1="50.0" x2="258.7" y2="60.0" />
<line x1="279.0" y1="50.0" x2="279.0" y2="60.0" />
<line x1="299.3" y1="50.0" x2="299.3" y2="60.0" />
<line x1="315.4" y1="50.0" x2="315.4" y2="60.0" />
<line x1="335.7" y1="50.0" x2="335.7" y2="60.0" />
<line x1="356.0" y1="50.0" x2="356.0" y2="60.0" />
<line x1="16.0" y1="40.0" x2="16.0" y2="50.0" />
<line x1="32.1" y1="40.0" x2="32.1" y2="50.0" />
<line x1="36.3" y1="40.0" x2="36.3" y2="50.0" />
<line x1="52.4" y1="40.0" x2="52.4" y2="50.0" />
<line x1="68.4" y1="40.0" x2="68.4" y2="50.0" />
<line x1="72.7" y1="40.0" x2="72.7" y2="50.0" />
<line x1="88.7" y1="40.0" x2="88.7" y2="50.0" />
<line x1="93.0" y1="40.0" x2="93.0" y2="50.0" />
<line x1="109.0" y1="40.0" x2="109.0" y2="50.0" />
<line x1="125.1" y1="40.0" x2="125.1" y2="50.0" />
<line x1="129.4" y1="40.0" x2="129.4" y2="50.0" />
<line x1="145.4" y1="40.0" x2="145.4" y2="50.0" />
<line x1="149.7" y1="40.0" x2="149.7" y2="50.0" />
<line x1="165.7" y1="40.0" x2="165.7" y2="50.0" />
<line x1="181.7" y1="40.0" x2="181.7" y2="50.0" />
<line x1="186.0" y1="40.0" x2="186.0" y2="50.0" />
<line x1="202.0" y1="40.0" x2="202.0" y2="50.0" />
<line x1="218.1" y1="40.0" x2="218.1" y2="50.0" />
<line x1="222.4" y1="40.0" x2="222.4" y2="50.0" />
<line x1="238.4" y1="40.0" x2="238.4" y2="50.0" />
<line x1="242.7" y1="40.0" x2="242.7" y2="50.0" />
<line x1="258.7" y1="40.0" x2="258.7" y2="50.0" />
<line x1="274.7" y1="40.0" x2="274.7" y2="50.0" />
<line x1="279.0" y1="40.0" x2="279.0" y2="50.0" />
<line x1="295.1" y1="40.0" x2="295.1" y2="50.0" />
<line x1="299.3" y1="40.0" x2="299.3" y2="50.0" />
<line x1="315.4" y1="40.0" x2="315.4" y2="50.0" />
<line x1="331.4" y1="40.0" x2="331.4" y2="50.0" />
<line x1="335.7" y1="40.0" x2="335.7" y2="50.0" />
<line x1="351.7" y1="40.0" x2="351.7" y2="50.0" />
<line x1="356.0" y1="40.0" x2="356.0" y2="50.0" />
<line x1="11.8" y1="30.0" x2="11.8" y2="40.0" />
<line x1="16.0" y1="30.0" x2="16.0" y2="40.0" />
<line x1="27.8" y1="30.0" x2="27.8" y2="40.0" />
<line x1="32.1" y1="30.0" x2="32.1" y2="40.0" />
<line x1="36.3" y1="30.0" x2="36.3" y2="40.0" />
<line x1="48.1" y1="30.0" x2="48.1" y2="40.0" />
<line x1="52.4" y1="30.0" x2="52.4" y2="40.0" />
<line x1="64.2" y1="30.0" x2="64.2" y2="40.0" />
<line x1="68.4" y1="30.0" x2="68.4" y2="40.0" />
<line x1="72.7" y1="30.0" x2="72.7" y2="40.0" />
<line x1="84.5" y1="30.0" x2="84.5" y2="40.0" />
<line x1="88.7" y1="30.0" x2="88.7" y2="40.0" />
<line x1="93.0" y1="30.0" x2="93.0" y2="40.0" />
<line x1="104.8" y1="30.0" x2="104.8" y2="40.0" />
<line x1="109.0" y1="30.0" x2="109.0" y2="40.0" />
<line x1="120.8" y1="30.0" x2="120.8" y2="40.0" />
<line x1="125.1" y1="30.0" x2="125.1" y2="40.0" />
<line x1="129.4" y1="30.0" x2="129.4" y2="40.0" />
<line x1="141.1" y1="30.0" x2="141.1" y2="40.0" />
<line x1="145.4" y1="30.0" x2="145.4" y2="40.0" />
<line x1="149.7" y1="30.0" x2="149.7" y2="40.0" />
<line x1="161.4" y1="30.0" x2="161.4" y2="40.0" />
<line x1="165.7" y1="30.0" x2="165.7" y2="40.0" />
<line x1="177.5" y1="30.0" x2="177.5" y2="40.0" />
<line x1="181.7" y1="30.0" x2="181.7" y2="40.0" />
<line x1="186.0" y1="30.0" x2="186.0" y2="40.0" />
<line x1="197.8" y1="30.0" x2="197.8" y2="40.0" />
<line x1="202.0" y1="30.0" x2="202.0" y2="40.0" />
<line x1="213.8" y1="30.0" x2="213.8" y2="40.0" />
<line x1="218.1" y1="30.0" x2="218.1" y2="40.0" />
<line x1="222.4" y1="30.0" x2="222.4" y2="40.0" />
<line x1="234.1" y1="30.0" x2="234.1" y2="40.0" />
<line x1="238.4" y1="30.0" x2="238.4" y2="40.0" />
<line x1="242.7" y1="30.0" x2="242.7" y2="40.0" />
<line x1="254.4" y1="30.0" x2="254.4" y2="40.0" />
<line x1="258.7" y1="30.0" x2="258.7" y2="40.0" />
<line x1="270.5" y1="30.0" x2="270.5" y2="40.0" />
<line x1="274.7" y1="30.0" x2="274.7" y2="40.0" />
<line x1="279.0" y1="30.0" x2="279.0" y2="40.0" />
<line x1="290.8" y1="30.0" x2="290.8" y2="40.0" />
<line x1="295.1" y1="30.0" x2="295.1" y2="40.0" />
<line x1="299.3" y1="30.0" x2="299.3" y2="40.0" />
<line x1="311.1" y1="30.0" x2="311.1" y2="40.0" />
<line x1="315.4" y1="30.0" x2="315.4" y2="40.0" />
<line x1="327.1" y1="30.0" x2="327.1" y2="40.0" />
<line x1="331.4" y1="30.0" x2="331.4" y2="40.0" />
<line x1="335.7" y1="30.0" x2="335.7" y2="40.0" />
<line x1="347.4" y1="30.0" x2="347.4" y2="40.0" />
<line x1="351.7" y1="30.0" x2="351.7" y2="40.0" />
<line x1="356.0" y1="30.0" x2="356.0" y2="40.0" />
<line x1="7.5" y1="20.0" x2="7.5" y2="30.0" />
<line x1="11.8" y1="20.0" x2="11.8" y2="30.0" />
<line x1="16.0" y1="20.0" x2="16.0" y2="30.0" />
<line x1="23.6" y1="20.0" x2="23.6" y2="30.0" />
<line x1="27.8" y1="20.0" x2="27.8" y2="30.0" />
<line x1="32.1" y1="20.0" x2="32.1" y2="30.0" />
<line x1="36.3" y1="20.0" x2="36.3" y2="30.0" />
<line x1="43.9" y1="20.0" x2="43.9" y2="30.0" />
<line x1="48.1" y1="20.0" x2="48.1" y2="30.0" />
<line x1="52.4" y1="20.0" x2="52.4" y2="30.0" />
<line x1="59.9" y1="20.0" x2="59.9" y2="30.0" />
<line x1="64.2" y1="20.0" x2="64.2" y2="30.0" />
<line x1="68.4" y1="20.0" x2="68.4" y2="30.0" />
<line x1="72.7" y1="20.0" x2="72.7" y2="30.0" />
<line x1="80.2" y1="20.0" x2="80.2" y2="30.0" />
<line x1="84.5" y1="20.0" x2="84.5" y2="30.0" />
<line x1="88.7" y1="20.0" x2="88.7" y2="30.0" />
<line x1="93.0" y1="20.0" x2="93.0" y2="30.0" />
<line x1="100.5" y1="20.0" x2="100.5" y2="30.0" />
<line x1="104.8" y1="20.0" x2="104.8" y2="30.0" />
<line x1="109.0" y1="20.0" x2="109.0" y2="30.0" />
<line x1="116.6" y1="20.0" x2="116.6" y2="30.0" />
<line x1="120.8" y1="20.0" x2="120.8" y2="30.0" />
<line x1="125.1" y1="20.0" x2="125.1" y2="30.0" />
<line x1="129.4" y1="20.0" x2="129.4" y2="30.0" />
<line x1="136.9" y1="20.0" x2="136.9" y2="30.0" />
<line x1="141.1" y1="20.0" x2="141.1" y2="30.0" />
<line x1="145.4" y1="20.0" x2="145.4" y2="30.0" />
<line x1="149.7" y1="20.0" x2="149.7" y2="30.0" />
<line x1="157.2" y1="20.0" x2="157.2" y2="30.0" />
<line x1="161.4" y1="20.0" x2="161.4" y2="30.0" />
<line x1="165.7" y1="20.0" x2="165.7" y2="30.0" />
<line x1="173.2" y1="20.0" x2="173.2" y2="30.0" />
<line x1="177.5" y1="20.0" x2="177.5" y2="30.0" />
<line x1="181.7" y1="20.0" x2="181.7" y2="30.0" />
<line x1="186.0" y1="20.0" x2="186.0" y2="30.0" />
<line x1="193.5" y1="20.0" x2="193.5" y2="30.0" />
<line x1="197.8" y1="20.0" x2="197.8" y2="30.0" />
<line x1="202.0" y1="20.0" x2="202.0" y2="30.0" />
<line x1="209.6" y1="20.0" x2="209.6" y2="30.0" />
<line x1="213.8" y1="20.0" x2="213.8" y2="30.0" />
<line x1="218.1" y1="20.0" x2="218.1" y2="30.0" />
<line x1="222.4" y1="20.0" x2="222.4" y2="30.0" />
<line x1="229.9" y1="20.0" x2="229.9" y2="30.0" />
<line x1="234.1" y1="20.0" x2="234.1" y2="30.0" />
<line x1="238.4" y1="20.0" x2="238.4" y2="30.0" />
<line x1="242.7" y1="20.0" x2="242.7" y2="30.0" />
<line x1="250.2" y1="20.0" x2="250.2" y2="30.0" />
<line x1="254.4" y1="20.0" x2="254.4" y2="30.0" />
<line x1="258.7" y1="20.0" x2="258.7" y2="30.0" />
<line x1="266.2" y1="20.0" x2="266.2" y2="30.0" />
<line x1="270.5" y1="20.0" x2="270.5" y2="30.0" />
<line x1="274.7" y1="20.0" x2="274.7" y2="30.0" />
<line x1="279.0" y1="20.0" x2="279.0" y2="30.0" />
<line x1="286.5" y1="20.0" x2="286.5" y2="30.0" />
<line x1="290.8" y1="20.0" x2="290.8" y2="30.0" />
<line x1="295.1" y1="20.0" x2="295.1" y2="30.0" />
<line x1="299.3" y1="20.0" x2="299.3" y2="30.0" />
<line x1="306.8" y1="20.0" x2="306.8" y2="30.0" />
<line x1="311.1" y1="20.0" x2="311.1" y2="30.0" />
<line x1="315.4" y1="20.0" x2="315.4" y2="30.0" />
<line x1="322.9" y1="20.0" x2="322.9" y2="30.0" />
<line x1="327.1" y1="20.0" x2="327.1" y2="30.0" />
<line x1="331.4" y1="20.0" x2="331.4" y2="30.0" />
<line x1="335.7" y1="20.0" x2="335.7" y2="30.0" />
<line x1="343.2" y1="20.0" x2="343.2" y2="30.0" />
<line x1="347.4" y1="20.0" x2="347.4" y2="30.0" />
<line x1="351.7" y1="20.0" x2="351.7" y2="30.0" />
<line x1="356.0" y1="20.0" x2="356.0" y2="30.0" />
<line x1="3.3" y1="10.0" x2="3.3" y2="20.0" />
<line x1="7.5" y1="10.0" x2="7.5" y2="20.0" />
<line x1="11.8" y1="10.0" x2="11.8" y2="20.0" />
<line x1="16.0" y1="10.0" x2="16.0" y2="20.0" />
<line x1="19.3" y1="10.0" x2="19.3" y2="20.0" />
<line x1="23.6" y1="10.0" x2="23.6" y2="20.0" />
<line x1="27.8" y1="10.0" x2="27.8" y2="20.0" />
<line x1="32.1" y1="10.0" x2="32.1" y2="20.0" />
<line x1="36.3" y1="10.0" x2="36.3" y2="20.0" />
<line x1="39.6" y1="10.0" x2="39.6" y2="20.0" />
<line x1="43.9" y1="10.0" x2="43.9" y2="20.0" />
<line x1="48.1" y1="10.0" x2="48.1" y2="20.0" />
<line x1="52.4" y1="10.0" x2="52.4" y2="20.0" />
<line x1="55.7" y1="10.0" x2="55.7" y2="20.0" />
<line x1="59.9" y1="10.0" x2="59.9" y2="20.0" />
<line x1="64.2" y1="10.0" x2="64.2" y2="20.0" />
<line x1="68.4" y1="10.0" x2="68.4" y2="20.0" />
<line x1="72.7" y1="10.0" x2="72.7" y2="20.0" />
<line x1="76.0" y1="10.0" x2="76.0" y2="20.0" />
<line x1="80.2" y1="10.0" x2="80.2" y2="20.0" />
<line x1="84.5" y1="10.0" x2="84.5" y2="20.0" />
<line x1="88.7" y1="10.0" x2="88.7" y2="20.0" />
<line x1="93.0" y1="10.0" x2="93.0" y2="20.0" />
<line x1="96.3" y1="10.0" x2="96.3" y2="20.0" />
<line x1="100.5" y1="10.0" x2="100.5" y2="20.0" />
<line x1="104.8" y1="10.0" x2="104.8" y2="20.0" />
<line x1="109.0" y1="10.0" x2="109.0" y2="20.0" />
<line x1="112.3" y1="10.0" x2="112.3" y2="20.0" />
<line x1="116.6" y1="10.0" x2="116.6" y2="20.0" />
<line x1="120.8" y1="10.0" x2="120.8" y2="20.0" />
<line x1="125.1" y1="10.0" x2="125.1" y2="20.0" />
<line x1="129.4" y1="10.0" x2="129.4" y2="20.0" />
<line x1="132.6" y1="10.0" x2="132.6" y2="20.0" />
<line x1="136.9" y1="10.0" x2="136.9" y2="20.0" />
<line x1="141.1" y1="10.0" x2="141.1" y2="20.0" />
<line x1="145.4" y1="10.0" x2="145.4" y2="20.0" />
<line x1="149.7" y1="10.0" x2="149.7" y2="20.0" />
<line x1="152.9" y1="10.0" x2="152.9" y2="20.0" />
<line x1="157.2" y1="10.0" x2="157.2" y2="20.0" />
<line x1="161.4" y1="10.0" x2="161.4" y2="20.0" />
<line x1="165.7" y1="10.0" x2="165.7" y2="20.0" />
<line x1="169.0" y1="10.0" x2="169.0" y2="20.0" />
<line x1="173.2" y1="10.0" x2="173.2" y2="20.0" />
<line x1="177.5" y1="10.0" x2="177.5" y2="20.0" />
<line x1="181.7" y1="10.0" x2="181.7" y2="20.0" />
<line x1="186.0" y1="10.0" x2="186.0" y2="20.0" />
<line x1="189.3" y1="10.0" x2="189.3" y2="20.0" />
<line x1="193.5" y1="10.0" x2="193.5" y2="20.0" />
<line x1="197.8" y1="10.0" x2="197.8" y2="20.0" />
<line x1="202.0" y1="10.0" x2="202.0" y2="20.0" />
<line x1="205.3" y1="10.0" x2="205.3" y2="20.0" />
<line x1="209.6" y1="10.0" x2="209.6" y2="20.0" />
<line x1="213.8" y1="10.0" x2="213.8" y2="20.0" />
<line x1="218.1" y1="10.0" x2="218.1" y2="20.0" />
<line x1="222.4" y1="10.0" x2="222.4" y2="20.0" />
<line x1="225.6" y1="10.0" x2="225.6" y2="20.0" />
<line x1="229.9" y1="10.0" x2="229.9" y2="20.0" />
<line x1="234.1" y1="10.0" x2="234.1" y2="20.0" />
<line x1="238.4" y1="10.0" x2="238.4" y2="20.0" />
<line x1="242.7" y1="10.0" x2="242.7" y2="20.0" />
<line x1="245.9" y1="10.0" x2="245.9" y2="20.0" />
<line x1="250.2" y1="10.0" x2="250.2" y2="20.0" />
<line x1="254.4" y1="10.0" x2="254.4" y2="20.0" />
<line x1="258.7" y1="10.0" x2="258.7" y2="20.0" />
<line x1="262.0" y1="10.0" x2="262.0" y2="20.0" />
<line x1="266.2" y1="10.0" x2="266.2" y2="20.0" />
<line x1="270.5" y1="10.0" x2="270.5" y2="20.0" />
<line x1="274.7" y1="10.0" x2="274.7" y2="20.0" />
<line x1="279.0" y1="10.0" x2="279.0" y2="20.0" />
<line x1="282.3" y1="10.0" x2="282.3" y2="20.0" />
<line x1="286.5" y1="10.0" x2="286.5" y2="20.0" />
<line x1="290.8" y1="10.0" x2="290.8" y2="20.0" />
<line x1="295.1" y1="10.0" x2="295.1" y2="20.0" />
<line x1="299.3" y1="10.0" x2="299.3" y2="20.0" />
<line x1="302.6" y1="10.0" x2="302.6" y2="20.0" />
<line x1="306.8" y1="10.0" x2="306.8" y2="20.0" />
<line x1="311.1" y1="10.0" x2="311.1" y2="20.0" />
<line x1="315.4" y1="10.0" x2="315.4" y2="20.0" />
<line x1="318.6" y1="10.0" x2="318.6" y2="20.0" />
<line x1="322.9" y1="10.0" x2="322.9" y2="20.0" />
<line x1="327.1" y1="10.0" x2="327.1" y2="20.0" />
<line x1="331.4" y1="10.0" x2="331.4" y2="20.0" />
<line x1="335.7" y1="10.0" x2="335.7" y2="20.0" />
<line x1="338.9" y1="10.0" x2="338.9" y2="20.0" />
<line x1="343.2" y1="10.0" x2="343.2" y2="20.0" />
<line x1="347.4" y1="10.0" x2="347.4" y2="20.0" />
<line x1="351.7" y1="10.0" x2="351.7" y2="20.0" />
<line x1="356.0" y1="10.0" x2="356.0" y2="20.0" />
<line x1="3.3" y1="0.0" x2="3.3" y2="10.0" />
<line x1="6.5" y1="0.0" x2="6.5" y2="10.0" />
<line x1="7.5" y1="0.0" x2="7.5" y2="10.0" />
<line x1="10.8" y1="0.0" x2="10.8" y2="10.0" />
<line x1="11.8" y1="0.0" x2="11.8" y2="10.0" />
<line x1="15.0" y1="0.0" x2="15.0" y2="10.0" />
<line x1="16.0" y1="0.0" x2="16.0" y2="10.0" />
<line x1="19.3" y1="0.0" x2="19.3" y2="10.0" />
<line x1="22.6" y1="0.0" x2="22.6" y2="10.0" />
<line x1="23.6" y1="0.0" x2="23.6" y2="10.0" />
<line x1="26.8" y1="0.0" x2="26.8" y2="10.0" />
<line x1="27.8" y1="0.0" x2="27.8" y2="10.0" />
<line x1="31.1" y1="0.0" x2="31.1" y2="10.0" />
<line x1="32.1" y1="0.0" x2="32.1" y2="10.0" />
<line x1="35.3" y1="0.0" x2="35.3" y2="10.0" />
<line x1="36.3" y1="0.0" x2="36.3" y2="10.0" />
<line x1="39.6" y1="0.0" x2="39.6" y2="10.0" />
<line x1="42.9" y1="0.0" x2="42.9" y2="10.0" />
<line x1="43.9" y1="0.0" x2="43.9" y2="10.0" />
<line x1="47.1" y1="0.0" x2="47.1" y2="10.0" />
<line x1="48.1" y1="0.0" x2="48.1" y2="10.0" />
<line x1="51.4" y1="0.0" x2="51.4" y2="10.0" />
<line x1="52.4" y1="0.0" x2="52.4" y2="10.0" />
<line x1="55.7" y1="0.0" x2="55.7" y2="10.0" />
<line x1="58.9" y1="0.0" x2="58.9" y2="10.0" />
<line x1="59.9" y1="0.0" x2="59.9" y2="10.0" />
<line x1="63.2" y1="0.0" x2="63.2" y2="10.0" />
<line x1="64.2" y1="0.0" x2="64.2" y2="10.0" />
<line x1="67.4" y1="0.0" x2="67.4" y2="10.0" />
<line x1="68.4" y1="0.0" x2="68.4" y2="10.0" />
<line x1="71.7" y1="0.0" x2="71.7" y2="10.0" />
<line x1="72.7" y1="0.0" x2="72.7" y2="10.0" />
<line x1="76.0" y1="0.0" x2="76.0" y2="10.0" />
<line x1="79.2" y1="0.0" x2="79.2" y2="10.0" />
<line x1="80.2" y1="0.0" x2="80.2" y2="10.0" />
<line x1="83.5" y1="0.0" x2="83.5" y2="10.0" />
<line x1="84.5" y1="0.0" x2="84.5" y2="10.0" />
<line x1="87.7" y1="0.0" x2="87.7" y2="10.0" />
<line x1="88.7" y1="0.0" x2="88.7" y2="10.0" />
<line x1="92.0" y1="0.0" x2="92.0" y2="10.0" />
<line x1="93.0" y1="0.0" x2="93.0" y2="10.0" />
<line x1="96.3" y1="0.0" x2="96.3" y2="10.0" />
<line x1="99.5" y1="0.0" x2="99.5" y2="10.0" />
<line x1="100.5" y1="0.0" x2="100.5" y2="10.0" />
<line x1="103.8" y1="0.0" x2="103.8" y2="10.0" />
<line x1="104.8" y1="0.0" x2="104.8" y2="10.0" />
<line x1="108.0" y1="0.0" x2="108.0" y2="10.0" />
<line x1="109.0" y1="0.0" x2="109.0" y2="10.0" />
<line x1="112.3" y1="0.0" x2="112.3" y2="10.0" />
<line x1="115.6" y1="0.0" x2="115.6" y2="10.0" />
<line x1="116.6" y1="0.0" x2="116.6" y2="10.0" />
<line x1="119.8" y1="0.0" x2="119.8" y2="10.0" />
<line x1="120.8" y1="0.0" x2="120.8" y2="10.0" />
<line x1="124.1" y1="0.0" x2="124.1" y2="10.0" />
<line x1="125.1" y1="0.0" x2="125.1" y2="10.0" />
<line x1="128.3" y1="0.0" x2="128.3" y2="10.0" />
<line x1="129.4" y1="0.0" x2="129.4" y2="10.0" />
<line x1="132.6" y1="0.0" x2="132.6" y2="10.0" />
<line x1="135.9" y1="0.0" x2="135.9" y2="10.0" />
<line x1="136.9" y1="0.0" x2="136.9" y2="10.0" />
<line x1="140.1" y1="0.0" x2="140.1" y2="10.0" />
<line x1="141.1" y1="0.0" x2="141.1" y2="10.0" />
<line x1="144.4" y1="0.0" x2="144.4" y2="10.0" />
<line x1="145.4" y1="0.0" x2="145.4" y2="10.0" />
<line x1="148.7" y1="0.0" x2="148.7" y2="10.0" />
<line x1="149.7" y1="0.0" x2="149.7" y2="10.0" />
<line x1="152.9" y1="0.0" x2="152.9" y2="10.0" />
<line x1="156.2" y1="0.0" x2="156.2" y2="10.0" />
<line x1="157.2" y1="0.0" x2="157.2" y2="10.0" />
<line x1="160.4" y1="0.0" x2="160.4" y2="10.0" />
<line x1="161.4" y1="0.0" x2="161.4" y2="10.0" />
<line x1="164.7" y1="0.0" x2="164.7" y2="10.0" />
<line x1="165.7" y1="0.0" x2="165.7" y2="10.0" />
<line x1="169.0" y1="0.0" x2="169.0" y2="10.0" />
<line x1="172.2" y1="0.0" x2="172.2" y2="10.0" />
<line x1="173.2" y1="0.0" x2="173.2" y2="10.0" />
<line x1="176.5" y1="0.0" x2="176.5" y2="10.0" />
<line x1="177.5" y1="0.0" x2="177.5" y2="10.0" />
<line x1="180.7" y1="0.0" x2="180.7" y2="10.0" />
<line x1="181.7" y1="0.0" x2="181.7" y2="10.0" />
<line x1="185.0" y1="0.0" x2="185.0" y2="10.0" />
<line x1="186.0" y1="0.0" x2="186.0" y2="10.0" />
<line x1="189.3" y1="0.0" x2="189.3" y2="10.0" />
<line x1="192.5" y1="0.0" x2="192.5" y2="10.0" />
<line x1="193.5" y1="0.0" x2="193.5" y2="10.0" />
<line x1="196.8" y1="0.0" x2="196.8" y2="10.0" />
<line x1="197.8" y1="0.0" x2="197.8" y2="10.0" />
<line x1="201.0" y1="0.0" x2="201.0" y2="10.0" />
<line x1="202.0" y1="0.0" x2="202.0" y2="10.0" />
<line x1="205.3" y1="0.0" x2="205.3" y2="10.0" />
<line x1="208.6" y1="0.0" x2="208.6" y2="10.0" />
<line x1="209.6" y1="0.0" x2="209.6" y2="10.0" />
<line x1="212.8" y1="0.0" x2="212.8" y2="10.0" />
<line x1="213.8" y1="0.0" x2="213.8" y2="10.0" />
<line x1="217.1" y1="0.0" x2="217.1" y2="10.0" />
<line x1="218.1" y1="0.0" x2="218.1" y2="10.0" />
<line x1="221.4" y1="0.0" x2="221.4" y2="10.0" />
<line x1="222.4" y1="0.0" x2="222.4" y2="10.0" />
<line x1="225.6" y1="0.0" x2="225.6" y2="10.0" />
<line x1="228.9" y1="0.0" x2="228.9" y2="10.0" />
<line x1="229.9" y1="0.0" x2="229.9" y2="10.0" />
<line x1="233.1" y1="0.0" x2="233.1" y2="10.0" />
<line x1="234.1" y1="0.0" x2="234.1" y2="10.0" />
<line x1="237.4" y1="0.0" x2="237.4" y2="10.0" />
<line x1="238.4" y1="0.0" x2="238.4" y2="10.0" />
<line x1="241.7" y1="0.0" x2="241.7" y2="10.0" />
<line x1="242.7" y1="0.0" x2="242.7" y2="10.0" />
<line x1="245.9" y1="0.0" x2="245.9" y2="10.0" />
<line x1="249.2" y1="0.0" x2="249.2" y2="10.0" />
<line x1="250.2" y1="0.0" x2="250.2" y2="10.0" />
<line x1="253.4" y1="0.0" x2="253.4" y2="10.0" />
<line x1="254.4" y1="0.0" x2="254.4" y2="10.0" />
<line x1="257.7" y1="0.0" x2="257.7" y2="10.0" />
<line x1="258.7" y1="0.0" x2="258.7" y2="10.0" />
<line x1="262.0" y1="0.0" x2="262.0" y2="10.0" />
<line x1="265.2" y1="0.0" x2="265.2" y2="10.0" />
<line x1="266.2" y1="0.0" x2="266.2" y2="10.0" />
<line x1="269.5" y1="0.0" x2="269.5" y2="10.0" />
<line x1="270.5" y1="0.0" x2="270.5" y2="10.0" />
<line x1="273.7" y1="0.0" x2="273.7" y2="10.0" />
<line x1="274.7" y1="0.0" x2="274.7" y2="10.0" />
<line x1="278.0" y1="0.0" x2="278.0" y2="10.0" />
<line x1="279.0" y1="0.0" x2="279.0" y2="10.0" />
<line x1="282.3" y1="0.0" x2="282.3" y2="10.0" />
<line x1="285.5" y1="0.0" x2="285.5" y2="10.0" />
<line x1="286.5" y1="0.0" x2="286.5" y2="10.0" />
<line x1="289.8" y1="0.0" x2="289.8" y2="10.0" />
<line x1="290.8" y1="0.0" x2="290.8" y2="10.0" />
<line x1="294.0" y1="0.0" x2="294.0" y2="10.0" />
<line x1="295.1" y1="0.0" x2="295.1" y2="10.0" />
<line x1="298.3" y1="0.0" x2="298.3" y2="10.0" />
<line x1="299.3" y1="0.0" x2="299.3" y2="10.0" />
<line x1="302.6" y1="0.0" x2="302.6" y2="10.0" />
<line x1="305.8" y1="0.0" x2="305.8" y2="10.0" />
<line x1="306.8" y1="0.0" x2="306.8" y2="10.0" />
<line x1="310.1" y1="0.0" x2="310.1" y2="10.0" />
<line x1="311.1" y1="0.0" x2="311.1" y2="10.0" />
<line x1="314.4" y1="0.0" x2="314.4" y2="10.0" />
<line x1="315.4" y1="0.0" x2="315.4" y2="10.0" />
<line x1="318.6" y1="0.0" x2="318.6" y2="10.0" />
<line x1="321.9" y1="0.0" x2="321.9" y2="10.0" />
<line x1="322.9" y1="0.0" x2="322.9" y2="10.0" />
<line x1="326.1" y1="0.0" x2="326.1" y2="10.0" />
<line x1="327.1" y1="0.0" x2="327.1" y2="10.0" />
<line x1="330.4" y1="0.0" x2="330.4" y2="10.0" />
<line x1="331.4" y1="0.0" x2="331.4" y2="10.0" />
<line x1="334.7" y1="0.0" x2="334.7" y2="10.0" />
<line x1="335.7" y1="0.0" x2="335.7" y2="10.0" />
<line x1="338.9" y1="0.0" x2="338.9" y2="10.0" />
<line x1="342.2" y1="0.0" x2="342.2" y2="10.0" />
<line x1="343.2" y1="0.0" x2="343.2" y2="10.0" />
<line x1="346.4" y1="0.0" x2="346.4" y2="10.0" />
<line x1="347.4" y1="0.0" x2="347.4" y2="10.0" />
<line x1="350.7" y1="0.0" x2="350.7" y2="10.0" />
<line x1="351.7" y1="0.0" x2="351.7" y2="10.0" />
<line x1="355.0" y1="0.0" x2="355.0" y2="10.0" />
<line x1="356.0" y1="0.0" x2="356.0" y2="10.0" />
</g>
</svg>