<svg xmlns="http://www.w3.org/2000/svg" width="100.0" height="100.0" viewBox="-5.000 -5.000 110.000 110.000">
<g fill="none" stroke="black" stroke-width="0.0075%" transform="translate(0, 100.0000) scale(66.6667, -66.6667)">
<rect x="0.000" y="0.000" width="1.000" height="1.000" />
<rect x="0.500" y="0.500" width="1.000" height="1.000" />
</g>
</svg>