<svg xmlns="http://www.w3.org/2000/svg" width="105.1" height="100.0" viewBox="-57.573 -49.721 115.146 110.000">
<g fill="none" stroke="black" stroke-width="0.0090%" transform="translate(0, 10.5573) scale(55.2786, -55.2786)">
<polygon points="0.951,0.309 0.000,1.000 -0.951,0.309 -0.588,-0.809 0.588,-0.809" />
</g>
</svg>