<svg xmlns="http://www.w3.org/2000/svg" width="900.0" height="50.0" viewBox="-5.000 -30.000 910.000 60.000">
<g fill="none" stroke="black" stroke-width="0.0200%" transform="translate(0, 0.0000) scale(25.0000, -25.0000)">
<line x1="0.000" y1="-1.000" x2="0.000" y2="1.000" />
<line x1="6.000" y1="-1.000" x2="6.000" y2="1.000" />
<line x1="12.000" y1="-1.000" x2="12.000" y2="1.000" />
<line x1="15.000" y1="-1.000" x2="15.000" y2="1.000" />
<line x1="21.000" y1="-1.000" x2="21.000" y2="1.000" />
<line x1="27.000" y1="-1.000" x2="27.000" y2="1.000" />
<line x1="33.000" y1="-1.000" x2="33.000" y2="1.000" />
<line x1="36.000" y1="-1.000" x2="36.000" y2="1.000" />
<line x1="0.000" y1="0.000" x2="36.000" y2="0.000" />
</g>
</svg>