<svg xmlns="http://www.w3.org/2000/svg" width="115.4" height="100.0" viewBox="-62.705 -46.174 125.402 110.000">
<g fill="none" stroke="black" stroke-width="0.0111%" transform="translate(0, 17.6512) scale(45.2071, -45.2071)">
<polyline points="0.301,1.301 -0.976,-0.911 0.976,-0.911 -0.300,1.301 -1.276,-0.390 1.276,-0.390 0.301,1.301" />
</g>
</svg>