<svg xmlns="http://www.w3.org/2000/svg" width="100.0" height="100.0" viewBox="-50.55 -105.00 110.00 110.00">
<g fill="none" stroke="black" stroke-width="0.0562%" transform="translate(0, -100.0000) scale(8.8947, -8.8947)">
<polyline points="0.00,0.00 1.00,0.00 1.00,-1.00 1.71,-1.71 2.71,-1.71 2.71,-2.71 1.71,-2.71 1.00,-3.41 1.00,-4.41 1.71,-5.12 2.71,-5.12 3.41,-4.41 3.41,-3.41 4.41,-3.41 4.41,-4.41 5.12,-5.12 6.12,-5.12 6.12,-6.12 5.12,-6.12 4.41,-6.83 4.41,-7.83 3.41,-7.83 3.41,-6.83 2.71,-6.12 1.71,-6.12 1.00,-6.83 1.00,-7.83 1.71,-8.54 2.71,-8.54 2.71,-9.54 1.71,-9.54 1.00,-10.24 1.00,-11.24 0.00,-11.24 0.00,-10.24 -0.71,-9.54 -1.71,-9.54 -1.71,-8.54 -0.71,-8.54 -0.00,-7.83 -0.00,-6.83 -0.71,-6.12 -1.71,-6.12 -2.41,-6.83 -2.41,-7.83 -3.41,-7.83 -3.41,-6.83 -4.12,-6.12 -5.12,-6.12 -5.12,-5.12 -4.12,-5.12 -3.41,-4.41 -3.41,-3.41 -2.41,-3.41 -2.41,-4.41 -1.71,-5.12 -0.71,-5.12 -0.00,-4.41 -0.00,-3.41 -0.71,-2.71 -1.71,-2.71 -1.71,-1.71 -0.71,-1.71 -0.00,-1.00 -0.00,0.00" />
</g>
</svg>