<svg xmlns="http://www.w3.org/2000/svg" width="161.8" height="100.0" viewBox="-85.902 -55.000 171.803 110.000">
<g fill="none" stroke="black" stroke-width="0.0095%" transform="translate(0, 0.0000) scale(52.7046, -52.7046)">
<circle cx="-1.535" cy="0.000" r="0.009" />
<circle cx="0.000" cy="0.949" r="0.009" />
<polyline points="-1.535,-0.949 -1.504,-0.947 -1.474,-0.945 -1.443,-0.942 -1.412,-0.940 -1.382,-0.938 -1.351,-0.935 -1.320,-0.932 -1.289,-0.929 -1.259,-0.926 -1.228,-0.923 -1.197,-0.920 -1.167,-0.916 -1.136,-0.912 -1.105,-0.907 -1.075,-0.903 -1.044,-0.898 -1.013,-0.893 -0.982,-0.887 -0.952,-0.881 -0.921,-0.874 -0.890,-0.867 -0.860,-0.859 -0.829,-0.851 -0.798,-0.842 -0.768,-0.832 -0.737,-0.821 -0.706,-0.810 -0.675,-0.797 -0.645,-0.783 -0.614,-0.768 -0.583,-0.752 -0.553,-0.734 -0.522,-0.714 -0.491,-0.693 -0.461,-0.669 -0.430,-0.643 -0.399,-0.615 -0.368,-0.584 -0.338,-0.551 -0.307,-0.514 -0.276,-0.475 -0.246,-0.433 -0.215,-0.387 -0.184,-0.339 -0.154,-0.287 -0.123,-0.233 -0.092,-0.177 -0.061,-0.119 -0.031,-0.060 0.000,0.000 0.031,0.060 0.061,0.119 0.092,0.177 0.123,0.233 0.154,0.287 0.184,0.339 0.215,0.387 0.246,0.433 0.276,0.475 0.307,0.514 0.338,0.551 0.368,0.584 0.399,0.615 0.430,0.643 0.461,0.669 0.491,0.693 0.522,0.714 0.553,0.734 0.583,0.752 0.614,0.768 0.645,0.783 0.675,0.797 0.706,0.810 0.737,0.821 0.768,0.832 0.798,0.842 0.829,0.851 0.860,0.859 0.890,0.867 0.921,0.874 0.952,0.881 0.982,0.887 1.013,0.893 1.044,0.898 1.075,0.903 1.105,0.907 1.136,0.912 1.167,0.916 1.197,0.920 1.228,0.923 1.259,0.926 1.289,0.929 1.320,0.932 1.351,0.935 1.382,0.938 1.412,0.940 1.443,0.942 1.474,0.945 1.504,0.947 1.535,0.949" />
</g>
</svg>