<?xml version="1.0" encoding="UTF-8" standalone="no"?>
<!DOCTYPE svg PUBLIC "-//W3C//DTD SVG 1.1//EN"
 "http://www.w3.org/Graphics/SVG/1.1/DTD/svg11.dtd">
<!-- Generated by graphviz version 12.0.0 (0)
 -->
<!-- Pages: 1 -->
<svg width="61pt" height="54pt"
 viewBox="0.00 0.00 61.15 54.00" xmlns="http://www.w3.org/2000/svg" xmlns:xlink="http://www.w3.org/1999/xlink">
<g id="graph0" class="graph" transform="scale(0.729654 0.729654) rotate(0) translate(4 70.01)">
<!-- 1 -->
<g id="node1" class="node">
<title>1</title>
<ellipse fill="black" stroke="black" cx="1.8" cy="-63.73" rx="1.8" ry="1.8"/>
</g>
<!-- 2 -->
<g id="node2" class="node">
<title>2</title>
<ellipse fill="black" stroke="black" cx="74.01" cy="-64.21" rx="1.8" ry="1.8"/>
</g>
<!-- 1&#45;&gt;2 -->
<g id="edge1" class="edge">
<title>1&#45;&gt;2</title>
<path fill="none" stroke="black" stroke-width="0.75" d="M3.88,-63.75C12.95,-63.81 49.23,-64.05 65.75,-64.15"/>
<polygon fill="black" stroke="black" stroke-width="0.75" points="65.63,-65.9 70.64,-64.19 65.65,-62.4 65.63,-65.9"/>
</g>
<!-- 3 -->
<g id="node3" class="node">
<title>3</title>
<ellipse fill="black" stroke="black" cx="38.39" cy="-1.8" rx="1.8" ry="1.8"/>
</g>
<!-- 2&#45;&gt;3 -->
<g id="edge2" class="edge">
<title>2&#45;&gt;3</title>
<path fill="none" stroke="black" stroke-width="0.75" d="M72.98,-62.41C68.47,-54.5 50.29,-22.66 42.25,-8.56"/>
<polygon fill="black" stroke="black" stroke-width="0.75" points="43.92,-7.95 39.92,-4.48 40.88,-9.69 43.92,-7.95"/>
</g>
<!-- 3&#45;&gt;1 -->
<g id="edge3" class="edge">
<title>3&#45;&gt;1</title>
<path fill="none" stroke="black" stroke-width="0.75" d="M37.34,-3.59C32.7,-11.43 14.03,-43.04 5.77,-57.02"/>
<polygon fill="black" stroke="black" stroke-width="0.75" points="4.4,-55.88 3.37,-61.08 7.42,-57.67 4.4,-55.88"/>
</g>
</g>
</svg>
