<svg xmlns="http://www.w3.org/2000/svg" width="161.8" height="100.0" viewBox="14.0 -5.0 171.8 110.0">
<g fill="none" stroke="black" stroke-width="0.1917%" transform="translate(0, 100.0000) scale(2.6082, -2.6082)">
<circle cx="7.3" cy="0.0" r="0.2" />
<polyline points="7.3,0.0 10.9,0.7 14.6,2.2 18.2,3.8 21.9,5.6 25.5,7.5 29.2,9.6 32.8,11.8 36.5,14.1 40.1,16.5 43.8,19.0 47.4,21.6 51.1,24.2 54.7,26.9 58.4,29.7 62.0,32.5 65.7,35.4 69.3,38.3" />
</g>
</svg>