<svg xmlns="http://www.w3.org/2000/svg" width="100.0" height="100.0" viewBox="-55.000 -55.000 110.000 110.000">
<g fill="none" stroke="black" stroke-width="0.0100%" transform="translate(0, -0.0000) scale(50.0000, -50.0000)">
<circle cx="-1.000" cy="0.000" r="0.010" />
<circle cx="0.000" cy="1.000" r="0.010" />
<polyline points="1.000,0.000 1.000,0.063 1.000,0.126 0.998,0.190 0.992,0.255 0.982,0.319 0.963,0.381 0.934,0.440 0.894,0.492 0.842,0.534 0.779,0.566 0.708,0.586 0.633,0.594 0.556,0.592 0.481,0.582 0.412,0.566 0.348,0.549 0.292,0.532 0.243,0.517 0.201,0.507 0.164,0.504 0.131,0.509 0.101,0.528 0.072,0.567 0.041,0.646 -0.000,1.000 -0.041,0.646 -0.072,0.567 -0.101,0.528 -0.131,0.509 -0.164,0.504 -0.201,0.507 -0.243,0.517 -0.292,0.532 -0.348,0.549 -0.412,0.566 -0.481,0.582 -0.556,0.592 -0.633,0.594 -0.708,0.586 -0.779,0.566 -0.842,0.534 -0.894,0.492 -0.934,0.440 -0.963,0.381 -0.982,0.319 -0.992,0.255 -0.998,0.190 -1.000,0.126 -1.000,0.063 -1.000,-0.000 -1.000,-0.063 -1.000,-0.126 -0.998,-0.190 -0.992,-0.255 -0.982,-0.319 -0.963,-0.381 -0.934,-0.440 -0.894,-0.492 -0.842,-0.534 -0.779,-0.566 -0.708,-0.586 -0.633,-0.594 -0.556,-0.592 -0.481,-0.582 -0.412,-0.566 -0.348,-0.549 -0.292,-0.532 -0.243,-0.517 -0.201,-0.507 -0.164,-0.504 -0.131,-0.509 -0.101,-0.528 -0.072,-0.567 -0.041,-0.646 -0.000,-1.000 0.041,-0.646 0.072,-0.567 0.101,-0.528 0.131,-0.509 0.164,-0.504 0.201,-0.507 0.243,-0.517 0.292,-0.532 0.348,-0.549 0.412,-0.566 0.481,-0.582 0.556,-0.592 0.633,-0.594 0.708,-0.586 0.779,-0.566 0.842,-0.534 0.894,-0.492 0.934,-0.440 0.963,-0.381 0.982,-0.319 0.992,-0.255 0.998,-0.190 1.000,-0.126 1.000,-0.063" />
</g>
</svg>