<svg xmlns="http://www.w3.org/2000/svg" width="161.8" height="100.0" viewBox="-3.382 -138.333 171.803 110.000">
<g fill="none" stroke="black" stroke-width="0.0037%" transform="translate(0, -166.6667) scale(133.3333, -133.3333)">
<polyline points="0.012,-1.000 0.024,-0.986 0.036,-0.973 0.049,-0.959 0.061,-0.946 0.073,-0.933 0.085,-0.920 0.097,-0.908 0.109,-0.895 0.121,-0.883 0.133,-0.871 0.146,-0.859 0.158,-0.847 0.170,-0.835 0.182,-0.824 0.194,-0.812 0.206,-0.801 0.218,-0.790 0.231,-0.779 0.243,-0.768 0.255,-0.758 0.267,-0.747 0.279,-0.737 0.291,-0.727 0.303,-0.717 0.316,-0.707 0.328,-0.697 0.340,-0.688 0.352,-0.678 0.364,-0.669 0.376,-0.660 0.388,-0.651 0.400,-0.642 0.413,-0.633 0.425,-0.624 0.437,-0.616 0.449,-0.607 0.461,-0.599 0.473,-0.590 0.485,-0.582 0.498,-0.574 0.510,-0.566 0.522,-0.559 0.534,-0.551 0.546,-0.543 0.558,-0.536 0.570,-0.529 0.582,-0.521 0.595,-0.514 0.607,-0.507 0.619,-0.500 0.631,-0.493 0.643,-0.486 0.655,-0.480 0.667,-0.473 0.680,-0.467 0.692,-0.460 0.704,-0.454 0.716,-0.448 0.728,-0.441 0.740,-0.435 0.752,-0.429 0.765,-0.423 0.777,-0.418 0.789,-0.412 0.801,-0.406 0.813,-0.401 0.825,-0.395 0.837,-0.390 0.849,-0.384 0.862,-0.379 0.874,-0.374 0.886,-0.369 0.898,-0.363 0.910,-0.358 0.922,-0.354 0.934,-0.349 0.947,-0.344 0.959,-0.339 0.971,-0.334 0.983,-0.330 0.995,-0.325 1.007,-0.321 1.019,-0.316 1.031,-0.312 1.044,-0.308 1.056,-0.304 1.068,-0.299 1.080,-0.295 1.092,-0.291 1.104,-0.287 1.116,-0.283 1.129,-0.279 1.141,-0.275 1.153,-0.272 1.165,-0.268 1.177,-0.264 1.189,-0.261 1.201,-0.257 1.214,-0.253 1.226,-0.250" />
</g>
</svg>