<svg xmlns="http://www.w3.org/2000/svg" width="161.8" height="100.0" viewBox="4.52 -5.00 171.80 110.00">
<g fill="none" stroke="black" stroke-width="0.0438%" transform="translate(0, 100.0000) scale(11.4222, -11.4222)">
<circle cx="0.83" cy="0.00" r="0.04" />
<line x1="0.83" y1="0.00" x2="0.83" y2="0.00" />
<line x1="1.67" y1="0.00" x2="1.67" y2="6.17" />
<line x1="2.50" y1="0.00" x2="2.50" y2="5.39" />
<line x1="3.33" y1="0.00" x2="3.33" y2="4.91" />
<line x1="4.17" y1="0.00" x2="4.17" y2="4.32" />
<line x1="5.00" y1="0.00" x2="5.00" y2="8.39" />
<line x1="5.83" y1="0.00" x2="5.83" y2="5.13" />
<line x1="6.67" y1="0.00" x2="6.67" y2="3.58" />
<line x1="7.50" y1="0.00" x2="7.50" y2="6.46" />
<line x1="8.33" y1="0.00" x2="8.33" y2="2.58" />
<line x1="9.17" y1="0.00" x2="9.17" y2="6.13" />
<line x1="10.00" y1="0.00" x2="10.00" y2="6.70" />
<line x1="10.83" y1="0.00" x2="10.83" y2="5.32" />
<line x1="11.67" y1="0.00" x2="11.67" y2="3.91" />
<line x1="12.50" y1="0.00" x2="12.50" y2="8.75" />
<line x1="13.33" y1="0.00" x2="13.33" y2="4.81" />
<line x1="14.17" y1="0.00" x2="14.17" y2="5.49" />
<line x1="15.00" y1="0.00" x2="15.00" y2="6.91" />
</g>
</svg>