<?xml version="1.0" encoding="UTF-8" standalone="no"?>
<!DOCTYPE svg PUBLIC "-//W3C//DTD SVG 1.1//EN"
 "http://www.w3.org/Graphics/SVG/1.1/DTD/svg11.dtd">
<!-- Generated by graphviz version 12.0.0 (0)
 -->
<!-- Pages: 1 -->
<svg width="87pt" height="42pt"
 viewBox="0.00 0.00 87.00 42.38" xmlns="http://www.w3.org/2000/svg" xmlns:xlink="http://www.w3.org/1999/xlink">
<g id="graph0" class="graph" transform="scale(0.170055 0.170055) rotate(0) translate(4 245.2)">
<!-- 1 -->
<g id="node1" class="node">
<title>1</title>
<ellipse fill="black" stroke="black" cx="259.8" cy="-239.4" rx="1.8" ry="1.8"/>
</g>
<!-- 2 -->
<g id="node2" class="node">
<title>2</title>
<ellipse fill="black" stroke="black" cx="193.8" cy="-199.8" rx="1.8" ry="1.8"/>
</g>
<!-- 1&#45;&gt;2 -->
<g id="edge1" class="edge">
<title>1&#45;&gt;2</title>
<path fill="none" stroke="black" stroke-width="0.75" d="M258.65,-237.75C251.77,-233.82 215.65,-213.25 200.5,-204.62"/>
<polygon fill="black" stroke="black" stroke-width="0.75" points="201.39,-203.11 196.18,-202.16 199.66,-206.15 201.39,-203.11"/>
</g>
<!-- 20 -->
<g id="node20" class="node">
<title>20</title>
<ellipse fill="black" stroke="black" cx="259.8" cy="-199.8" rx="1.8" ry="1.8"/>
</g>
<!-- 1&#45;&gt;20 -->
<g id="edge2" class="edge">
<title>1&#45;&gt;20</title>
<path fill="none" stroke="black" stroke-width="0.75" d="M259.8,-237.15C259.8,-232.69 259.8,-217.34 259.8,-208.07"/>
<polygon fill="black" stroke="black" stroke-width="0.75" points="261.55,-208.23 259.8,-203.23 258.05,-208.23 261.55,-208.23"/>
</g>
<!-- 37 -->
<g id="node37" class="node">
<title>37</title>
<ellipse fill="black" stroke="black" cx="388.8" cy="-199.8" rx="1.8" ry="1.8"/>
</g>
<!-- 1&#45;&gt;37 -->
<g id="edge3" class="edge">
<title>1&#45;&gt;37</title>
<path fill="none" stroke="black" stroke-width="0.75" d="M261.25,-237.98C273.24,-234.48 356.26,-210.28 381.52,-202.92"/>
<polygon fill="black" stroke="black" stroke-width="0.75" points="381.79,-204.67 386.1,-201.59 380.81,-201.31 381.79,-204.67"/>
</g>
<!-- 3 -->
<g id="node3" class="node">
<title>3</title>
<ellipse fill="black" stroke="black" cx="116.8" cy="-160.2" rx="1.8" ry="1.8"/>
</g>
<!-- 2&#45;&gt;3 -->
<g id="edge4" class="edge">
<title>2&#45;&gt;3</title>
<path fill="none" stroke="black" stroke-width="0.75" d="M192.46,-198.15C184.22,-194.12 140.04,-172.55 123.27,-164.36"/>
<polygon fill="black" stroke="black" stroke-width="0.75" points="124.22,-162.88 118.96,-162.26 122.69,-166.02 124.22,-162.88"/>
</g>
<!-- 4 -->
<g id="node4" class="node">
<title>4</title>
<ellipse fill="black" stroke="black" cx="61.8" cy="-120.6" rx="1.8" ry="1.8"/>
</g>
<!-- 3&#45;&gt;4 -->
<g id="edge5" class="edge">
<title>3&#45;&gt;4</title>
<path fill="none" stroke="black" stroke-width="0.75" d="M115.85,-158.55C110.16,-154.66 80.55,-134.42 67.73,-125.65"/>
<polygon fill="black" stroke="black" stroke-width="0.75" points="69.01,-124.41 63.9,-123.03 67.04,-127.3 69.01,-124.41"/>
</g>
<!-- 10 -->
<g id="node10" class="node">
<title>10</title>
<ellipse fill="black" stroke="black" cx="94.8" cy="-120.6" rx="1.8" ry="1.8"/>
</g>
<!-- 3&#45;&gt;10 -->
<g id="edge6" class="edge">
<title>3&#45;&gt;10</title>
<path fill="none" stroke="black" stroke-width="0.75" d="M116.26,-158.27C113.81,-154.09 103.71,-136.82 98.28,-127.55"/>
<polygon fill="black" stroke="black" stroke-width="0.75" points="99.86,-126.78 95.82,-123.35 96.84,-128.55 99.86,-126.78"/>
</g>
<!-- 15 -->
<g id="node15" class="node">
<title>15</title>
<ellipse fill="black" stroke="black" cx="138.8" cy="-120.6" rx="1.8" ry="1.8"/>
</g>
<!-- 3&#45;&gt;15 -->
<g id="edge7" class="edge">
<title>3&#45;&gt;15</title>
<path fill="none" stroke="black" stroke-width="0.75" d="M117.34,-158.27C119.79,-154.09 129.89,-136.82 135.32,-127.55"/>
<polygon fill="black" stroke="black" stroke-width="0.75" points="136.76,-128.55 137.78,-123.35 133.74,-126.78 136.76,-128.55"/>
</g>
<!-- 5 -->
<g id="node5" class="node">
<title>5</title>
<ellipse fill="black" stroke="black" cx="34.8" cy="-81" rx="1.8" ry="1.8"/>
</g>
<!-- 4&#45;&gt;5 -->
<g id="edge8" class="edge">
<title>4&#45;&gt;5</title>
<path fill="none" stroke="black" stroke-width="0.75" d="M61.13,-118.67C58.1,-114.45 45.49,-96.88 38.88,-87.68"/>
<polygon fill="black" stroke="black" stroke-width="0.75" points="40.35,-86.73 36.01,-83.69 37.51,-88.77 40.35,-86.73"/>
</g>
<!-- 6 -->
<g id="node6" class="node">
<title>6</title>
<ellipse fill="black" stroke="black" cx="1.8" cy="-41.4" rx="1.8" ry="1.8"/>
</g>
<!-- 5&#45;&gt;6 -->
<g id="edge9" class="edge">
<title>5&#45;&gt;6</title>
<path fill="none" stroke="black" stroke-width="0.75" d="M33.98,-79.07C30.17,-74.73 13.95,-56.25 6.1,-47.3"/>
<polygon fill="black" stroke="black" stroke-width="0.75" points="7.84,-46.62 3.22,-44.02 5.21,-48.93 7.84,-46.62"/>
</g>
<!-- 8 -->
<g id="node8" class="node">
<title>8</title>
<ellipse fill="black" stroke="black" cx="23.8" cy="-41.4" rx="1.8" ry="1.8"/>
</g>
<!-- 5&#45;&gt;8 -->
<g id="edge10" class="edge">
<title>5&#45;&gt;8</title>
<path fill="none" stroke="black" stroke-width="0.75" d="M34.43,-78.75C33.1,-74.18 28.41,-58.16 25.73,-48.98"/>
<polygon fill="black" stroke="black" stroke-width="0.75" points="27.42,-48.54 24.34,-44.23 24.06,-49.52 27.42,-48.54"/>
</g>
<!-- 9 -->
<g id="node9" class="node">
<title>9</title>
<ellipse fill="black" stroke="black" cx="45.8" cy="-41.4" rx="1.8" ry="1.8"/>
</g>
<!-- 5&#45;&gt;9 -->
<g id="edge11" class="edge">
<title>5&#45;&gt;9</title>
<path fill="none" stroke="black" stroke-width="0.75" d="M35.17,-78.75C36.5,-74.18 41.19,-58.16 43.87,-48.98"/>
<polygon fill="black" stroke="black" stroke-width="0.75" points="45.54,-49.52 45.26,-44.23 42.18,-48.54 45.54,-49.52"/>
</g>
<!-- 7 -->
<g id="node7" class="node">
<title>7</title>
<ellipse fill="black" stroke="black" cx="1.8" cy="-1.8" rx="1.8" ry="1.8"/>
</g>
<!-- 6&#45;&gt;7 -->
<g id="edge12" class="edge">
<title>6&#45;&gt;7</title>
<path fill="none" stroke="black" stroke-width="0.75" d="M1.8,-39.15C1.8,-34.69 1.8,-19.34 1.8,-10.07"/>
<polygon fill="black" stroke="black" stroke-width="0.75" points="3.55,-10.23 1.8,-5.23 0.05,-10.23 3.55,-10.23"/>
</g>
<!-- 11 -->
<g id="node11" class="node">
<title>11</title>
<ellipse fill="black" stroke="black" cx="61.8" cy="-81" rx="1.8" ry="1.8"/>
</g>
<!-- 10&#45;&gt;11 -->
<g id="edge13" class="edge">
<title>10&#45;&gt;11</title>
<path fill="none" stroke="black" stroke-width="0.75" d="M93.98,-118.67C90.17,-114.33 73.95,-95.85 66.1,-86.9"/>
<polygon fill="black" stroke="black" stroke-width="0.75" points="67.84,-86.22 63.22,-83.62 65.21,-88.53 67.84,-86.22"/>
</g>
<!-- 13 -->
<g id="node13" class="node">
<title>13</title>
<ellipse fill="black" stroke="black" cx="83.8" cy="-81" rx="1.8" ry="1.8"/>
</g>
<!-- 10&#45;&gt;13 -->
<g id="edge14" class="edge">
<title>10&#45;&gt;13</title>
<path fill="none" stroke="black" stroke-width="0.75" d="M94.43,-118.35C93.1,-113.78 88.41,-97.76 85.73,-88.58"/>
<polygon fill="black" stroke="black" stroke-width="0.75" points="87.42,-88.14 84.34,-83.83 84.06,-89.12 87.42,-88.14"/>
</g>
<!-- 14 -->
<g id="node14" class="node">
<title>14</title>
<ellipse fill="black" stroke="black" cx="105.8" cy="-81" rx="1.8" ry="1.8"/>
</g>
<!-- 10&#45;&gt;14 -->
<g id="edge15" class="edge">
<title>10&#45;&gt;14</title>
<path fill="none" stroke="black" stroke-width="0.75" d="M95.17,-118.35C96.5,-113.78 101.19,-97.76 103.87,-88.58"/>
<polygon fill="black" stroke="black" stroke-width="0.75" points="105.54,-89.12 105.26,-83.83 102.18,-88.14 105.54,-89.12"/>
</g>
<!-- 12 -->
<g id="node12" class="node">
<title>12</title>
<ellipse fill="black" stroke="black" cx="67.8" cy="-41.4" rx="1.8" ry="1.8"/>
</g>
<!-- 11&#45;&gt;12 -->
<g id="edge16" class="edge">
<title>11&#45;&gt;12</title>
<path fill="none" stroke="black" stroke-width="0.75" d="M62,-78.75C62.73,-74.18 65.29,-58.16 66.75,-48.98"/>
<polygon fill="black" stroke="black" stroke-width="0.75" points="68.44,-49.48 67.5,-44.26 64.99,-48.93 68.44,-49.48"/>
</g>
<!-- 16 -->
<g id="node16" class="node">
<title>16</title>
<ellipse fill="black" stroke="black" cx="127.8" cy="-81" rx="1.8" ry="1.8"/>
</g>
<!-- 15&#45;&gt;16 -->
<g id="edge17" class="edge">
<title>15&#45;&gt;16</title>
<path fill="none" stroke="black" stroke-width="0.75" d="M138.43,-118.35C137.1,-113.78 132.41,-97.76 129.73,-88.58"/>
<polygon fill="black" stroke="black" stroke-width="0.75" points="131.42,-88.14 128.34,-83.83 128.06,-89.12 131.42,-88.14"/>
</g>
<!-- 18 -->
<g id="node18" class="node">
<title>18</title>
<ellipse fill="black" stroke="black" cx="149.8" cy="-81" rx="1.8" ry="1.8"/>
</g>
<!-- 15&#45;&gt;18 -->
<g id="edge18" class="edge">
<title>15&#45;&gt;18</title>
<path fill="none" stroke="black" stroke-width="0.75" d="M139.17,-118.35C140.5,-113.78 145.19,-97.76 147.87,-88.58"/>
<polygon fill="black" stroke="black" stroke-width="0.75" points="149.54,-89.12 149.26,-83.83 146.18,-88.14 149.54,-89.12"/>
</g>
<!-- 19 -->
<g id="node19" class="node">
<title>19</title>
<ellipse fill="black" stroke="black" cx="171.8" cy="-81" rx="1.8" ry="1.8"/>
</g>
<!-- 15&#45;&gt;19 -->
<g id="edge19" class="edge">
<title>15&#45;&gt;19</title>
<path fill="none" stroke="black" stroke-width="0.75" d="M139.62,-118.67C143.43,-114.33 159.65,-95.85 167.5,-86.9"/>
<polygon fill="black" stroke="black" stroke-width="0.75" points="168.39,-88.53 170.38,-83.62 165.76,-86.22 168.39,-88.53"/>
</g>
<!-- 17 -->
<g id="node17" class="node">
<title>17</title>
<ellipse fill="black" stroke="black" cx="127.8" cy="-41.4" rx="1.8" ry="1.8"/>
</g>
<!-- 16&#45;&gt;17 -->
<g id="edge20" class="edge">
<title>16&#45;&gt;17</title>
<path fill="none" stroke="black" stroke-width="0.75" d="M127.8,-78.75C127.8,-74.29 127.8,-58.94 127.8,-49.67"/>
<polygon fill="black" stroke="black" stroke-width="0.75" points="129.55,-49.83 127.8,-44.83 126.05,-49.83 129.55,-49.83"/>
</g>
<!-- 21 -->
<g id="node21" class="node">
<title>21</title>
<ellipse fill="black" stroke="black" cx="226.8" cy="-160.2" rx="1.8" ry="1.8"/>
</g>
<!-- 20&#45;&gt;21 -->
<g id="edge21" class="edge">
<title>20&#45;&gt;21</title>
<path fill="none" stroke="black" stroke-width="0.75" d="M258.98,-197.87C255.17,-193.53 238.95,-175.05 231.1,-166.1"/>
<polygon fill="black" stroke="black" stroke-width="0.75" points="232.84,-165.42 228.22,-162.82 230.21,-167.73 232.84,-165.42"/>
</g>
<!-- 27 -->
<g id="node27" class="node">
<title>27</title>
<ellipse fill="black" stroke="black" cx="259.8" cy="-160.2" rx="1.8" ry="1.8"/>
</g>
<!-- 20&#45;&gt;27 -->
<g id="edge22" class="edge">
<title>20&#45;&gt;27</title>
<path fill="none" stroke="black" stroke-width="0.75" d="M259.8,-197.55C259.8,-193.09 259.8,-177.74 259.8,-168.47"/>
<polygon fill="black" stroke="black" stroke-width="0.75" points="261.55,-168.63 259.8,-163.63 258.05,-168.63 261.55,-168.63"/>
</g>
<!-- 32 -->
<g id="node32" class="node">
<title>32</title>
<ellipse fill="black" stroke="black" cx="314.8" cy="-160.2" rx="1.8" ry="1.8"/>
</g>
<!-- 20&#45;&gt;32 -->
<g id="edge23" class="edge">
<title>20&#45;&gt;32</title>
<path fill="none" stroke="black" stroke-width="0.75" d="M260.75,-198.15C266.44,-194.26 296.05,-174.02 308.87,-165.25"/>
<polygon fill="black" stroke="black" stroke-width="0.75" points="309.56,-166.9 312.7,-162.63 307.59,-164.01 309.56,-166.9"/>
</g>
<!-- 22 -->
<g id="node22" class="node">
<title>22</title>
<ellipse fill="black" stroke="black" cx="215.8" cy="-120.6" rx="1.8" ry="1.8"/>
</g>
<!-- 21&#45;&gt;22 -->
<g id="edge24" class="edge">
<title>21&#45;&gt;22</title>
<path fill="none" stroke="black" stroke-width="0.75" d="M226.43,-157.95C225.1,-153.38 220.41,-137.36 217.73,-128.18"/>
<polygon fill="black" stroke="black" stroke-width="0.75" points="219.42,-127.74 216.34,-123.43 216.06,-128.72 219.42,-127.74"/>
</g>
<!-- 23 -->
<g id="node23" class="node">
<title>23</title>
<ellipse fill="black" stroke="black" cx="193.8" cy="-81" rx="1.8" ry="1.8"/>
</g>
<!-- 22&#45;&gt;23 -->
<g id="edge25" class="edge">
<title>22&#45;&gt;23</title>
<path fill="none" stroke="black" stroke-width="0.75" d="M215.26,-118.67C212.81,-114.49 202.71,-97.22 197.28,-87.95"/>
<polygon fill="black" stroke="black" stroke-width="0.75" points="198.86,-87.18 194.82,-83.75 195.84,-88.95 198.86,-87.18"/>
</g>
<!-- 25 -->
<g id="node25" class="node">
<title>25</title>
<ellipse fill="black" stroke="black" cx="215.8" cy="-81" rx="1.8" ry="1.8"/>
</g>
<!-- 22&#45;&gt;25 -->
<g id="edge26" class="edge">
<title>22&#45;&gt;25</title>
<path fill="none" stroke="black" stroke-width="0.75" d="M215.8,-118.35C215.8,-113.89 215.8,-98.54 215.8,-89.27"/>
<polygon fill="black" stroke="black" stroke-width="0.75" points="217.55,-89.43 215.8,-84.43 214.05,-89.43 217.55,-89.43"/>
</g>
<!-- 26 -->
<g id="node26" class="node">
<title>26</title>
<ellipse fill="black" stroke="black" cx="237.8" cy="-81" rx="1.8" ry="1.8"/>
</g>
<!-- 22&#45;&gt;26 -->
<g id="edge27" class="edge">
<title>22&#45;&gt;26</title>
<path fill="none" stroke="black" stroke-width="0.75" d="M216.34,-118.67C218.79,-114.49 228.89,-97.22 234.32,-87.95"/>
<polygon fill="black" stroke="black" stroke-width="0.75" points="235.76,-88.95 236.78,-83.75 232.74,-87.18 235.76,-88.95"/>
</g>
<!-- 24 -->
<g id="node24" class="node">
<title>24</title>
<ellipse fill="black" stroke="black" cx="193.8" cy="-41.4" rx="1.8" ry="1.8"/>
</g>
<!-- 23&#45;&gt;24 -->
<g id="edge28" class="edge">
<title>23&#45;&gt;24</title>
<path fill="none" stroke="black" stroke-width="0.75" d="M193.8,-78.75C193.8,-74.29 193.8,-58.94 193.8,-49.67"/>
<polygon fill="black" stroke="black" stroke-width="0.75" points="195.55,-49.83 193.8,-44.83 192.05,-49.83 195.55,-49.83"/>
</g>
<!-- 28 -->
<g id="node28" class="node">
<title>28</title>
<ellipse fill="black" stroke="black" cx="237.8" cy="-120.6" rx="1.8" ry="1.8"/>
</g>
<!-- 27&#45;&gt;28 -->
<g id="edge29" class="edge">
<title>27&#45;&gt;28</title>
<path fill="none" stroke="black" stroke-width="0.75" d="M259.26,-158.27C256.81,-154.09 246.71,-136.82 241.28,-127.55"/>
<polygon fill="black" stroke="black" stroke-width="0.75" points="242.86,-126.78 238.82,-123.35 239.84,-128.55 242.86,-126.78"/>
</g>
<!-- 30 -->
<g id="node30" class="node">
<title>30</title>
<ellipse fill="black" stroke="black" cx="259.8" cy="-120.6" rx="1.8" ry="1.8"/>
</g>
<!-- 27&#45;&gt;30 -->
<g id="edge30" class="edge">
<title>27&#45;&gt;30</title>
<path fill="none" stroke="black" stroke-width="0.75" d="M259.8,-157.95C259.8,-153.49 259.8,-138.14 259.8,-128.87"/>
<polygon fill="black" stroke="black" stroke-width="0.75" points="261.55,-129.03 259.8,-124.03 258.05,-129.03 261.55,-129.03"/>
</g>
<!-- 31 -->
<g id="node31" class="node">
<title>31</title>
<ellipse fill="black" stroke="black" cx="281.8" cy="-120.6" rx="1.8" ry="1.8"/>
</g>
<!-- 27&#45;&gt;31 -->
<g id="edge31" class="edge">
<title>27&#45;&gt;31</title>
<path fill="none" stroke="black" stroke-width="0.75" d="M260.34,-158.27C262.79,-154.09 272.89,-136.82 278.32,-127.55"/>
<polygon fill="black" stroke="black" stroke-width="0.75" points="279.76,-128.55 280.78,-123.35 276.74,-126.78 279.76,-128.55"/>
</g>
<!-- 29 -->
<g id="node29" class="node">
<title>29</title>
<ellipse fill="black" stroke="black" cx="259.8" cy="-81" rx="1.8" ry="1.8"/>
</g>
<!-- 28&#45;&gt;29 -->
<g id="edge32" class="edge">
<title>28&#45;&gt;29</title>
<path fill="none" stroke="black" stroke-width="0.75" d="M238.34,-118.67C240.79,-114.49 250.89,-97.22 256.32,-87.95"/>
<polygon fill="black" stroke="black" stroke-width="0.75" points="257.76,-88.95 258.78,-83.75 254.74,-87.18 257.76,-88.95"/>
</g>
<!-- 33 -->
<g id="node33" class="node">
<title>33</title>
<ellipse fill="black" stroke="black" cx="303.8" cy="-120.6" rx="1.8" ry="1.8"/>
</g>
<!-- 32&#45;&gt;33 -->
<g id="edge33" class="edge">
<title>32&#45;&gt;33</title>
<path fill="none" stroke="black" stroke-width="0.75" d="M314.43,-157.95C313.1,-153.38 308.41,-137.36 305.73,-128.18"/>
<polygon fill="black" stroke="black" stroke-width="0.75" points="307.42,-127.74 304.34,-123.43 304.06,-128.72 307.42,-127.74"/>
</g>
<!-- 35 -->
<g id="node35" class="node">
<title>35</title>
<ellipse fill="black" stroke="black" cx="325.8" cy="-120.6" rx="1.8" ry="1.8"/>
</g>
<!-- 32&#45;&gt;35 -->
<g id="edge34" class="edge">
<title>32&#45;&gt;35</title>
<path fill="none" stroke="black" stroke-width="0.75" d="M315.17,-157.95C316.5,-153.38 321.19,-137.36 323.87,-128.18"/>
<polygon fill="black" stroke="black" stroke-width="0.75" points="325.54,-128.72 325.26,-123.43 322.18,-127.74 325.54,-128.72"/>
</g>
<!-- 36 -->
<g id="node36" class="node">
<title>36</title>
<ellipse fill="black" stroke="black" cx="347.8" cy="-120.6" rx="1.8" ry="1.8"/>
</g>
<!-- 32&#45;&gt;36 -->
<g id="edge35" class="edge">
<title>32&#45;&gt;36</title>
<path fill="none" stroke="black" stroke-width="0.75" d="M315.62,-158.27C319.43,-153.93 335.65,-135.45 343.5,-126.5"/>
<polygon fill="black" stroke="black" stroke-width="0.75" points="344.39,-128.13 346.38,-123.22 341.76,-125.82 344.39,-128.13"/>
</g>
<!-- 34 -->
<g id="node34" class="node">
<title>34</title>
<ellipse fill="black" stroke="black" cx="303.8" cy="-81" rx="1.8" ry="1.8"/>
</g>
<!-- 33&#45;&gt;34 -->
<g id="edge36" class="edge">
<title>33&#45;&gt;34</title>
<path fill="none" stroke="black" stroke-width="0.75" d="M303.8,-118.35C303.8,-113.89 303.8,-98.54 303.8,-89.27"/>
<polygon fill="black" stroke="black" stroke-width="0.75" points="305.55,-89.43 303.8,-84.43 302.05,-89.43 305.55,-89.43"/>
</g>
<!-- 38 -->
<g id="node38" class="node">
<title>38</title>
<ellipse fill="black" stroke="black" cx="374.8" cy="-160.2" rx="1.8" ry="1.8"/>
</g>
<!-- 37&#45;&gt;38 -->
<g id="edge37" class="edge">
<title>37&#45;&gt;38</title>
<path fill="none" stroke="black" stroke-width="0.75" d="M388.33,-197.55C386.61,-192.93 380.55,-176.63 377.15,-167.51"/>
<polygon fill="black" stroke="black" stroke-width="0.75" points="378.86,-167.08 375.47,-163.01 375.58,-168.3 378.86,-167.08"/>
</g>
<!-- 44 -->
<g id="node44" class="node">
<title>44</title>
<ellipse fill="black" stroke="black" cx="402.8" cy="-160.2" rx="1.8" ry="1.8"/>
</g>
<!-- 37&#45;&gt;44 -->
<g id="edge38" class="edge">
<title>37&#45;&gt;44</title>
<path fill="none" stroke="black" stroke-width="0.75" d="M389.27,-197.55C390.99,-192.93 397.05,-176.63 400.45,-167.51"/>
<polygon fill="black" stroke="black" stroke-width="0.75" points="402.02,-168.3 402.13,-163.01 398.74,-167.08 402.02,-168.3"/>
</g>
<!-- 49 -->
<g id="node49" class="node">
<title>49</title>
<ellipse fill="black" stroke="black" cx="468.8" cy="-160.2" rx="1.8" ry="1.8"/>
</g>
<!-- 37&#45;&gt;49 -->
<g id="edge39" class="edge">
<title>37&#45;&gt;49</title>
<path fill="none" stroke="black" stroke-width="0.75" d="M390.19,-198.15C398.76,-194.12 444.69,-172.53 462.1,-164.35"/>
<polygon fill="black" stroke="black" stroke-width="0.75" points="462.57,-166.06 466.35,-162.35 461.08,-162.9 462.57,-166.06"/>
</g>
<!-- 39 -->
<g id="node39" class="node">
<title>39</title>
<ellipse fill="black" stroke="black" cx="369.8" cy="-120.6" rx="1.8" ry="1.8"/>
</g>
<!-- 38&#45;&gt;39 -->
<g id="edge40" class="edge">
<title>38&#45;&gt;39</title>
<path fill="none" stroke="black" stroke-width="0.75" d="M374.63,-157.95C374.03,-153.38 371.9,-137.36 370.68,-128.18"/>
<polygon fill="black" stroke="black" stroke-width="0.75" points="372.44,-128.19 370.05,-123.47 368.97,-128.65 372.44,-128.19"/>
</g>
<!-- 40 -->
<g id="node40" class="node">
<title>40</title>
<ellipse fill="black" stroke="black" cx="336.8" cy="-81" rx="1.8" ry="1.8"/>
</g>
<!-- 39&#45;&gt;40 -->
<g id="edge41" class="edge">
<title>39&#45;&gt;40</title>
<path fill="none" stroke="black" stroke-width="0.75" d="M368.98,-118.67C365.17,-114.33 348.95,-95.85 341.1,-86.9"/>
<polygon fill="black" stroke="black" stroke-width="0.75" points="342.84,-86.22 338.22,-83.62 340.21,-88.53 342.84,-86.22"/>
</g>
<!-- 42 -->
<g id="node42" class="node">
<title>42</title>
<ellipse fill="black" stroke="black" cx="358.8" cy="-81" rx="1.8" ry="1.8"/>
</g>
<!-- 39&#45;&gt;42 -->
<g id="edge42" class="edge">
<title>39&#45;&gt;42</title>
<path fill="none" stroke="black" stroke-width="0.75" d="M369.43,-118.35C368.1,-113.78 363.41,-97.76 360.73,-88.58"/>
<polygon fill="black" stroke="black" stroke-width="0.75" points="362.42,-88.14 359.34,-83.83 359.06,-89.12 362.42,-88.14"/>
</g>
<!-- 43 -->
<g id="node43" class="node">
<title>43</title>
<ellipse fill="black" stroke="black" cx="380.8" cy="-81" rx="1.8" ry="1.8"/>
</g>
<!-- 39&#45;&gt;43 -->
<g id="edge43" class="edge">
<title>39&#45;&gt;43</title>
<path fill="none" stroke="black" stroke-width="0.75" d="M370.17,-118.35C371.5,-113.78 376.19,-97.76 378.87,-88.58"/>
<polygon fill="black" stroke="black" stroke-width="0.75" points="380.54,-89.12 380.26,-83.83 377.18,-88.14 380.54,-89.12"/>
</g>
<!-- 41 -->
<g id="node41" class="node">
<title>41</title>
<ellipse fill="black" stroke="black" cx="336.8" cy="-41.4" rx="1.8" ry="1.8"/>
</g>
<!-- 40&#45;&gt;41 -->
<g id="edge44" class="edge">
<title>40&#45;&gt;41</title>
<path fill="none" stroke="black" stroke-width="0.75" d="M336.8,-78.75C336.8,-74.29 336.8,-58.94 336.8,-49.67"/>
<polygon fill="black" stroke="black" stroke-width="0.75" points="338.55,-49.83 336.8,-44.83 335.05,-49.83 338.55,-49.83"/>
</g>
<!-- 45 -->
<g id="node45" class="node">
<title>45</title>
<ellipse fill="black" stroke="black" cx="391.8" cy="-120.6" rx="1.8" ry="1.8"/>
</g>
<!-- 44&#45;&gt;45 -->
<g id="edge45" class="edge">
<title>44&#45;&gt;45</title>
<path fill="none" stroke="black" stroke-width="0.75" d="M402.43,-157.95C401.1,-153.38 396.41,-137.36 393.73,-128.18"/>
<polygon fill="black" stroke="black" stroke-width="0.75" points="395.42,-127.74 392.34,-123.43 392.06,-128.72 395.42,-127.74"/>
</g>
<!-- 47 -->
<g id="node47" class="node">
<title>47</title>
<ellipse fill="black" stroke="black" cx="413.8" cy="-120.6" rx="1.8" ry="1.8"/>
</g>
<!-- 44&#45;&gt;47 -->
<g id="edge46" class="edge">
<title>44&#45;&gt;47</title>
<path fill="none" stroke="black" stroke-width="0.75" d="M403.17,-157.95C404.5,-153.38 409.19,-137.36 411.87,-128.18"/>
<polygon fill="black" stroke="black" stroke-width="0.75" points="413.54,-128.72 413.26,-123.43 410.18,-127.74 413.54,-128.72"/>
</g>
<!-- 48 -->
<g id="node48" class="node">
<title>48</title>
<ellipse fill="black" stroke="black" cx="435.8" cy="-120.6" rx="1.8" ry="1.8"/>
</g>
<!-- 44&#45;&gt;48 -->
<g id="edge47" class="edge">
<title>44&#45;&gt;48</title>
<path fill="none" stroke="black" stroke-width="0.75" d="M403.62,-158.27C407.43,-153.93 423.65,-135.45 431.5,-126.5"/>
<polygon fill="black" stroke="black" stroke-width="0.75" points="432.39,-128.13 434.38,-123.22 429.76,-125.82 432.39,-128.13"/>
</g>
<!-- 46 -->
<g id="node46" class="node">
<title>46</title>
<ellipse fill="black" stroke="black" cx="402.8" cy="-81" rx="1.8" ry="1.8"/>
</g>
<!-- 45&#45;&gt;46 -->
<g id="edge48" class="edge">
<title>45&#45;&gt;46</title>
<path fill="none" stroke="black" stroke-width="0.75" d="M392.17,-118.35C393.5,-113.78 398.19,-97.76 400.87,-88.58"/>
<polygon fill="black" stroke="black" stroke-width="0.75" points="402.54,-89.12 402.26,-83.83 399.18,-88.14 402.54,-89.12"/>
</g>
<!-- 50 -->
<g id="node50" class="node">
<title>50</title>
<ellipse fill="black" stroke="black" cx="457.8" cy="-120.6" rx="1.8" ry="1.8"/>
</g>
<!-- 49&#45;&gt;50 -->
<g id="edge49" class="edge">
<title>49&#45;&gt;50</title>
<path fill="none" stroke="black" stroke-width="0.75" d="M468.43,-157.95C467.1,-153.38 462.41,-137.36 459.73,-128.18"/>
<polygon fill="black" stroke="black" stroke-width="0.75" points="461.42,-127.74 458.34,-123.43 458.06,-128.72 461.42,-127.74"/>
</g>
<!-- 52 -->
<g id="node52" class="node">
<title>52</title>
<ellipse fill="black" stroke="black" cx="479.8" cy="-120.6" rx="1.8" ry="1.8"/>
</g>
<!-- 49&#45;&gt;52 -->
<g id="edge50" class="edge">
<title>49&#45;&gt;52</title>
<path fill="none" stroke="black" stroke-width="0.75" d="M469.17,-157.95C470.5,-153.38 475.19,-137.36 477.87,-128.18"/>
<polygon fill="black" stroke="black" stroke-width="0.75" points="479.54,-128.72 479.26,-123.43 476.18,-127.74 479.54,-128.72"/>
</g>
<!-- 53 -->
<g id="node53" class="node">
<title>53</title>
<ellipse fill="black" stroke="black" cx="501.8" cy="-120.6" rx="1.8" ry="1.8"/>
</g>
<!-- 49&#45;&gt;53 -->
<g id="edge51" class="edge">
<title>49&#45;&gt;53</title>
<path fill="none" stroke="black" stroke-width="0.75" d="M469.62,-158.27C473.43,-153.93 489.65,-135.45 497.5,-126.5"/>
<polygon fill="black" stroke="black" stroke-width="0.75" points="498.39,-128.13 500.38,-123.22 495.76,-125.82 498.39,-128.13"/>
</g>
<!-- 51 -->
<g id="node51" class="node">
<title>51</title>
<ellipse fill="black" stroke="black" cx="457.8" cy="-81" rx="1.8" ry="1.8"/>
</g>
<!-- 50&#45;&gt;51 -->
<g id="edge52" class="edge">
<title>50&#45;&gt;51</title>
<path fill="none" stroke="black" stroke-width="0.75" d="M457.8,-118.35C457.8,-113.89 457.8,-98.54 457.8,-89.27"/>
<polygon fill="black" stroke="black" stroke-width="0.75" points="459.55,-89.43 457.8,-84.43 456.05,-89.43 459.55,-89.43"/>
</g>
</g>
</svg>
