<svg xmlns="http://www.w3.org/2000/svg" width="161.8" height="100.0" viewBox="-58.934 -5.000 171.803 110.000">
<g fill="none" stroke="black" stroke-width="0.0050%" transform="translate(0, 100.0000) scale(100.0000, -100.0000)">
<circle cx="-0.539" cy="0.000" r="0.005" />
<circle cx="0.000" cy="1.000" r="0.005" />
<polyline points="-0.539,0.000 -0.523,0.000 -0.507,0.000 -0.491,0.000 -0.475,0.000 -0.458,0.000 -0.442,0.000 -0.426,0.000 -0.410,0.000 -0.394,0.000 -0.378,0.000 -0.361,0.000 -0.345,0.000 -0.329,0.000 -0.313,0.000 -0.297,0.000 -0.280,0.000 -0.264,0.000 -0.248,0.000 -0.232,0.000 -0.216,0.000 -0.200,0.000 -0.183,0.000 -0.167,0.000 -0.151,0.000 -0.135,0.000 -0.119,0.000 -0.102,0.000 -0.086,0.000 -0.070,0.000 -0.054,0.000 -0.038,0.000 -0.022,0.000 -0.005,0.000 0.011,0.020 0.027,0.050 0.043,0.080 0.059,0.110 0.076,0.140 0.092,0.170 0.108,0.200 0.124,0.230 0.140,0.260 0.156,0.290 0.173,0.320 0.189,0.350 0.205,0.380 0.221,0.410 0.237,0.440 0.253,0.470 0.270,0.500 0.286,0.530 0.302,0.560 0.318,0.590 0.334,0.620 0.351,0.650 0.367,0.680 0.383,0.710 0.399,0.740 0.415,0.770 0.431,0.800 0.448,0.830 0.464,0.860 0.480,0.890 0.496,0.920 0.512,0.950 0.529,0.980 0.545,1.000 0.561,1.000 0.577,1.000 0.593,1.000 0.609,1.000 0.626,1.000 0.642,1.000 0.658,1.000 0.674,1.000 0.690,1.000 0.707,1.000 0.723,1.000 0.739,1.000 0.755,1.000 0.771,1.000 0.787,1.000 0.804,1.000 0.820,1.000 0.836,1.000 0.852,1.000 0.868,1.000 0.885,1.000 0.901,1.000 0.917,1.000 0.933,1.000 0.949,1.000 0.965,1.000 0.982,1.000 0.998,1.000 1.014,1.000 1.030,1.000 1.046,1.000 1.063,1.000 1.079,1.000" />
</g>
</svg>