<svg xmlns="http://www.w3.org/2000/svg" width="161.8" height="100.0" viewBox="-2.258 -5.000 171.803 110.000">
<g fill="none" stroke="black" stroke-width="0.0089%" transform="translate(0, 100.0000) scale(55.9276, -55.9276)">
<polyline points="0.049,1.788 0.078,1.338 0.107,1.089 0.136,0.926 0.165,0.810 0.194,0.721 0.223,0.652 0.252,0.595 0.280,0.548 0.309,0.508 0.338,0.473 0.367,0.443 0.396,0.417 0.425,0.393 0.454,0.372 0.483,0.353 0.512,0.336 0.541,0.320 0.570,0.306 0.599,0.293 0.628,0.281 0.657,0.270 0.686,0.259 0.714,0.250 0.743,0.240 0.772,0.232 0.801,0.224 0.830,0.217 0.859,0.210 0.888,0.203 0.917,0.197 0.946,0.191 0.975,0.185 1.004,0.180 1.033,0.175 1.062,0.170 1.091,0.165 1.119,0.161 1.148,0.157 1.177,0.153 1.206,0.149 1.235,0.145 1.264,0.142 1.293,0.138 1.322,0.135 1.351,0.132 1.380,0.129 1.409,0.126 1.438,0.123 1.467,0.120 1.496,0.118 1.525,0.115 1.553,0.113 1.582,0.111 1.611,0.108 1.640,0.106 1.669,0.104 1.698,0.102 1.727,0.100 1.756,0.098 1.785,0.096 1.814,0.094 1.843,0.093 1.872,0.091 1.901,0.089 1.930,0.088 1.958,0.086 1.987,0.085 2.016,0.083 2.045,0.082 2.074,0.080 2.103,0.079 2.132,0.078 2.161,0.076 2.190,0.075 2.219,0.074 2.248,0.073 2.277,0.072 2.306,0.070 2.335,0.069 2.364,0.068 2.392,0.067 2.421,0.066 2.450,0.065 2.479,0.064 2.508,0.063 2.537,0.062 2.566,0.061 2.595,0.060 2.624,0.060 2.653,0.059 2.682,0.058 2.711,0.057 2.740,0.056 2.769,0.055 2.797,0.055 2.826,0.054 2.855,0.053 2.884,0.052 2.913,0.052 2.942,0.051" />
<polyline points="0.049,0.100 0.078,0.158 0.107,0.215 0.136,0.272 0.165,0.327 0.194,0.380 0.223,0.431 0.252,0.480 0.280,0.527 0.309,0.571 0.338,0.613 0.367,0.651 0.396,0.686 0.425,0.718 0.454,0.747 0.483,0.773 0.512,0.795 0.541,0.814 0.570,0.829 0.599,0.841 0.628,0.850 0.657,0.855 0.686,0.858 0.714,0.857 0.743,0.853 0.772,0.847 0.801,0.838 0.830,0.827 0.859,0.813 0.888,0.798 0.917,0.780 0.946,0.761 0.975,0.740 1.004,0.718 1.033,0.695 1.062,0.671 1.091,0.646 1.119,0.620 1.148,0.594 1.177,0.568 1.206,0.542 1.235,0.516 1.264,0.489 1.293,0.464 1.322,0.438 1.351,0.413 1.380,0.389 1.409,0.365 1.438,0.342 1.467,0.320 1.496,0.298 1.525,0.277 1.553,0.258 1.582,0.239 1.611,0.221 1.640,0.204 1.669,0.188 1.698,0.173 1.727,0.158 1.756,0.145 1.785,0.133 1.814,0.121 1.843,0.110 1.872,0.100 1.901,0.091 1.930,0.082 1.958,0.074 1.987,0.067 2.016,0.060 2.045,0.054 2.074,0.048 2.103,0.043 2.132,0.039 2.161,0.034 2.190,0.031 2.219,0.027 2.248,0.024 2.277,0.021 2.306,0.019 2.335,0.016 2.364,0.014 2.392,0.013 2.421,0.011 2.450,0.010 2.479,0.008 2.508,0.007 2.537,0.006 2.566,0.006 2.595,0.005 2.624,0.004 2.653,0.004 2.682,0.003 2.711,0.003 2.740,0.002 2.769,0.002 2.797,0.002 2.826,0.001 2.855,0.001 2.884,0.001 2.913,0.001 2.942,0.001" />
<polyline points="0.049,0.000 0.078,0.002 0.107,0.005 0.136,0.011 0.165,0.019 0.194,0.031 0.223,0.047 0.252,0.067 0.280,0.093 0.309,0.124 0.338,0.162 0.367,0.206 0.396,0.257 0.425,0.315 0.454,0.379 0.483,0.451 0.512,0.528 0.541,0.612 0.570,0.700 0.599,0.792 0.628,0.887 0.657,0.982 0.686,1.076 0.714,1.167 0.743,1.252 0.772,1.330 0.801,1.397 0.830,1.452 0.859,1.492 0.888,1.516 0.917,1.523 0.946,1.511 0.975,1.480 1.004,1.431 1.033,1.366 1.062,1.285 1.091,1.192 1.119,1.089 1.148,0.980 1.177,0.867 1.206,0.755 1.235,0.645 1.264,0.542 1.293,0.446 1.322,0.361 1.351,0.286 1.380,0.221 1.409,0.168 1.438,0.124 1.467,0.090 1.496,0.064 1.525,0.044 1.553,0.029 1.582,0.019 1.611,0.012 1.640,0.007 1.669,0.004 1.698,0.003 1.727,0.001 1.756,0.001 1.785,0.000 1.814,0.000 1.843,0.000 1.872,0.000 1.901,0.000 1.930,0.000 1.958,0.000 1.987,0.000 2.016,0.000 2.045,0.000 2.074,0.000 2.103,0.000 2.132,0.000 2.161,0.000 2.190,0.000 2.219,0.000 2.248,0.000 2.277,0.000 2.306,0.000 2.335,0.000 2.364,0.000 2.392,0.000 2.421,0.000 2.450,0.000 2.479,0.000 2.508,0.000 2.537,0.000 2.566,0.000 2.595,0.000 2.624,0.000 2.653,0.000 2.682,0.000 2.711,0.000 2.740,0.000 2.769,0.000 2.797,0.000 2.826,0.000 2.855,0.000 2.884,0.000 2.913,0.000 2.942,0.000" />
</g>
</svg>